<svg version="1.1" xmlns="http://www.w3.org/2000/svg" viewBox="0 0 1983.7338409423828 770.3075561523438" width="3967.4676818847656" height="1540.6151123046875">
  <!-- svg-source:excalidraw -->
  
  <defs>
    <style>
      @font-face {
        font-family: "Virgil";
        src: url("https://excalidraw.com/Virgil.woff2");
      }
      @font-face {
        font-family: "Cascadia";
        src: url("https://excalidraw.com/Cascadia.woff2");
      }
    </style>
  </defs>
  <rect x="0" y="0" width="1983.7338409423828" height="770.3075561523438" fill="#ffffff"></rect><g stroke-linecap="round" transform="translate(1026.8631042654297 396.45526123046875) rotate(0 2.2586669921875 24.04473876953125)"><path d="M0 0 L4.52 0 L4.52 48.09 L0 48.09" stroke="none" stroke-width="0" fill="#087f5b"></path><path d="M0 0 C1.61 0, 3.23 0, 4.52 0 M0 0 C1.66 0, 3.31 0, 4.52 0 M4.52 0 C4.52 17.98, 4.52 35.96, 4.52 48.09 M4.52 0 C4.52 14.57, 4.52 29.15, 4.52 48.09 M4.52 48.09 C3.36 48.09, 2.21 48.09, 0 48.09 M4.52 48.09 C3.25 48.09, 1.97 48.09, 0 48.09 M0 48.09 C0 30.46, 0 12.83, 0 0 M0 48.09 C0 29.43, 0 10.77, 0 0" stroke="#087f5b" stroke-width="2" fill="none"></path></g><g stroke-linecap="round" transform="translate(1037.5640866254005 396.45526123046875) rotate(0 2.2586669921875 24.04473876953125)"><path d="M0 0 L4.52 0 L4.52 48.09 L0 48.09" stroke="none" stroke-width="0" fill="#087f5b"></path><path d="M0 0 C1.32 0, 2.64 0, 4.52 0 M0 0 C1.57 0, 3.15 0, 4.52 0 M4.52 0 C4.52 15.57, 4.52 31.15, 4.52 48.09 M4.52 0 C4.52 19.23, 4.52 38.45, 4.52 48.09 M4.52 48.09 C2.78 48.09, 1.04 48.09, 0 48.09 M4.52 48.09 C3.16 48.09, 1.8 48.09, 0 48.09 M0 48.09 C0 38.15, 0 28.21, 0 0 M0 48.09 C0 34.83, 0 21.58, 0 0" stroke="#087f5b" stroke-width="2" fill="none"></path></g><g stroke-linecap="round" transform="translate(1048.2650689853713 396.45526123046875) rotate(0 2.2586669921875 24.04473876953125)"><path d="M0 0 L4.52 0 L4.52 48.09 L0 48.09" stroke="none" stroke-width="0" fill="#087f5b"></path><path d="M0 0 C1.76 0, 3.51 0, 4.52 0 M0 0 C1.03 0, 2.06 0, 4.52 0 M4.52 0 C4.52 10.91, 4.52 21.83, 4.52 48.09 M4.52 0 C4.52 11.48, 4.52 22.95, 4.52 48.09 M4.52 48.09 C2.97 48.09, 1.43 48.09, 0 48.09 M4.52 48.09 C3.53 48.09, 2.55 48.09, 0 48.09 M0 48.09 C0 38.45, 0 28.81, 0 0 M0 48.09 C0 29.75, 0 11.41, 0 0" stroke="#087f5b" stroke-width="2" fill="none"></path></g><g stroke-linecap="round" transform="translate(1058.966051345342 396.45526123046875) rotate(0 2.2586669921875 24.04473876953125)"><path d="M0 0 L4.52 0 L4.52 48.09 L0 48.09" stroke="none" stroke-width="0" fill="#087f5b"></path><path d="M0 0 C1.62 0, 3.24 0, 4.52 0 M0 0 C0.96 0, 1.92 0, 4.52 0 M4.52 0 C4.52 16.64, 4.52 33.28, 4.52 48.09 M4.52 0 C4.52 18.36, 4.52 36.72, 4.52 48.09 M4.52 48.09 C2.83 48.09, 1.15 48.09, 0 48.09 M4.52 48.09 C2.76 48.09, 1 48.09, 0 48.09 M0 48.09 C0 32.87, 0 17.65, 0 0 M0 48.09 C0 35.91, 0 23.73, 0 0" stroke="#087f5b" stroke-width="2" fill="none"></path></g><g stroke-linecap="round" transform="translate(1069.6670337053129 396.45526123046875) rotate(0 2.2586669921875 24.04473876953125)"><path d="M0 0 L4.52 0 L4.52 48.09 L0 48.09" stroke="none" stroke-width="0" fill="#087f5b"></path><path d="M0 0 C1.23 0, 2.45 0, 4.52 0 M0 0 C1 0, 1.99 0, 4.52 0 M4.52 0 C4.52 12.4, 4.52 24.81, 4.52 48.09 M4.52 0 C4.52 19.01, 4.52 38.02, 4.52 48.09 M4.52 48.09 C3.54 48.09, 2.57 48.09, 0 48.09 M4.52 48.09 C2.87 48.09, 1.23 48.09, 0 48.09 M0 48.09 C0 30.68, 0 13.27, 0 0 M0 48.09 C0 30.69, 0 13.29, 0 0" stroke="#087f5b" stroke-width="2" fill="none"></path></g><g stroke-linecap="round" transform="translate(1080.3680160652837 396.45526123046875) rotate(0 2.2586669921875 24.04473876953125)"><path d="M0 0 L4.52 0 L4.52 48.09 L0 48.09" stroke="none" stroke-width="0" fill="#087f5b"></path><path d="M0 0 C1.11 0, 2.22 0, 4.52 0 M0 0 C1.68 0, 3.36 0, 4.52 0 M4.52 0 C4.52 11.78, 4.52 23.55, 4.52 48.09 M4.52 0 C4.52 12.84, 4.52 25.69, 4.52 48.09 M4.52 48.09 C3.59 48.09, 2.66 48.09, 0 48.09 M4.52 48.09 C3.08 48.09, 1.64 48.09, 0 48.09 M0 48.09 C0 31.88, 0 15.66, 0 0 M0 48.09 C0 35.62, 0 23.14, 0 0" stroke="#087f5b" stroke-width="2" fill="none"></path></g><g stroke-linecap="round" transform="translate(1091.0689984252544 396.45526123046875) rotate(0 2.2586669921875 24.04473876953125)"><path d="M0 0 L4.52 0 L4.52 48.09 L0 48.09" stroke="none" stroke-width="0" fill="#087f5b"></path><path d="M0 0 C1.44 0, 2.88 0, 4.52 0 M0 0 C1.69 0, 3.39 0, 4.52 0 M4.52 0 C4.52 15.06, 4.52 30.12, 4.52 48.09 M4.52 0 C4.52 11.72, 4.52 23.44, 4.52 48.09 M4.52 48.09 C2.86 48.09, 1.2 48.09, 0 48.09 M4.52 48.09 C3.51 48.09, 2.51 48.09, 0 48.09 M0 48.09 C0 34.66, 0 21.23, 0 0 M0 48.09 C0 35.63, 0 23.18, 0 0" stroke="#087f5b" stroke-width="2" fill="none"></path></g><g stroke-linecap="round" transform="translate(1101.7699807852252 396.45526123046875) rotate(0 2.2586669921875 24.04473876953125)"><path d="M0 0 L4.52 0 L4.52 48.09 L0 48.09" stroke="none" stroke-width="0" fill="#087f5b"></path><path d="M0 0 C1.74 0, 3.47 0, 4.52 0 M0 0 C1.24 0, 2.49 0, 4.52 0 M4.52 0 C4.52 18.08, 4.52 36.15, 4.52 48.09 M4.52 0 C4.52 12.98, 4.52 25.96, 4.52 48.09 M4.52 48.09 C3.15 48.09, 1.78 48.09, 0 48.09 M4.52 48.09 C3.26 48.09, 2 48.09, 0 48.09 M0 48.09 C0 30.53, 0 12.96, 0 0 M0 48.09 C0 32.29, 0 16.49, 0 0" stroke="#087f5b" stroke-width="2" fill="none"></path></g><g stroke-linecap="round" transform="translate(1112.470963145196 396.45526123046875) rotate(0 2.2586669921875 24.04473876953125)"><path d="M0 0 L4.52 0 L4.52 48.09 L0 48.09" stroke="none" stroke-width="0" fill="#087f5b"></path><path d="M0 0 C1.4 0, 2.8 0, 4.52 0 M0 0 C1.49 0, 2.99 0, 4.52 0 M4.52 0 C4.52 15.48, 4.52 30.96, 4.52 48.09 M4.52 0 C4.52 15.72, 4.52 31.44, 4.52 48.09 M4.52 48.09 C3.41 48.09, 2.3 48.09, 0 48.09 M4.52 48.09 C3.05 48.09, 1.59 48.09, 0 48.09 M0 48.09 C0 36.74, 0 25.4, 0 0 M0 48.09 C0 30.61, 0 13.14, 0 0" stroke="#087f5b" stroke-width="2" fill="none"></path></g><g stroke-linecap="round" transform="translate(1123.1719455051668 396.45526123046875) rotate(0 2.2586669921875 24.04473876953125)"><path d="M0 0 L4.52 0 L4.52 48.09 L0 48.09" stroke="none" stroke-width="0" fill="#087f5b"></path><path d="M0 0 C1.71 0, 3.43 0, 4.52 0 M0 0 C1.32 0, 2.64 0, 4.52 0 M4.52 0 C4.52 15.39, 4.52 30.78, 4.52 48.09 M4.52 0 C4.52 9.88, 4.52 19.76, 4.52 48.09 M4.52 48.09 C2.72 48.09, 0.93 48.09, 0 48.09 M4.52 48.09 C3.38 48.09, 2.25 48.09, 0 48.09 M0 48.09 C0 32.95, 0 17.8, 0 0 M0 48.09 C0 32.52, 0 16.96, 0 0" stroke="#087f5b" stroke-width="2" fill="none"></path></g><g stroke-linecap="round" transform="translate(1133.8729278651376 396.45526123046875) rotate(0 2.2586669921875 24.04473876953125)"><path d="M0 0 L4.52 0 L4.52 48.09 L0 48.09" stroke="none" stroke-width="0" fill="#087f5b"></path><path d="M0 0 C1.22 0, 2.44 0, 4.52 0 M0 0 C1.54 0, 3.08 0, 4.52 0 M4.52 0 C4.52 17.58, 4.52 35.15, 4.52 48.09 M4.52 0 C4.52 11.56, 4.52 23.12, 4.52 48.09 M4.52 48.09 C2.84 48.09, 1.16 48.09, 0 48.09 M4.52 48.09 C3.35 48.09, 2.18 48.09, 0 48.09 M0 48.09 C0 36.5, 0 24.91, 0 0 M0 48.09 C0 30.39, 0 12.69, 0 0" stroke="#087f5b" stroke-width="2" fill="none"></path></g><g stroke-linecap="round" transform="translate(1144.5739102251084 396.45526123046875) rotate(0 2.2586669921875 24.04473876953125)"><path d="M0 0 L4.52 0 L4.52 48.09 L0 48.09" stroke="none" stroke-width="0" fill="#087f5b"></path><path d="M0 0 C1.6 0, 3.21 0, 4.52 0 M0 0 C1.41 0, 2.82 0, 4.52 0 M4.52 0 C4.52 16.8, 4.52 33.6, 4.52 48.09 M4.52 0 C4.52 15.43, 4.52 30.86, 4.52 48.09 M4.52 48.09 C3.61 48.09, 2.69 48.09, 0 48.09 M4.52 48.09 C3.29 48.09, 2.05 48.09, 0 48.09 M0 48.09 C0 30.49, 0 12.88, 0 0 M0 48.09 C0 30.7, 0 13.31, 0 0" stroke="#087f5b" stroke-width="2" fill="none"></path></g><g stroke-linecap="round" transform="translate(1155.2748925850792 396.45526123046875) rotate(0 2.2586669921875 24.04473876953125)"><path d="M0 0 L4.52 0 L4.52 48.09 L0 48.09" stroke="none" stroke-width="0" fill="#087f5b"></path><path d="M0 0 C1.62 0, 3.24 0, 4.52 0 M0 0 C1.12 0, 2.25 0, 4.52 0 M4.52 0 C4.52 14.04, 4.52 28.07, 4.52 48.09 M4.52 0 C4.52 17.5, 4.52 35, 4.52 48.09 M4.52 48.09 C3.05 48.09, 1.58 48.09, 0 48.09 M4.52 48.09 C2.74 48.09, 0.97 48.09, 0 48.09 M0 48.09 C0 32.36, 0 16.63, 0 0 M0 48.09 C0 31.43, 0 14.76, 0 0" stroke="#087f5b" stroke-width="2" fill="none"></path></g><g stroke-linecap="round" transform="translate(1165.97587494505 396.45526123046875) rotate(0 2.2586669921875 24.04473876953125)"><path d="M0 0 L4.52 0 L4.52 48.09 L0 48.09" stroke="none" stroke-width="0" fill="#087f5b"></path><path d="M0 0 C1.66 0, 3.32 0, 4.52 0 M0 0 C1.44 0, 2.88 0, 4.52 0 M4.52 0 C4.52 13.66, 4.52 27.32, 4.52 48.09 M4.52 0 C4.52 18.65, 4.52 37.29, 4.52 48.09 M4.52 48.09 C2.75 48.09, 0.97 48.09, 0 48.09 M4.52 48.09 C2.9 48.09, 1.28 48.09, 0 48.09 M0 48.09 C0 29.5, 0 10.92, 0 0 M0 48.09 C0 32.07, 0 16.05, 0 0" stroke="#087f5b" stroke-width="2" fill="none"></path></g><g stroke-linecap="round" transform="translate(1176.6768573050208 396.45526123046875) rotate(0 2.2586669921875 24.04473876953125)"><path d="M0 0 L4.52 0 L4.52 48.09 L0 48.09" stroke="none" stroke-width="0" fill="#087f5b"></path><path d="M0 0 C1.67 0, 3.34 0, 4.52 0 M0 0 C1.51 0, 3.02 0, 4.52 0 M4.52 0 C4.52 17.71, 4.52 35.42, 4.52 48.09 M4.52 0 C4.52 17.4, 4.52 34.81, 4.52 48.09 M4.52 48.09 C3.05 48.09, 1.58 48.09, 0 48.09 M4.52 48.09 C3.6 48.09, 2.68 48.09, 0 48.09 M0 48.09 C0 32.43, 0 16.78, 0 0 M0 48.09 C0 30.55, 0 13.01, 0 0" stroke="#087f5b" stroke-width="2" fill="none"></path></g><g stroke-linecap="round" transform="translate(1187.3778396649916 396.45526123046875) rotate(0 2.2586669921875 24.04473876953125)"><path d="M0 0 L4.52 0 L4.52 48.09 L0 48.09" stroke="none" stroke-width="0" fill="#087f5b"></path><path d="M0 0 C1.6 0, 3.21 0, 4.52 0 M0 0 C0.96 0, 1.92 0, 4.52 0 M4.52 0 C4.52 12.62, 4.52 25.24, 4.52 48.09 M4.52 0 C4.52 10.53, 4.52 21.06, 4.52 48.09 M4.52 48.09 C3 48.09, 1.47 48.09, 0 48.09 M4.52 48.09 C3.23 48.09, 1.93 48.09, 0 48.09 M0 48.09 C0 29.26, 0 10.44, 0 0 M0 48.09 C0 37.44, 0 26.79, 0 0" stroke="#087f5b" stroke-width="2" fill="none"></path></g><g stroke-linecap="round" transform="translate(1198.0788220249624 396.45526123046875) rotate(0 2.2586669921875 24.04473876953125)"><path d="M0 0 L4.52 0 L4.52 48.09 L0 48.09" stroke="none" stroke-width="0" fill="#087f5b"></path><path d="M0 0 C1.11 0, 2.22 0, 4.52 0 M0 0 C0.95 0, 1.9 0, 4.52 0 M4.52 0 C4.52 12.32, 4.52 24.64, 4.52 48.09 M4.52 0 C4.52 13.42, 4.52 26.85, 4.52 48.09 M4.52 48.09 C3 48.09, 1.49 48.09, 0 48.09 M4.52 48.09 C3.1 48.09, 1.69 48.09, 0 48.09 M0 48.09 C0 30.46, 0 12.83, 0 0 M0 48.09 C0 35.51, 0 22.94, 0 0" stroke="#087f5b" stroke-width="2" fill="none"></path></g><g stroke-linecap="round" transform="translate(1208.7798043849332 396.45526123046875) rotate(0 2.2586669921875 24.04473876953125)"><path d="M0 0 L4.52 0 L4.52 48.09 L0 48.09" stroke="none" stroke-width="0" fill="#087f5b"></path><path d="M0 0 C1.33 0, 2.66 0, 4.52 0 M0 0 C1.33 0, 2.65 0, 4.52 0 M4.52 0 C4.52 15.94, 4.52 31.89, 4.52 48.09 M4.52 0 C4.52 16.99, 4.52 33.99, 4.52 48.09 M4.52 48.09 C3.17 48.09, 1.83 48.09, 0 48.09 M4.52 48.09 C2.8 48.09, 1.08 48.09, 0 48.09 M0 48.09 C0 38.05, 0 28.02, 0 0 M0 48.09 C0 37.8, 0 27.51, 0 0" stroke="#087f5b" stroke-width="2" fill="none"></path></g><g stroke-linecap="round" transform="translate(1219.480786744904 396.45526123046875) rotate(0 2.2586669921875 24.04473876953125)"><path d="M0 0 L4.52 0 L4.52 48.09 L0 48.09" stroke="none" stroke-width="0" fill="#087f5b"></path><path d="M0 0 C1.22 0, 2.45 0, 4.52 0 M0 0 C1.47 0, 2.94 0, 4.52 0 M4.52 0 C4.52 16.71, 4.52 33.43, 4.52 48.09 M4.52 0 C4.52 11.89, 4.52 23.78, 4.52 48.09 M4.52 48.09 C2.99 48.09, 1.46 48.09, 0 48.09 M4.52 48.09 C3.26 48.09, 2.01 48.09, 0 48.09 M0 48.09 C0 31.43, 0 14.78, 0 0 M0 48.09 C0 36.74, 0 25.39, 0 0" stroke="#087f5b" stroke-width="2" fill="none"></path></g><g stroke-linecap="round" transform="translate(1230.1817691048748 396.45526123046875) rotate(0 2.2586669921875 24.04473876953125)"><path d="M0 0 L4.52 0 L4.52 48.09 L0 48.09" stroke="none" stroke-width="0" fill="#087f5b"></path><path d="M0 0 C1.26 0, 2.52 0, 4.52 0 M0 0 C1.6 0, 3.19 0, 4.52 0 M4.52 0 C4.52 16.86, 4.52 33.72, 4.52 48.09 M4.52 0 C4.52 18.6, 4.52 37.2, 4.52 48.09 M4.52 48.09 C2.79 48.09, 1.05 48.09, 0 48.09 M4.52 48.09 C3.06 48.09, 1.6 48.09, 0 48.09 M0 48.09 C0 32.58, 0 17.08, 0 0 M0 48.09 C0 35.85, 0 23.62, 0 0" stroke="#087f5b" stroke-width="2" fill="none"></path></g><g stroke-linecap="round" transform="translate(1240.8827514648456 396.45526123046875) rotate(0 2.2586669921875 24.04473876953125)"><path d="M0 0 L4.52 0 L4.52 48.09 L0 48.09" stroke="none" stroke-width="0" fill="#087f5b"></path><path d="M0 0 C1.04 0, 2.08 0, 4.52 0 M0 0 C1.52 0, 3.05 0, 4.52 0 M4.52 0 C4.52 11.81, 4.52 23.62, 4.52 48.09 M4.52 0 C4.52 13.72, 4.52 27.44, 4.52 48.09 M4.52 48.09 C3.52 48.09, 2.53 48.09, 0 48.09 M4.52 48.09 C2.89 48.09, 1.26 48.09, 0 48.09 M0 48.09 C0 38.35, 0 28.61, 0 0 M0 48.09 C0 29.71, 0 11.32, 0 0" stroke="#087f5b" stroke-width="2" fill="none"></path></g><g stroke-linecap="round" transform="translate(1027.241455078125 154.60057067871094) rotate(0 8.7996826171875 52.04705810546875)"><path d="M0 0 L17.6 0 L17.6 104.09 L0 104.09" stroke="none" stroke-width="0" fill="#a61e4d"></path><path d="M0 0 C6.11 0, 12.21 0, 17.6 0 M0 0 C3.57 0, 7.13 0, 17.6 0 M17.6 0 C17.6 22.62, 17.6 45.25, 17.6 104.09 M17.6 0 C17.6 23.28, 17.6 46.56, 17.6 104.09 M17.6 104.09 C13.71 104.09, 9.82 104.09, 0 104.09 M17.6 104.09 C10.77 104.09, 3.95 104.09, 0 104.09 M0 104.09 C0 80.93, 0 57.77, 0 0 M0 104.09 C0 77.21, 0 50.32, 0 0" stroke="#a61e4d" stroke-width="2" fill="none"></path></g><g stroke-linecap="round" transform="translate(1064.7952270507812 183.87220764160156) rotate(0 8.546234130859375 37.41123962402344)"><path d="M0 0 L17.09 0 L17.09 74.82 L0 74.82" stroke="none" stroke-width="0" fill="#a61e4d"></path><path d="M0 0 C5.83 0, 11.65 0, 17.09 0 M0 0 C4.45 0, 8.9 0, 17.09 0 M17.09 0 C17.09 16.21, 17.09 32.43, 17.09 74.82 M17.09 0 C17.09 29.22, 17.09 58.43, 17.09 74.82 M17.09 74.82 C10.8 74.82, 4.52 74.82, 0 74.82 M17.09 74.82 C11.2 74.82, 5.3 74.82, 0 74.82 M0 74.82 C0 58.5, 0 42.18, 0 0 M0 74.82 C0 59.75, 0 44.67, 0 0" stroke="#a61e4d" stroke-width="2" fill="none"></path></g><g stroke-linecap="round" transform="translate(1101.8421020507812 211.38453674316406) rotate(0 7.481292724609375 23.655075073242188)"><path d="M0 0 L14.96 0 L14.96 47.31 L0 47.31" stroke="none" stroke-width="0" fill="#a61e4d"></path><path d="M0 0 C3.57 0, 7.14 0, 14.96 0 M0 0 C3 0, 6 0, 14.96 0 M14.96 0 C14.96 16.59, 14.96 33.18, 14.96 47.31 M14.96 0 C14.96 17.56, 14.96 35.13, 14.96 47.31 M14.96 47.31 C10.07 47.31, 5.17 47.31, 0 47.31 M14.96 47.31 C9.95 47.31, 4.93 47.31, 0 47.31 M0 47.31 C0 29.79, 0 12.26, 0 0 M0 47.31 C0 31.22, 0 15.13, 0 0" stroke="#a61e4d" stroke-width="2" fill="none"></path></g><g stroke-linecap="round" transform="translate(1172.7947387695312 223.18482971191406) rotate(0 7.14385986328125 17.754928588867188)"><path d="M0 0 L14.29 0 L14.29 35.51 L0 35.51" stroke="none" stroke-width="0" fill="#a61e4d"></path><path d="M0 0 C4.01 0, 8.01 0, 14.29 0 M0 0 C5.69 0, 11.38 0, 14.29 0 M14.29 0 C14.29 8.78, 14.29 17.57, 14.29 35.51 M14.29 0 C14.29 14.08, 14.29 28.15, 14.29 35.51 M14.29 35.51 C9.04 35.51, 3.8 35.51, 0 35.51 M14.29 35.51 C10.77 35.51, 7.25 35.51, 0 35.51 M0 35.51 C0 27.87, 0 20.22, 0 0 M0 35.51 C0 24.45, 0 13.38, 0 0" stroke="#a61e4d" stroke-width="2" fill="none"></path></g><g stroke-linecap="round" transform="translate(1239.7827758789062 240.98915100097656) rotate(0 6.6243896484375 8.852767944335938)"><path d="M0 0 L13.25 0 L13.25 17.71 L0 17.71" stroke="none" stroke-width="0" fill="#a61e4d"></path><path d="M0 0 C4.64 0, 9.28 0, 13.25 0 M0 0 C3.52 0, 7.04 0, 13.25 0 M13.25 0 C13.25 4.48, 13.25 8.96, 13.25 17.71 M13.25 0 C13.25 6.66, 13.25 13.32, 13.25 17.71 M13.25 17.71 C10 17.71, 6.76 17.71, 0 17.71 M13.25 17.71 C8.89 17.71, 4.52 17.71, 0 17.71 M0 17.71 C0 13.41, 0 9.12, 0 0 M0 17.71 C0 12.47, 0 7.24, 0 0" stroke="#a61e4d" stroke-width="2" fill="none"></path></g><g transform="translate(499.9923612444811 11.78432697287164) rotate(0 52 13.5)"><text x="0" y="19" font-family="Virgil, Segoe UI Emoji" font-size="21.202959299788272px" fill="#000000" text-anchor="start" style="white-space: pre;" direction="ltr"> Subsidies</text></g><g transform="translate(1553.4161899829746 17.446014404296875) rotate(0 171 13.5)"><text x="0" y="19" font-family="Virgil, Segoe UI Emoji" font-size="21.202959299788272px" fill="#000000" text-anchor="start" style="white-space: pre;" direction="ltr">Transaction selection &amp; ordering</text></g><g transform="translate(946.4209099054069 16.35692709596779) rotate(0 180.5 13.5)"><text x="0" y="19" font-family="Virgil, Segoe UI Emoji" font-size="21.202959299788272px" fill="#000000" text-anchor="start" style="white-space: pre;" direction="ltr">Likelihood of Mining/Forging Reward</text></g><g stroke-linecap="round" transform="translate(296.9666442871094 128.7691650390625) rotate(0 24.13726806640625 25.11798095703125)"><path d="M25 0 C30.34 5.97, 35.69 11.94, 48.27 26 M25 0 C34.16 10.23, 43.31 20.46, 48.27 26 M48.27 26 C41.54 33.01, 34.81 40.02, 25 50.24 M48.27 26 C40.1 34.51, 31.93 43.02, 25 50.24 M25 50.24 C19.4 44.81, 13.8 39.38, 0 26 M25 50.24 C18.87 44.29, 12.74 38.35, 0 26 M0 26 C6.25 19.5, 12.49 13.01, 25 0 M0 26 C5.44 20.34, 10.88 14.68, 25 0" stroke="#087f5b" stroke-width="2" fill="none"></path></g><g stroke-linecap="round" transform="translate(490.2840576171875 135.6998291015625) rotate(0 24.13726806640625 25.11798095703125)"><path d="M25 0 C30.86 6.55, 36.73 13.1, 48.27 26 M25 0 C33.51 9.51, 42.03 19.02, 48.27 26 M48.27 26 C41.66 32.88, 35.05 39.77, 25 50.24 M48.27 26 C42.75 31.75, 37.23 37.5, 25 50.24 M25 50.24 C16.27 41.77, 7.54 33.31, 0 26 M25 50.24 C15.92 41.43, 6.84 32.63, 0 26 M0 26 C9.95 15.65, 19.9 5.3, 25 0 M0 26 C9.53 16.09, 19.07 6.17, 25 0" stroke="#a61e4d" stroke-width="2" fill="none"></path></g><g stroke-linecap="round" transform="translate(368.3476867675781 266.35076904296875) rotate(0 24.13726806640625 25.11798095703125)"><path d="M25 0 C34.07 10.13, 43.14 20.27, 48.27 26 M25 0 C31.93 7.74, 38.85 15.47, 48.27 26 M48.27 26 C40.73 33.86, 33.18 41.72, 25 50.24 M48.27 26 C43.33 31.15, 38.39 36.3, 25 50.24 M25 50.24 C17.3 42.78, 9.61 35.32, 0 26 M25 50.24 C16.69 42.18, 8.38 34.12, 0 26 M0 26 C8.33 17.34, 16.66 8.67, 25 0 M0 26 C7.46 18.25, 14.91 10.49, 25 0" stroke="#087f5b" stroke-width="2" fill="none"></path></g><g stroke-linecap="round"><g transform="translate(404.8801574707031 276.123779296875) rotate(0 49.016143798828125 -51.42082214355469)"><path d="M0 0 C16.34 -17.14, 81.69 -85.7, 98.03 -102.84 M0 0 C16.34 -17.14, 81.69 -85.7, 98.03 -102.84" stroke="#000000" stroke-width="2" fill="none"></path></g></g><g stroke-linecap="round"><g transform="translate(329.784423828125 171.2711181640625) rotate(0 24.635116577148438 54.93243408203125)"><path d="M0 0 C8.21 18.31, 41.06 91.55, 49.27 109.86 M0 0 C8.21 18.31, 41.06 91.55, 49.27 109.86" stroke="#000000" stroke-width="2" fill="none"></path></g></g><g stroke-linecap="round"><g transform="translate(334.8285369873047 141.77667236328125) rotate(0 83.03623962402344 4.4892730712890625)"><path d="M0 0 C27.68 1.5, 138.39 7.48, 166.07 8.98 M0 0 C27.68 1.5, 138.39 7.48, 166.07 8.98" stroke="#000000" stroke-width="2" fill="none"></path></g></g><g stroke-linecap="round"><g transform="translate(404.2224578857422 305.922607421875) rotate(0 29.918060302734375 16.050323486328125)"><path d="M0 0 C9.97 5.35, 49.86 26.75, 59.84 32.1 M0 0 C9.97 5.35, 49.86 26.75, 59.84 32.1" stroke="#000000" stroke-width="2" fill="none"></path></g></g><g stroke-linecap="round"><g transform="translate(526.5770721435547 174.08071899414062) rotate(0 32.19816589355469 20.783065795898438)"><path d="M0 0 C10.73 6.93, 53.66 34.64, 64.4 41.57 M0 0 C10.73 6.93, 53.66 34.64, 64.4 41.57" stroke="#000000" stroke-width="2" fill="none"></path></g></g><g stroke-linecap="round"><g transform="translate(250.04580688476562 101.74649047851562) rotate(0 29.696701049804688 19.307113647460938)"><path d="M0 0 C9.9 6.44, 49.49 32.18, 59.39 38.61 M0 0 C9.9 6.44, 49.49 32.18, 59.39 38.61" stroke="#000000" stroke-width="2" fill="none"></path></g></g><g stroke-linecap="round" transform="translate(467.7071838378906 249.21466064453125) rotate(0 6.70306396484375 7.160858154296875)"><path d="M13.41 7.16 C13.41 7.58, 13.37 8, 13.3 8.4 C13.24 8.81, 13.13 9.22, 13 9.61 C12.87 10, 12.7 10.38, 12.51 10.74 C12.31 11.1, 12.09 11.45, 11.84 11.76 C11.59 12.08, 11.31 12.38, 11.01 12.65 C10.71 12.91, 10.39 13.16, 10.05 13.36 C9.72 13.57, 9.36 13.75, 9 13.89 C8.63 14.03, 8.25 14.14, 7.87 14.21 C7.48 14.28, 7.09 14.32, 6.7 14.32 C6.32 14.32, 5.92 14.28, 5.54 14.21 C5.16 14.14, 4.78 14.03, 4.41 13.89 C4.05 13.75, 3.69 13.57, 3.35 13.36 C3.02 13.16, 2.69 12.91, 2.39 12.65 C2.1 12.38, 1.82 12.08, 1.57 11.76 C1.32 11.45, 1.09 11.1, 0.9 10.74 C0.7 10.38, 0.54 10, 0.4 9.61 C0.27 9.22, 0.17 8.81, 0.1 8.4 C0.03 8, 0 7.58, 0 7.16 C0 6.75, 0.03 6.33, 0.1 5.92 C0.17 5.51, 0.27 5.1, 0.4 4.71 C0.54 4.32, 0.7 3.94, 0.9 3.58 C1.09 3.22, 1.32 2.88, 1.57 2.56 C1.82 2.24, 2.1 1.94, 2.39 1.68 C2.69 1.41, 3.02 1.17, 3.35 0.96 C3.69 0.75, 4.05 0.57, 4.41 0.43 C4.78 0.29, 5.16 0.18, 5.54 0.11 C5.92 0.04, 6.32 0, 6.7 0 C7.09 0, 7.48 0.04, 7.87 0.11 C8.25 0.18, 8.63 0.29, 9 0.43 C9.36 0.57, 9.72 0.75, 10.05 0.96 C10.39 1.17, 10.71 1.41, 11.01 1.68 C11.31 1.94, 11.59 2.24, 11.84 2.56 C12.09 2.88, 12.31 3.22, 12.51 3.58 C12.7 3.94, 12.87 4.32, 13 4.71 C13.13 5.1, 13.24 5.51, 13.3 5.92 C13.37 6.33, 13.39 6.95, 13.41 7.16 C13.42 7.37, 13.42 6.95, 13.41 7.16" stroke="none" stroke-width="0" fill="#000"></path><path d="M13.41 7.16 C13.41 7.58, 13.37 8, 13.3 8.4 C13.24 8.81, 13.13 9.22, 13 9.61 C12.87 10, 12.7 10.38, 12.51 10.74 C12.31 11.1, 12.09 11.45, 11.84 11.76 C11.59 12.08, 11.31 12.38, 11.01 12.65 C10.71 12.91, 10.39 13.16, 10.05 13.36 C9.72 13.57, 9.36 13.75, 9 13.89 C8.63 14.03, 8.25 14.14, 7.87 14.21 C7.48 14.28, 7.09 14.32, 6.7 14.32 C6.32 14.32, 5.92 14.28, 5.54 14.21 C5.16 14.14, 4.78 14.03, 4.41 13.89 C4.05 13.75, 3.69 13.57, 3.35 13.36 C3.02 13.16, 2.69 12.91, 2.39 12.65 C2.1 12.38, 1.82 12.08, 1.57 11.76 C1.32 11.45, 1.09 11.1, 0.9 10.74 C0.7 10.38, 0.54 10, 0.4 9.61 C0.27 9.22, 0.17 8.81, 0.1 8.4 C0.03 8, 0 7.58, 0 7.16 C0 6.75, 0.03 6.33, 0.1 5.92 C0.17 5.51, 0.27 5.1, 0.4 4.71 C0.54 4.32, 0.7 3.94, 0.9 3.58 C1.09 3.22, 1.32 2.88, 1.57 2.56 C1.82 2.24, 2.1 1.94, 2.39 1.68 C2.69 1.41, 3.02 1.17, 3.35 0.96 C3.69 0.75, 4.05 0.57, 4.41 0.43 C4.78 0.29, 5.16 0.18, 5.54 0.11 C5.92 0.04, 6.32 0, 6.7 0 C7.09 0, 7.48 0.04, 7.87 0.11 C8.25 0.18, 8.63 0.29, 9 0.43 C9.36 0.57, 9.72 0.75, 10.05 0.96 C10.39 1.17, 10.71 1.41, 11.01 1.68 C11.31 1.94, 11.59 2.24, 11.84 2.56 C12.09 2.88, 12.31 3.22, 12.51 3.58 C12.7 3.94, 12.87 4.32, 13 4.71 C13.13 5.1, 13.24 5.51, 13.3 5.92 C13.37 6.33, 13.39 6.95, 13.41 7.16 C13.42 7.37, 13.42 6.95, 13.41 7.16" stroke="#000000" stroke-width="2" fill="none"></path></g><g stroke-linecap="round" transform="translate(529.8166809082031 248.03823852539062) rotate(0 6.70306396484375 7.160858154296875)"><path d="M13.41 7.16 C13.41 7.58, 13.37 8, 13.3 8.4 C13.24 8.81, 13.13 9.22, 13 9.61 C12.87 10, 12.7 10.38, 12.51 10.74 C12.31 11.1, 12.09 11.45, 11.84 11.76 C11.59 12.08, 11.31 12.38, 11.01 12.65 C10.71 12.91, 10.39 13.16, 10.05 13.36 C9.72 13.57, 9.36 13.75, 9 13.89 C8.63 14.03, 8.25 14.14, 7.87 14.21 C7.48 14.28, 7.09 14.32, 6.7 14.32 C6.32 14.32, 5.92 14.28, 5.54 14.21 C5.16 14.14, 4.78 14.03, 4.41 13.89 C4.05 13.75, 3.69 13.57, 3.35 13.36 C3.02 13.16, 2.69 12.91, 2.39 12.65 C2.1 12.38, 1.82 12.08, 1.57 11.76 C1.32 11.45, 1.09 11.1, 0.9 10.74 C0.7 10.38, 0.54 10, 0.4 9.61 C0.27 9.22, 0.17 8.81, 0.1 8.4 C0.03 8, 0 7.58, 0 7.16 C0 6.75, 0.03 6.33, 0.1 5.92 C0.17 5.51, 0.27 5.1, 0.4 4.71 C0.54 4.32, 0.7 3.94, 0.9 3.58 C1.09 3.22, 1.32 2.88, 1.57 2.56 C1.82 2.24, 2.1 1.94, 2.39 1.68 C2.69 1.41, 3.02 1.17, 3.35 0.96 C3.69 0.75, 4.05 0.57, 4.41 0.43 C4.78 0.29, 5.16 0.18, 5.54 0.11 C5.92 0.04, 6.32 0, 6.7 0 C7.09 0, 7.48 0.04, 7.87 0.11 C8.25 0.18, 8.63 0.29, 9 0.43 C9.36 0.57, 9.72 0.75, 10.05 0.96 C10.39 1.17, 10.71 1.41, 11.01 1.68 C11.31 1.94, 11.59 2.24, 11.84 2.56 C12.09 2.88, 12.31 3.22, 12.51 3.58 C12.7 3.94, 12.87 4.32, 13 4.71 C13.13 5.1, 13.24 5.51, 13.3 5.92 C13.37 6.33, 13.39 6.95, 13.41 7.16 C13.42 7.37, 13.42 6.95, 13.41 7.16" stroke="none" stroke-width="0" fill="#000"></path><path d="M13.41 7.16 C13.41 7.58, 13.37 8, 13.3 8.4 C13.24 8.81, 13.13 9.22, 13 9.61 C12.87 10, 12.7 10.38, 12.51 10.74 C12.31 11.1, 12.09 11.45, 11.84 11.76 C11.59 12.08, 11.31 12.38, 11.01 12.65 C10.71 12.91, 10.39 13.16, 10.05 13.36 C9.72 13.57, 9.36 13.75, 9 13.89 C8.63 14.03, 8.25 14.14, 7.87 14.21 C7.48 14.28, 7.09 14.32, 6.7 14.32 C6.32 14.32, 5.92 14.28, 5.54 14.21 C5.16 14.14, 4.78 14.03, 4.41 13.89 C4.05 13.75, 3.69 13.57, 3.35 13.36 C3.02 13.16, 2.69 12.91, 2.39 12.65 C2.1 12.38, 1.82 12.08, 1.57 11.76 C1.32 11.45, 1.09 11.1, 0.9 10.74 C0.7 10.38, 0.54 10, 0.4 9.61 C0.27 9.22, 0.17 8.81, 0.1 8.4 C0.03 8, 0 7.58, 0 7.16 C0 6.75, 0.03 6.33, 0.1 5.92 C0.17 5.51, 0.27 5.1, 0.4 4.71 C0.54 4.32, 0.7 3.94, 0.9 3.58 C1.09 3.22, 1.32 2.88, 1.57 2.56 C1.82 2.24, 2.1 1.94, 2.39 1.68 C2.69 1.41, 3.02 1.17, 3.35 0.96 C3.69 0.75, 4.05 0.57, 4.41 0.43 C4.78 0.29, 5.16 0.18, 5.54 0.11 C5.92 0.04, 6.32 0, 6.7 0 C7.09 0, 7.48 0.04, 7.87 0.11 C8.25 0.18, 8.63 0.29, 9 0.43 C9.36 0.57, 9.72 0.75, 10.05 0.96 C10.39 1.17, 10.71 1.41, 11.01 1.68 C11.31 1.94, 11.59 2.24, 11.84 2.56 C12.09 2.88, 12.31 3.22, 12.51 3.58 C12.7 3.94, 12.87 4.32, 13 4.71 C13.13 5.1, 13.24 5.51, 13.3 5.92 C13.37 6.33, 13.39 6.95, 13.41 7.16 C13.42 7.37, 13.42 6.95, 13.41 7.16" stroke="#000000" stroke-width="2" fill="none"></path></g><g stroke-linecap="round" transform="translate(497.9511413574219 248.40621948242188) rotate(0 6.70306396484375 7.160858154296875)"><path d="M13.41 7.16 C13.41 7.58, 13.37 8, 13.3 8.4 C13.24 8.81, 13.13 9.22, 13 9.61 C12.87 10, 12.7 10.38, 12.51 10.74 C12.31 11.1, 12.09 11.45, 11.84 11.76 C11.59 12.08, 11.31 12.38, 11.01 12.65 C10.71 12.91, 10.39 13.16, 10.05 13.36 C9.72 13.57, 9.36 13.75, 9 13.89 C8.63 14.03, 8.25 14.14, 7.87 14.21 C7.48 14.28, 7.09 14.32, 6.7 14.32 C6.32 14.32, 5.92 14.28, 5.54 14.21 C5.16 14.14, 4.78 14.03, 4.41 13.89 C4.05 13.75, 3.69 13.57, 3.35 13.36 C3.02 13.16, 2.69 12.91, 2.39 12.65 C2.1 12.38, 1.82 12.08, 1.57 11.76 C1.32 11.45, 1.09 11.1, 0.9 10.74 C0.7 10.38, 0.54 10, 0.4 9.61 C0.27 9.22, 0.17 8.81, 0.1 8.4 C0.03 8, 0 7.58, 0 7.16 C0 6.75, 0.03 6.33, 0.1 5.92 C0.17 5.51, 0.27 5.1, 0.4 4.71 C0.54 4.32, 0.7 3.94, 0.9 3.58 C1.09 3.22, 1.32 2.88, 1.57 2.56 C1.82 2.24, 2.1 1.94, 2.39 1.68 C2.69 1.41, 3.02 1.17, 3.35 0.96 C3.69 0.75, 4.05 0.57, 4.41 0.43 C4.78 0.29, 5.16 0.18, 5.54 0.11 C5.92 0.04, 6.32 0, 6.7 0 C7.09 0, 7.48 0.04, 7.87 0.11 C8.25 0.18, 8.63 0.29, 9 0.43 C9.36 0.57, 9.72 0.75, 10.05 0.96 C10.39 1.17, 10.71 1.41, 11.01 1.68 C11.31 1.94, 11.59 2.24, 11.84 2.56 C12.09 2.88, 12.31 3.22, 12.51 3.58 C12.7 3.94, 12.87 4.32, 13 4.71 C13.13 5.1, 13.24 5.51, 13.3 5.92 C13.37 6.33, 13.39 6.95, 13.41 7.16 C13.42 7.37, 13.42 6.95, 13.41 7.16" stroke="none" stroke-width="0" fill="#000"></path><path d="M13.41 7.16 C13.41 7.58, 13.37 8, 13.3 8.4 C13.24 8.81, 13.13 9.22, 13 9.61 C12.87 10, 12.7 10.38, 12.51 10.74 C12.31 11.1, 12.09 11.45, 11.84 11.76 C11.59 12.08, 11.31 12.38, 11.01 12.65 C10.71 12.91, 10.39 13.16, 10.05 13.36 C9.72 13.57, 9.36 13.75, 9 13.89 C8.63 14.03, 8.25 14.14, 7.87 14.21 C7.48 14.28, 7.09 14.32, 6.7 14.32 C6.32 14.32, 5.92 14.28, 5.54 14.21 C5.16 14.14, 4.78 14.03, 4.41 13.89 C4.05 13.75, 3.69 13.57, 3.35 13.36 C3.02 13.16, 2.69 12.91, 2.39 12.65 C2.1 12.38, 1.82 12.08, 1.57 11.76 C1.32 11.45, 1.09 11.1, 0.9 10.74 C0.7 10.38, 0.54 10, 0.4 9.61 C0.27 9.22, 0.17 8.81, 0.1 8.4 C0.03 8, 0 7.58, 0 7.16 C0 6.75, 0.03 6.33, 0.1 5.92 C0.17 5.51, 0.27 5.1, 0.4 4.71 C0.54 4.32, 0.7 3.94, 0.9 3.58 C1.09 3.22, 1.32 2.88, 1.57 2.56 C1.82 2.24, 2.1 1.94, 2.39 1.68 C2.69 1.41, 3.02 1.17, 3.35 0.96 C3.69 0.75, 4.05 0.57, 4.41 0.43 C4.78 0.29, 5.16 0.18, 5.54 0.11 C5.92 0.04, 6.32 0, 6.7 0 C7.09 0, 7.48 0.04, 7.87 0.11 C8.25 0.18, 8.63 0.29, 9 0.43 C9.36 0.57, 9.72 0.75, 10.05 0.96 C10.39 1.17, 10.71 1.41, 11.01 1.68 C11.31 1.94, 11.59 2.24, 11.84 2.56 C12.09 2.88, 12.31 3.22, 12.51 3.58 C12.7 3.94, 12.87 4.32, 13 4.71 C13.13 5.1, 13.24 5.51, 13.3 5.92 C13.37 6.33, 13.39 6.95, 13.41 7.16 C13.42 7.37, 13.42 6.95, 13.41 7.16" stroke="#000000" stroke-width="2" fill="none"></path></g><g transform="translate(364.6625061035156 320.877685546875) rotate(349.78580897659043 235 72)"><text x="0" y="20" font-family="Cascadia, Segoe UI Emoji" font-size="20px" fill="#a61e4d" text-anchor="start" style="white-space: pre;" direction="ltr">Prestige accumulates Prestige:</text><text x="0" y="44" font-family="Cascadia, Segoe UI Emoji" font-size="20px" fill="#a61e4d" text-anchor="start" style="white-space: pre;" direction="ltr">-- Forging Nodes have higher probability</text><text x="0" y="68" font-family="Cascadia, Segoe UI Emoji" font-size="20px" fill="#a61e4d" text-anchor="start" style="white-space: pre;" direction="ltr">   of accumulating more prestige</text><text x="0" y="92" font-family="Cascadia, Segoe UI Emoji" font-size="20px" fill="#a61e4d" text-anchor="start" style="white-space: pre;" direction="ltr"></text><text x="0" y="116" font-family="Cascadia, Segoe UI Emoji" font-size="20px" fill="#a61e4d" text-anchor="start" style="white-space: pre;" direction="ltr">-- Effectively leads to forging power</text><text x="0" y="140" font-family="Cascadia, Segoe UI Emoji" font-size="20px" fill="#a61e4d" text-anchor="start" style="white-space: pre;" direction="ltr">   accruing to select group of nodes</text></g><g transform="translate(335.718994140625 11.06768798828125) rotate(0 24.5 12.5)"><text x="0" y="18" font-family="Virgil, Segoe UI Emoji" font-size="20px" fill="#000000" text-anchor="start" style="white-space: pre;" direction="ltr"> vs. </text></g><g transform="translate(238.14141845703125 10) rotate(0 41 12.5)"><text x="0" y="18" font-family="Virgil, Segoe UI Emoji" font-size="20px" fill="#a61e4d" text-anchor="start" style="white-space: pre;" direction="ltr">Prestige</text></g><g transform="translate(389.76153564453125 11.77740478515625) rotate(0 53 12.5)"><text x="0" y="18" font-family="Virgil, Segoe UI Emoji" font-size="20px" fill="#087f5b" text-anchor="start" style="white-space: pre;" direction="ltr">Stochastic</text></g><g transform="translate(26.527313232421875 365.70556640625) rotate(6.398703651531278 141 24)"><text x="141" y="20" font-family="Cascadia, Segoe UI Emoji" font-size="20px" fill="#087f5b" text-anchor="middle" style="white-space: pre;" direction="ltr">Stochastic Proofs may be</text><text x="141" y="44" font-family="Cascadia, Segoe UI Emoji" font-size="20px" fill="#087f5b" text-anchor="middle" style="white-space: pre;" direction="ltr">made Uniformly Random</text></g><g stroke-linecap="round"><g transform="translate(547.1615905761719 169.34927368164062) rotate(0 5.069283847886766 -20.796080889095833)"><path d="M0.73 -0.87 C4.89 -2.94, 20.4 -5.58, 23.74 -12.09 C27.08 -18.6, 25.15 -35.09, 20.76 -39.93 C16.37 -44.76, 3.2 -42.56, -2.61 -41.08 C-8.42 -39.59, -11.98 -32.95, -14.11 -31.01 M-0.34 1.29 C3.76 -1.12, 19.32 -6.94, 22.79 -13.63 C26.26 -20.31, 24.71 -34.44, 20.47 -38.81 C16.23 -43.18, 3.32 -41.1, -2.64 -39.83 C-8.6 -38.56, -13.32 -32.78, -15.29 -31.17" stroke="#a61e4d" stroke-width="2" fill="none"></path></g><g transform="translate(547.1615905761719 169.34927368164062) rotate(0 5.069283847886766 -20.796080889095833)"><path d="M-12.1 -38.77 C-11.44 -36.57, -13.26 -36.07, -15.1 -30.77 M-11.36 -39 C-12.4 -37.11, -13.31 -35.23, -15.13 -31.29" stroke="#a61e4d" stroke-width="2" fill="none"></path></g><g transform="translate(547.1615905761719 169.34927368164062) rotate(0 5.069283847886766 -20.796080889095833)"><path d="M-8.11 -34.55 C-8.26 -33.18, -10.88 -33.52, -15.1 -30.77 M-7.37 -34.78 C-9.22 -33.76, -10.98 -32.78, -15.13 -31.29" stroke="#a61e4d" stroke-width="2" fill="none"></path></g></g><g transform="translate(519.837095206183 76.3851147576571) rotate(14.92951755233557 81 29.5)"><text x="81" y="15.666666666666668" font-family="Helvetica, Segoe UI Emoji" font-size="16.848231471680236px" fill="#a61e4d" text-anchor="middle" style="white-space: pre;" direction="ltr">Centralization Cycle</text><text x="81" y="35.333333333333336" font-family="Helvetica, Segoe UI Emoji" font-size="16.848231471680236px" fill="#a61e4d" text-anchor="middle" style="white-space: pre;" direction="ltr">&amp; Continuous Accrual</text><text x="81" y="55" font-family="Helvetica, Segoe UI Emoji" font-size="16.848231471680236px" fill="#a61e4d" text-anchor="middle" style="white-space: pre;" direction="ltr">of Network Influence</text></g><g transform="translate(271.9193420410156 143.1494140625) rotate(0 6.5 11.5)"><text x="6.5" y="19" font-family="Helvetica, Segoe UI Emoji" font-size="20px" fill="#087f5b" text-anchor="middle" style="white-space: pre;" direction="ltr">1</text></g><g stroke-linecap="round"><g transform="translate(268.3136291503906 168.69583129882812) rotate(0 10.6337890625 -0.0703125)"><path d="M0 0 C3.54 -0.02, 17.72 -0.12, 21.27 -0.14 M0 0 C3.54 -0.02, 17.72 -0.12, 21.27 -0.14" stroke="#087f5b" stroke-width="1" fill="none"></path></g></g><g transform="translate(270.5817565917969 172.02044677734375) rotate(0 8 11.5)"><text x="8" y="19" font-family="Helvetica, Segoe UI Emoji" font-size="20px" fill="#087f5b" text-anchor="middle" style="white-space: pre;" direction="ltr">N</text></g><g transform="translate(346.0447082519531 285.5765686035156) rotate(0 6.5 11.5)"><text x="6.5" y="19" font-family="Helvetica, Segoe UI Emoji" font-size="20px" fill="#087f5b" text-anchor="middle" style="white-space: pre;" direction="ltr">1</text></g><g stroke-linecap="round"><g transform="translate(342.4389953613281 311.12298583984375) rotate(0 10.6337890625 -0.0703125)"><path d="M0 0 C3.54 -0.02, 17.72 -0.12, 21.27 -0.14 M0 0 C3.54 -0.02, 17.72 -0.12, 21.27 -0.14" stroke="#087f5b" stroke-width="1" fill="none"></path></g></g><g transform="translate(344.7071228027344 314.4476013183594) rotate(0 8 11.5)"><text x="8" y="19" font-family="Helvetica, Segoe UI Emoji" font-size="20px" fill="#087f5b" text-anchor="middle" style="white-space: pre;" direction="ltr">N</text></g><g stroke-linecap="round"><g transform="translate(256.36138916015625 196.22265625) rotate(0 -12.9332275390625 28.63037109375)"><path d="M0 0 C-4.31 9.54, -21.56 47.72, -25.87 57.26" stroke="#087f5b" stroke-width="1.5" fill="none" stroke-dasharray="1.5 7"></path></g></g><g stroke-linecap="round"><g transform="translate(319.6165771484375 316.08270263671875) rotate(0 -40.25382995605469 -10.8372802734375)"><path d="M0 0 C-13.42 -3.61, -67.09 -18.06, -80.51 -21.67" stroke="#087f5b" stroke-width="1.5" fill="none" stroke-dasharray="1.5 7"></path></g></g><g transform="translate(150.02687072753906 261.3076171875) rotate(0 49 29.5)"><text x="49" y="15.666666666666668" font-family="Helvetica, Segoe UI Emoji" font-size="16.726434169671485px" fill="#087f5b" text-anchor="middle" style="white-space: pre;" direction="ltr">Network of N</text><text x="49" y="35.333333333333336" font-family="Helvetica, Segoe UI Emoji" font-size="16.726434169671485px" fill="#087f5b" text-anchor="middle" style="white-space: pre;" direction="ltr">Stochastic</text><text x="49" y="55" font-family="Helvetica, Segoe UI Emoji" font-size="16.726434169671485px" fill="#087f5b" text-anchor="middle" style="white-space: pre;" direction="ltr">Miners</text></g><g transform="translate(10 434.18914794921875) rotate(0 164.5 96)"><text x="0" y="20" font-family="Cascadia, Segoe UI Emoji" font-size="20px" fill="#087f5b" text-anchor="start" style="white-space: pre;" direction="ltr">-- In a network of N Miners,</text><text x="0" y="44" font-family="Cascadia, Segoe UI Emoji" font-size="20px" fill="#087f5b" text-anchor="start" style="white-space: pre;" direction="ltr">   each node may be granted</text><text x="0" y="68" font-family="Cascadia, Segoe UI Emoji" font-size="20px" fill="#087f5b" text-anchor="start" style="white-space: pre;" direction="ltr">   equal probability of </text><text x="0" y="92" font-family="Cascadia, Segoe UI Emoji" font-size="20px" fill="#087f5b" text-anchor="start" style="white-space: pre;" direction="ltr">   obtaining subsidy</text><text x="0" y="116" font-family="Cascadia, Segoe UI Emoji" font-size="20px" fill="#087f5b" text-anchor="start" style="white-space: pre;" direction="ltr"></text><text x="0" y="140" font-family="Cascadia, Segoe UI Emoji" font-size="20px" fill="#087f5b" text-anchor="start" style="white-space: pre;" direction="ltr">-- Hence, decentralization</text><text x="0" y="164" font-family="Cascadia, Segoe UI Emoji" font-size="20px" fill="#087f5b" text-anchor="start" style="white-space: pre;" direction="ltr">   of network better assured</text><text x="0" y="188" font-family="Cascadia, Segoe UI Emoji" font-size="20px" fill="#087f5b" text-anchor="start" style="white-space: pre;" direction="ltr">   under Nakamoto Consensus</text></g><g stroke-linecap="round" transform="translate(1487.6051940917969 72.86773681640625) rotate(0 24.13726806640625 25.11798095703125)"><path d="M25 0 C32.65 8.55, 40.3 17.09, 48.27 26 M25 0 C29.98 5.56, 34.96 11.13, 48.27 26 M48.27 26 C42.75 31.75, 37.22 37.51, 25 50.24 M48.27 26 C42.27 32.25, 36.26 38.51, 25 50.24 M25 50.24 C19.29 44.7, 13.57 39.16, 0 26 M25 50.24 C19.5 44.91, 14 39.58, 0 26 M0 26 C9.66 15.95, 19.32 5.91, 25 0 M0 26 C8.37 17.29, 16.74 8.59, 25 0" stroke="#a61e4d" stroke-width="2" fill="none"></path></g><g stroke-linecap="round" transform="translate(1489.3426818847656 283.793701171875) rotate(0 24.13726806640625 25.11798095703125)"><path d="M25 0 C30.36 5.98, 35.71 11.97, 48.27 26 M25 0 C31.55 7.31, 38.09 14.62, 48.27 26 M48.27 26 C41.14 33.43, 34.01 40.85, 25 50.24 M48.27 26 C39.79 34.84, 31.3 43.68, 25 50.24 M25 50.24 C17.9 43.35, 10.8 36.47, 0 26 M25 50.24 C16.61 42.1, 8.21 33.96, 0 26 M0 26 C9.64 15.98, 19.27 5.96, 25 0 M0 26 C5.26 20.53, 10.53 15.05, 25 0" stroke="#087f5b" stroke-width="2" fill="none"></path></g><g stroke-linecap="round"><g transform="translate(1570.3492736816406 93.7412109375) rotate(0 11.7178955078125 -0.084991455078125)"><path d="M0 0 C3.91 -0.03, 19.53 -0.14, 23.44 -0.17 M0 0 C3.91 -0.03, 19.53 -0.14, 23.44 -0.17" stroke="#a61e4d" stroke-width="1" fill="none"></path></g></g><g transform="translate(1605.4471130371094 58.56964111328125) rotate(0 149.5 34.5)"><text x="0" y="19" font-family="Helvetica, Segoe UI Emoji" font-size="20px" fill="#a61e4d" text-anchor="start" style="white-space: pre;" direction="ltr">Maximal Extractable Value (MEV)</text><text x="0" y="42" font-family="Helvetica, Segoe UI Emoji" font-size="20px" fill="#a61e4d" text-anchor="start" style="white-space: pre;" direction="ltr">accrues to nodes with highest</text><text x="0" y="65" font-family="Helvetica, Segoe UI Emoji" font-size="20px" fill="#a61e4d" text-anchor="start" style="white-space: pre;" direction="ltr">subsidy power</text></g><g stroke-linecap="round"><g transform="translate(1572.2070922851562 171.38677978515625) rotate(0 11.7178955078125 -0.084991455078125)"><path d="M0 0 C3.91 -0.03, 19.53 -0.14, 23.44 -0.17 M0 0 C3.91 -0.03, 19.53 -0.14, 23.44 -0.17" stroke="#a61e4d" stroke-width="1" fill="none"></path></g></g><g transform="translate(1607.304931640625 146.2152099609375) rotate(0 156 23)"><text x="0" y="19" font-family="Helvetica, Segoe UI Emoji" font-size="20px" fill="#a61e4d" text-anchor="start" style="white-space: pre;" direction="ltr">MEV power determines transaction</text><text x="0" y="42" font-family="Helvetica, Segoe UI Emoji" font-size="20px" fill="#a61e4d" text-anchor="start" style="white-space: pre;" direction="ltr">selection and ordering</text></g><g stroke-linecap="round"><g transform="translate(1574.7781829833984 304.0639953613281) rotate(0 11.7178955078125 -0.084991455078125)"><path d="M0 0 C3.91 -0.03, 19.53 -0.14, 23.44 -0.17 M0 0 C3.91 -0.03, 19.53 -0.14, 23.44 -0.17" stroke="#087f5b" stroke-width="1" fill="none"></path></g></g><g transform="translate(1609.8760223388672 268.8924255371094) rotate(0 161.5 34.5)"><text x="0" y="19" font-family="Helvetica, Segoe UI Emoji" font-size="20px" fill="#087f5b" text-anchor="start" style="white-space: pre;" direction="ltr">Since subsidy power is more </text><text x="0" y="42" font-family="Helvetica, Segoe UI Emoji" font-size="20px" fill="#087f5b" text-anchor="start" style="white-space: pre;" direction="ltr">uniform across network, MEV</text><text x="0" y="65" font-family="Helvetica, Segoe UI Emoji" font-size="20px" fill="#087f5b" text-anchor="start" style="white-space: pre;" direction="ltr">cannot be extracted by a few miners</text></g><g stroke-linecap="round"><g transform="translate(1576.636001586914 385.7095642089844) rotate(0 11.7178955078125 -0.084991455078125)"><path d="M0 0 C3.91 -0.03, 19.53 -0.14, 23.44 -0.17 M0 0 C3.91 -0.03, 19.53 -0.14, 23.44 -0.17" stroke="#087f5b" stroke-width="1" fill="none"></path></g></g><g transform="translate(1611.7338409423828 350.5379943847656) rotate(0 181 34.5)"><text x="0" y="19" font-family="Helvetica, Segoe UI Emoji" font-size="20px" fill="#087f5b" text-anchor="start" style="white-space: pre;" direction="ltr">When miners may have equal probability</text><text x="0" y="42" font-family="Helvetica, Segoe UI Emoji" font-size="20px" fill="#087f5b" text-anchor="start" style="white-space: pre;" direction="ltr">of reward, MEV does not accrue</text><text x="0" y="65" font-family="Helvetica, Segoe UI Emoji" font-size="20px" fill="#087f5b" text-anchor="start" style="white-space: pre;" direction="ltr">to select or restricted group of nodes</text></g><g stroke-linecap="round" transform="translate(977.5597839355469 558.0584106445312) rotate(0 13.12359619140625 13.43951416015625)"><path d="M26.25 13.44 C26.25 14.22, 26.18 15.01, 26.05 15.77 C25.92 16.54, 25.72 17.31, 25.46 18.04 C25.2 18.77, 24.87 19.49, 24.49 20.16 C24.11 20.83, 23.67 21.48, 23.18 22.08 C22.69 22.67, 22.14 23.23, 21.56 23.73 C20.98 24.23, 20.34 24.69, 19.69 25.08 C19.03 25.47, 18.33 25.8, 17.61 26.07 C16.9 26.33, 16.15 26.54, 15.4 26.67 C14.65 26.81, 13.88 26.88, 13.12 26.88 C12.36 26.88, 11.59 26.81, 10.84 26.67 C10.1 26.54, 9.35 26.33, 8.64 26.07 C7.92 25.8, 7.22 25.47, 6.56 25.08 C5.9 24.69, 5.27 24.23, 4.69 23.73 C4.11 23.23, 3.56 22.67, 3.07 22.08 C2.58 21.48, 2.14 20.83, 1.76 20.16 C1.38 19.49, 1.05 18.77, 0.79 18.04 C0.53 17.31, 0.33 16.54, 0.2 15.77 C0.07 15.01, 0 14.22, 0 13.44 C0 12.66, 0.07 11.87, 0.2 11.11 C0.33 10.34, 0.53 9.57, 0.79 8.84 C1.05 8.11, 1.38 7.39, 1.76 6.72 C2.14 6.05, 2.58 5.4, 3.07 4.8 C3.56 4.2, 4.11 3.64, 4.69 3.14 C5.27 2.64, 5.9 2.19, 6.56 1.8 C7.22 1.41, 7.92 1.08, 8.64 0.81 C9.35 0.54, 10.1 0.34, 10.84 0.2 C11.59 0.07, 12.36 0, 13.12 0 C13.88 0, 14.65 0.07, 15.4 0.2 C16.15 0.34, 16.9 0.54, 17.61 0.81 C18.33 1.08, 19.03 1.41, 19.69 1.8 C20.34 2.19, 20.98 2.64, 21.56 3.14 C22.14 3.64, 22.69 4.2, 23.18 4.8 C23.67 5.4, 24.11 6.05, 24.49 6.72 C24.87 7.39, 25.2 8.11, 25.46 8.84 C25.72 9.57, 25.92 10.34, 26.05 11.11 C26.18 11.87, 26.21 13.05, 26.25 13.44 C26.28 13.83, 26.28 13.05, 26.25 13.44" stroke="none" stroke-width="0" fill="#a61e4d"></path><path d="M26.25 13.44 C26.25 14.22, 26.18 15.01, 26.05 15.77 C25.92 16.54, 25.72 17.31, 25.46 18.04 C25.2 18.77, 24.87 19.49, 24.49 20.16 C24.11 20.83, 23.67 21.48, 23.18 22.08 C22.69 22.67, 22.14 23.23, 21.56 23.73 C20.98 24.23, 20.34 24.69, 19.69 25.08 C19.03 25.47, 18.33 25.8, 17.61 26.07 C16.9 26.33, 16.15 26.54, 15.4 26.67 C14.65 26.81, 13.88 26.88, 13.12 26.88 C12.36 26.88, 11.59 26.81, 10.84 26.67 C10.1 26.54, 9.35 26.33, 8.64 26.07 C7.92 25.8, 7.22 25.47, 6.56 25.08 C5.9 24.69, 5.27 24.23, 4.69 23.73 C4.11 23.23, 3.56 22.67, 3.07 22.08 C2.58 21.48, 2.14 20.83, 1.76 20.16 C1.38 19.49, 1.05 18.77, 0.79 18.04 C0.53 17.31, 0.33 16.54, 0.2 15.77 C0.07 15.01, 0 14.22, 0 13.44 C0 12.66, 0.07 11.87, 0.2 11.11 C0.33 10.34, 0.53 9.57, 0.79 8.84 C1.05 8.11, 1.38 7.39, 1.76 6.72 C2.14 6.05, 2.58 5.4, 3.07 4.8 C3.56 4.2, 4.11 3.64, 4.69 3.14 C5.27 2.64, 5.9 2.19, 6.56 1.8 C7.22 1.41, 7.92 1.08, 8.64 0.81 C9.35 0.54, 10.1 0.34, 10.84 0.2 C11.59 0.07, 12.36 0, 13.12 0 C13.88 0, 14.65 0.07, 15.4 0.2 C16.15 0.34, 16.9 0.54, 17.61 0.81 C18.33 1.08, 19.03 1.41, 19.69 1.8 C20.34 2.19, 20.98 2.64, 21.56 3.14 C22.14 3.64, 22.69 4.2, 23.18 4.8 C23.67 5.4, 24.11 6.05, 24.49 6.72 C24.87 7.39, 25.2 8.11, 25.46 8.84 C25.72 9.57, 25.92 10.34, 26.05 11.11 C26.18 11.87, 26.21 13.05, 26.25 13.44 C26.28 13.83, 26.28 13.05, 26.25 13.44" stroke="#a61e4d" stroke-width="1" fill="none"></path></g><g stroke-linecap="round" transform="translate(976.9412536621094 629.7912902832031) rotate(0 13.12359619140625 13.43951416015625)"><path d="M26.25 13.44 C26.25 14.22, 26.18 15.01, 26.05 15.77 C25.92 16.54, 25.72 17.31, 25.46 18.04 C25.2 18.77, 24.87 19.49, 24.49 20.16 C24.11 20.83, 23.67 21.48, 23.18 22.08 C22.69 22.67, 22.14 23.23, 21.56 23.73 C20.98 24.23, 20.34 24.69, 19.69 25.08 C19.03 25.47, 18.33 25.8, 17.61 26.07 C16.9 26.33, 16.15 26.54, 15.4 26.67 C14.65 26.81, 13.88 26.88, 13.12 26.88 C12.36 26.88, 11.59 26.81, 10.84 26.67 C10.1 26.54, 9.35 26.33, 8.64 26.07 C7.92 25.8, 7.22 25.47, 6.56 25.08 C5.9 24.69, 5.27 24.23, 4.69 23.73 C4.11 23.23, 3.56 22.67, 3.07 22.08 C2.58 21.48, 2.14 20.83, 1.76 20.16 C1.38 19.49, 1.05 18.77, 0.79 18.04 C0.53 17.31, 0.33 16.54, 0.2 15.77 C0.07 15.01, 0 14.22, 0 13.44 C0 12.66, 0.07 11.87, 0.2 11.11 C0.33 10.34, 0.53 9.57, 0.79 8.84 C1.05 8.11, 1.38 7.39, 1.76 6.72 C2.14 6.05, 2.58 5.4, 3.07 4.8 C3.56 4.2, 4.11 3.64, 4.69 3.14 C5.27 2.64, 5.9 2.19, 6.56 1.8 C7.22 1.41, 7.92 1.08, 8.64 0.81 C9.35 0.54, 10.1 0.34, 10.84 0.2 C11.59 0.07, 12.36 0, 13.12 0 C13.88 0, 14.65 0.07, 15.4 0.2 C16.15 0.34, 16.9 0.54, 17.61 0.81 C18.33 1.08, 19.03 1.41, 19.69 1.8 C20.34 2.19, 20.98 2.64, 21.56 3.14 C22.14 3.64, 22.69 4.2, 23.18 4.8 C23.67 5.4, 24.11 6.05, 24.49 6.72 C24.87 7.39, 25.2 8.11, 25.46 8.84 C25.72 9.57, 25.92 10.34, 26.05 11.11 C26.18 11.87, 26.21 13.05, 26.25 13.44 C26.28 13.83, 26.28 13.05, 26.25 13.44" stroke="none" stroke-width="0" fill="#087f5b"></path><path d="M26.25 13.44 C26.25 14.22, 26.18 15.01, 26.05 15.77 C25.92 16.54, 25.72 17.31, 25.46 18.04 C25.2 18.77, 24.87 19.49, 24.49 20.16 C24.11 20.83, 23.67 21.48, 23.18 22.08 C22.69 22.67, 22.14 23.23, 21.56 23.73 C20.98 24.23, 20.34 24.69, 19.69 25.08 C19.03 25.47, 18.33 25.8, 17.61 26.07 C16.9 26.33, 16.15 26.54, 15.4 26.67 C14.65 26.81, 13.88 26.88, 13.12 26.88 C12.36 26.88, 11.59 26.81, 10.84 26.67 C10.1 26.54, 9.35 26.33, 8.64 26.07 C7.92 25.8, 7.22 25.47, 6.56 25.08 C5.9 24.69, 5.27 24.23, 4.69 23.73 C4.11 23.23, 3.56 22.67, 3.07 22.08 C2.58 21.48, 2.14 20.83, 1.76 20.16 C1.38 19.49, 1.05 18.77, 0.79 18.04 C0.53 17.31, 0.33 16.54, 0.2 15.77 C0.07 15.01, 0 14.22, 0 13.44 C0 12.66, 0.07 11.87, 0.2 11.11 C0.33 10.34, 0.53 9.57, 0.79 8.84 C1.05 8.11, 1.38 7.39, 1.76 6.72 C2.14 6.05, 2.58 5.4, 3.07 4.8 C3.56 4.2, 4.11 3.64, 4.69 3.14 C5.27 2.64, 5.9 2.19, 6.56 1.8 C7.22 1.41, 7.92 1.08, 8.64 0.81 C9.35 0.54, 10.1 0.34, 10.84 0.2 C11.59 0.07, 12.36 0, 13.12 0 C13.88 0, 14.65 0.07, 15.4 0.2 C16.15 0.34, 16.9 0.54, 17.61 0.81 C18.33 1.08, 19.03 1.41, 19.69 1.8 C20.34 2.19, 20.98 2.64, 21.56 3.14 C22.14 3.64, 22.69 4.2, 23.18 4.8 C23.67 5.4, 24.11 6.05, 24.49 6.72 C24.87 7.39, 25.2 8.11, 25.46 8.84 C25.72 9.57, 25.92 10.34, 26.05 11.11 C26.18 11.87, 26.21 13.05, 26.25 13.44 C26.28 13.83, 26.28 13.05, 26.25 13.44" stroke="#087f5b" stroke-width="1" fill="none"></path></g><g stroke-linecap="round"><g transform="translate(1012.2815198955809 259.7741272580281) rotate(0 0.14576959322516814 -84.39942324815468)"><path d="M0 0 C0.05 -28.13, 0.24 -140.67, 0.29 -168.8 M0 0 C0.05 -28.13, 0.24 -140.67, 0.29 -168.8" stroke="#000000" stroke-width="2" fill="none"></path></g><g transform="translate(1012.2815198955809 259.7741272580281) rotate(0 0.14576959322516814 -84.39942324815468)"><path d="M0.29 -168.8 L6.61 -155.19 L-6.07 -155.22 L0.29 -168.8" stroke="none" stroke-width="0" fill="#000000" fill-rule="evenodd"></path><path d="M0.29 -168.8 C2.75 -163.51, 5.2 -158.23, 6.61 -155.19 M0.29 -168.8 C2.09 -164.92, 3.9 -161.03, 6.61 -155.19 M6.61 -155.19 C3.12 -155.2, -0.36 -155.21, -6.07 -155.22 M6.61 -155.19 C2.82 -155.2, -0.96 -155.21, -6.07 -155.22 M-6.07 -155.22 C-4.58 -158.4, -3.09 -161.59, 0.29 -168.8 M-6.07 -155.22 C-4.29 -159.02, -2.51 -162.82, 0.29 -168.8 M0.29 -168.8 C0.29 -168.8, 0.29 -168.8, 0.29 -168.8 M0.29 -168.8 C0.29 -168.8, 0.29 -168.8, 0.29 -168.8" stroke="#000000" stroke-width="2" fill="none"></path></g></g><g stroke-linecap="round"><g transform="translate(1011.5543295995783 259.41255581807206) rotate(0 159.38189281739835 0.8130092003389677)"><path d="M0 0 C53.13 0.27, 265.64 1.36, 318.76 1.63 M0 0 C53.13 0.27, 265.64 1.36, 318.76 1.63" stroke="#000000" stroke-width="2" fill="none"></path></g><g transform="translate(1011.5543295995783 259.41255581807206) rotate(0 159.38189281739835 0.8130092003389677)"><path d="M318.76 1.63 L305.14 7.9 L305.2 -4.78 L318.76 1.63" stroke="none" stroke-width="0" fill="#000000" fill-rule="evenodd"></path><path d="M318.76 1.63 C314 3.82, 309.23 6.01, 305.14 7.9 M318.76 1.63 C314.49 3.59, 310.22 5.56, 305.14 7.9 M305.14 7.9 C305.16 4.22, 305.17 0.55, 305.2 -4.78 M305.14 7.9 C305.16 3.52, 305.18 -0.85, 305.2 -4.78 M305.2 -4.78 C308.71 -3.12, 312.23 -1.46, 318.76 1.63 M305.2 -4.78 C308.02 -3.45, 310.83 -2.12, 318.76 1.63 M318.76 1.63 C318.76 1.63, 318.76 1.63, 318.76 1.63 M318.76 1.63 C318.76 1.63, 318.76 1.63, 318.76 1.63" stroke="#000000" stroke-width="2" fill="none"></path></g></g><g transform="translate(909.9957885742188 161.08001708984375) rotate(269.75796480119743 65 24)"><text x="65" y="20" font-family="Cascadia, Segoe UI Emoji" font-size="20px" fill="#000000" text-anchor="middle" style="white-space: pre;" direction="ltr">Likelihoold</text><text x="65" y="44" font-family="Cascadia, Segoe UI Emoji" font-size="20px" fill="#000000" text-anchor="middle" style="white-space: pre;" direction="ltr">of Reward</text></g><g transform="translate(1037.3449096679688 272.153564453125) rotate(0 112.5 12)"><text x="112.5" y="20" font-family="Cascadia, Segoe UI Emoji" font-size="20px" fill="#000000" text-anchor="middle" style="white-space: pre;" direction="ltr">Reward Distribution</text></g><g stroke-linecap="round" transform="translate(1136.7590942382812 219.4914093017578) rotate(0 8.040618896484375 19.601638793945312)"><path d="M0 0 L16.08 0 L16.08 39.2 L0 39.2" stroke="none" stroke-width="0" fill="#a61e4d"></path><path d="M0 0 C5.74 0, 11.47 0, 16.08 0 M0 0 C3.53 0, 7.06 0, 16.08 0 M16.08 0 C16.08 10.96, 16.08 21.92, 16.08 39.2 M16.08 0 C16.08 13.84, 16.08 27.68, 16.08 39.2 M16.08 39.2 C10.01 39.2, 3.95 39.2, 0 39.2 M16.08 39.2 C10.41 39.2, 4.73 39.2, 0 39.2 M0 39.2 C0 25.31, 0 11.42, 0 0 M0 39.2 C0 25.02, 0 10.84, 0 0" stroke="#a61e4d" stroke-width="2" fill="none"></path></g><g stroke-linecap="round" transform="translate(1207.036865234375 234.93019104003906) rotate(0 6.395751953125 11.882247924804688)"><path d="M0 0 L12.79 0 L12.79 23.76 L0 23.76" stroke="none" stroke-width="0" fill="#a61e4d"></path><path d="M0 0 C2.68 0, 5.37 0, 12.79 0 M0 0 C4.3 0, 8.61 0, 12.79 0 M12.79 0 C12.79 7, 12.79 13.99, 12.79 23.76 M12.79 0 C12.79 8.82, 12.79 17.65, 12.79 23.76 M12.79 23.76 C7.9 23.76, 3 23.76, 0 23.76 M12.79 23.76 C9.26 23.76, 5.73 23.76, 0 23.76 M0 23.76 C0 16.84, 0 9.91, 0 0 M0 23.76 C0 18.94, 0 14.12, 0 0" stroke="#a61e4d" stroke-width="2" fill="none"></path></g><g stroke-linecap="round" transform="translate(1288.7820739746094 233.73753356933594) rotate(0 4.684326171875 5.2853546142578125)"><path d="M9.37 5.29 C9.37 5.59, 9.34 5.9, 9.3 6.2 C9.25 6.5, 9.18 6.81, 9.09 7.09 C8.99 7.38, 8.88 7.66, 8.74 7.93 C8.61 8.19, 8.45 8.45, 8.27 8.68 C8.1 8.92, 7.9 9.14, 7.7 9.33 C7.49 9.53, 7.26 9.71, 7.03 9.86 C6.79 10.02, 6.54 10.15, 6.29 10.25 C6.03 10.36, 5.76 10.44, 5.5 10.49 C5.23 10.54, 4.96 10.57, 4.68 10.57 C4.41 10.57, 4.14 10.54, 3.87 10.49 C3.6 10.44, 3.34 10.36, 3.08 10.25 C2.83 10.15, 2.58 10.02, 2.34 9.86 C2.11 9.71, 1.88 9.53, 1.67 9.33 C1.47 9.14, 1.27 8.92, 1.1 8.68 C0.92 8.45, 0.76 8.19, 0.63 7.93 C0.49 7.66, 0.38 7.38, 0.28 7.09 C0.19 6.81, 0.12 6.5, 0.07 6.2 C0.02 5.9, 0 5.59, 0 5.29 C0 4.98, 0.02 4.67, 0.07 4.37 C0.12 4.07, 0.19 3.77, 0.28 3.48 C0.38 3.19, 0.49 2.91, 0.63 2.64 C0.76 2.38, 0.92 2.12, 1.1 1.89 C1.27 1.65, 1.47 1.43, 1.67 1.24 C1.88 1.04, 2.11 0.86, 2.34 0.71 C2.58 0.56, 2.83 0.42, 3.08 0.32 C3.34 0.21, 3.6 0.13, 3.87 0.08 C4.14 0.03, 4.41 0, 4.68 0 C4.96 0, 5.23 0.03, 5.5 0.08 C5.76 0.13, 6.03 0.21, 6.29 0.32 C6.54 0.42, 6.79 0.56, 7.03 0.71 C7.26 0.86, 7.49 1.04, 7.7 1.24 C7.9 1.43, 8.1 1.65, 8.27 1.89 C8.45 2.12, 8.61 2.38, 8.74 2.64 C8.88 2.91, 8.99 3.19, 9.09 3.48 C9.18 3.77, 9.25 4.07, 9.3 4.37 C9.34 4.67, 9.36 5.13, 9.37 5.29 C9.38 5.44, 9.38 5.13, 9.37 5.29" stroke="none" stroke-width="0" fill="#a61e4d"></path><path d="M9.37 5.29 C9.37 5.59, 9.34 5.9, 9.3 6.2 C9.25 6.5, 9.18 6.81, 9.09 7.09 C8.99 7.38, 8.88 7.66, 8.74 7.93 C8.61 8.19, 8.45 8.45, 8.27 8.68 C8.1 8.92, 7.9 9.14, 7.7 9.33 C7.49 9.53, 7.26 9.71, 7.03 9.86 C6.79 10.02, 6.54 10.15, 6.29 10.25 C6.03 10.36, 5.76 10.44, 5.5 10.49 C5.23 10.54, 4.96 10.57, 4.68 10.57 C4.41 10.57, 4.14 10.54, 3.87 10.49 C3.6 10.44, 3.34 10.36, 3.08 10.25 C2.83 10.15, 2.58 10.02, 2.34 9.86 C2.11 9.71, 1.88 9.53, 1.67 9.33 C1.47 9.14, 1.27 8.92, 1.1 8.68 C0.92 8.45, 0.76 8.19, 0.63 7.93 C0.49 7.66, 0.38 7.38, 0.28 7.09 C0.19 6.81, 0.12 6.5, 0.07 6.2 C0.02 5.9, 0 5.59, 0 5.29 C0 4.98, 0.02 4.67, 0.07 4.37 C0.12 4.07, 0.19 3.77, 0.28 3.48 C0.38 3.19, 0.49 2.91, 0.63 2.64 C0.76 2.38, 0.92 2.12, 1.1 1.89 C1.27 1.65, 1.47 1.43, 1.67 1.24 C1.88 1.04, 2.11 0.86, 2.34 0.71 C2.58 0.56, 2.83 0.42, 3.08 0.32 C3.34 0.21, 3.6 0.13, 3.87 0.08 C4.14 0.03, 4.41 0, 4.68 0 C4.96 0, 5.23 0.03, 5.5 0.08 C5.76 0.13, 6.03 0.21, 6.29 0.32 C6.54 0.42, 6.79 0.56, 7.03 0.71 C7.26 0.86, 7.49 1.04, 7.7 1.24 C7.9 1.43, 8.1 1.65, 8.27 1.89 C8.45 2.12, 8.61 2.38, 8.74 2.64 C8.88 2.91, 8.99 3.19, 9.09 3.48 C9.18 3.77, 9.25 4.07, 9.3 4.37 C9.34 4.67, 9.36 5.13, 9.37 5.29 C9.38 5.44, 9.38 5.13, 9.37 5.29" stroke="#a61e4d" stroke-width="1" fill="none"></path></g><g stroke-linecap="round" transform="translate(1269.1070556640625 233.73753356933594) rotate(0 4.684326171875 5.2853546142578125)"><path d="M9.37 5.29 C9.37 5.59, 9.34 5.9, 9.3 6.2 C9.25 6.5, 9.18 6.81, 9.09 7.09 C8.99 7.38, 8.88 7.66, 8.74 7.93 C8.61 8.19, 8.45 8.45, 8.27 8.68 C8.1 8.92, 7.9 9.14, 7.7 9.33 C7.49 9.53, 7.26 9.71, 7.03 9.86 C6.79 10.02, 6.54 10.15, 6.29 10.25 C6.03 10.36, 5.76 10.44, 5.5 10.49 C5.23 10.54, 4.96 10.57, 4.68 10.57 C4.41 10.57, 4.14 10.54, 3.87 10.49 C3.6 10.44, 3.34 10.36, 3.08 10.25 C2.83 10.15, 2.58 10.02, 2.34 9.86 C2.11 9.71, 1.88 9.53, 1.67 9.33 C1.47 9.14, 1.27 8.92, 1.1 8.68 C0.92 8.45, 0.76 8.19, 0.63 7.93 C0.49 7.66, 0.38 7.38, 0.28 7.09 C0.19 6.81, 0.12 6.5, 0.07 6.2 C0.02 5.9, 0 5.59, 0 5.29 C0 4.98, 0.02 4.67, 0.07 4.37 C0.12 4.07, 0.19 3.77, 0.28 3.48 C0.38 3.19, 0.49 2.91, 0.63 2.64 C0.76 2.38, 0.92 2.12, 1.1 1.89 C1.27 1.65, 1.47 1.43, 1.67 1.24 C1.88 1.04, 2.11 0.86, 2.34 0.71 C2.58 0.56, 2.83 0.42, 3.08 0.32 C3.34 0.21, 3.6 0.13, 3.87 0.08 C4.14 0.03, 4.41 0, 4.68 0 C4.96 0, 5.23 0.03, 5.5 0.08 C5.76 0.13, 6.03 0.21, 6.29 0.32 C6.54 0.42, 6.79 0.56, 7.03 0.71 C7.26 0.86, 7.49 1.04, 7.7 1.24 C7.9 1.43, 8.1 1.65, 8.27 1.89 C8.45 2.12, 8.61 2.38, 8.74 2.64 C8.88 2.91, 8.99 3.19, 9.09 3.48 C9.18 3.77, 9.25 4.07, 9.3 4.37 C9.34 4.67, 9.36 5.13, 9.37 5.29 C9.38 5.44, 9.38 5.13, 9.37 5.29" stroke="none" stroke-width="0" fill="#a61e4d"></path><path d="M9.37 5.29 C9.37 5.59, 9.34 5.9, 9.3 6.2 C9.25 6.5, 9.18 6.81, 9.09 7.09 C8.99 7.38, 8.88 7.66, 8.74 7.93 C8.61 8.19, 8.45 8.45, 8.27 8.68 C8.1 8.92, 7.9 9.14, 7.7 9.33 C7.49 9.53, 7.26 9.71, 7.03 9.86 C6.79 10.02, 6.54 10.15, 6.29 10.25 C6.03 10.36, 5.76 10.44, 5.5 10.49 C5.23 10.54, 4.96 10.57, 4.68 10.57 C4.41 10.57, 4.14 10.54, 3.87 10.49 C3.6 10.44, 3.34 10.36, 3.08 10.25 C2.83 10.15, 2.58 10.02, 2.34 9.86 C2.11 9.71, 1.88 9.53, 1.67 9.33 C1.47 9.14, 1.27 8.92, 1.1 8.68 C0.92 8.45, 0.76 8.19, 0.63 7.93 C0.49 7.66, 0.38 7.38, 0.28 7.09 C0.19 6.81, 0.12 6.5, 0.07 6.2 C0.02 5.9, 0 5.59, 0 5.29 C0 4.98, 0.02 4.67, 0.07 4.37 C0.12 4.07, 0.19 3.77, 0.28 3.48 C0.38 3.19, 0.49 2.91, 0.63 2.64 C0.76 2.38, 0.92 2.12, 1.1 1.89 C1.27 1.65, 1.47 1.43, 1.67 1.24 C1.88 1.04, 2.11 0.86, 2.34 0.71 C2.58 0.56, 2.83 0.42, 3.08 0.32 C3.34 0.21, 3.6 0.13, 3.87 0.08 C4.14 0.03, 4.41 0, 4.68 0 C4.96 0, 5.23 0.03, 5.5 0.08 C5.76 0.13, 6.03 0.21, 6.29 0.32 C6.54 0.42, 6.79 0.56, 7.03 0.71 C7.26 0.86, 7.49 1.04, 7.7 1.24 C7.9 1.43, 8.1 1.65, 8.27 1.89 C8.45 2.12, 8.61 2.38, 8.74 2.64 C8.88 2.91, 8.99 3.19, 9.09 3.48 C9.18 3.77, 9.25 4.07, 9.3 4.37 C9.34 4.67, 9.36 5.13, 9.37 5.29 C9.38 5.44, 9.38 5.13, 9.37 5.29" stroke="#a61e4d" stroke-width="1" fill="none"></path></g><g stroke-linecap="round" transform="translate(1308.4570922851562 233.73753356933594) rotate(0 4.684326171875 5.2853546142578125)"><path d="M9.37 5.29 C9.37 5.59, 9.34 5.9, 9.3 6.2 C9.25 6.5, 9.18 6.81, 9.09 7.09 C8.99 7.38, 8.88 7.66, 8.74 7.93 C8.61 8.19, 8.45 8.45, 8.27 8.68 C8.1 8.92, 7.9 9.14, 7.7 9.33 C7.49 9.53, 7.26 9.71, 7.03 9.86 C6.79 10.02, 6.54 10.15, 6.29 10.25 C6.03 10.36, 5.76 10.44, 5.5 10.49 C5.23 10.54, 4.96 10.57, 4.68 10.57 C4.41 10.57, 4.14 10.54, 3.87 10.49 C3.6 10.44, 3.34 10.36, 3.08 10.25 C2.83 10.15, 2.58 10.02, 2.34 9.86 C2.11 9.71, 1.88 9.53, 1.67 9.33 C1.47 9.14, 1.27 8.92, 1.1 8.68 C0.92 8.45, 0.76 8.19, 0.63 7.93 C0.49 7.66, 0.38 7.38, 0.28 7.09 C0.19 6.81, 0.12 6.5, 0.07 6.2 C0.02 5.9, 0 5.59, 0 5.29 C0 4.98, 0.02 4.67, 0.07 4.37 C0.12 4.07, 0.19 3.77, 0.28 3.48 C0.38 3.19, 0.49 2.91, 0.63 2.64 C0.76 2.38, 0.92 2.12, 1.1 1.89 C1.27 1.65, 1.47 1.43, 1.67 1.24 C1.88 1.04, 2.11 0.86, 2.34 0.71 C2.58 0.56, 2.83 0.42, 3.08 0.32 C3.34 0.21, 3.6 0.13, 3.87 0.08 C4.14 0.03, 4.41 0, 4.68 0 C4.96 0, 5.23 0.03, 5.5 0.08 C5.76 0.13, 6.03 0.21, 6.29 0.32 C6.54 0.42, 6.79 0.56, 7.03 0.71 C7.26 0.86, 7.49 1.04, 7.7 1.24 C7.9 1.43, 8.1 1.65, 8.27 1.89 C8.45 2.12, 8.61 2.38, 8.74 2.64 C8.88 2.91, 8.99 3.19, 9.09 3.48 C9.18 3.77, 9.25 4.07, 9.3 4.37 C9.34 4.67, 9.36 5.13, 9.37 5.29 C9.38 5.44, 9.38 5.13, 9.37 5.29" stroke="none" stroke-width="0" fill="#a61e4d"></path><path d="M9.37 5.29 C9.37 5.59, 9.34 5.9, 9.3 6.2 C9.25 6.5, 9.18 6.81, 9.09 7.09 C8.99 7.38, 8.88 7.66, 8.74 7.93 C8.61 8.19, 8.45 8.45, 8.27 8.68 C8.1 8.92, 7.9 9.14, 7.7 9.33 C7.49 9.53, 7.26 9.71, 7.03 9.86 C6.79 10.02, 6.54 10.15, 6.29 10.25 C6.03 10.36, 5.76 10.44, 5.5 10.49 C5.23 10.54, 4.96 10.57, 4.68 10.57 C4.41 10.57, 4.14 10.54, 3.87 10.49 C3.6 10.44, 3.34 10.36, 3.08 10.25 C2.83 10.15, 2.58 10.02, 2.34 9.86 C2.11 9.71, 1.88 9.53, 1.67 9.33 C1.47 9.14, 1.27 8.92, 1.1 8.68 C0.92 8.45, 0.76 8.19, 0.63 7.93 C0.49 7.66, 0.38 7.38, 0.28 7.09 C0.19 6.81, 0.12 6.5, 0.07 6.2 C0.02 5.9, 0 5.59, 0 5.29 C0 4.98, 0.02 4.67, 0.07 4.37 C0.12 4.07, 0.19 3.77, 0.28 3.48 C0.38 3.19, 0.49 2.91, 0.63 2.64 C0.76 2.38, 0.92 2.12, 1.1 1.89 C1.27 1.65, 1.47 1.43, 1.67 1.24 C1.88 1.04, 2.11 0.86, 2.34 0.71 C2.58 0.56, 2.83 0.42, 3.08 0.32 C3.34 0.21, 3.6 0.13, 3.87 0.08 C4.14 0.03, 4.41 0, 4.68 0 C4.96 0, 5.23 0.03, 5.5 0.08 C5.76 0.13, 6.03 0.21, 6.29 0.32 C6.54 0.42, 6.79 0.56, 7.03 0.71 C7.26 0.86, 7.49 1.04, 7.7 1.24 C7.9 1.43, 8.1 1.65, 8.27 1.89 C8.45 2.12, 8.61 2.38, 8.74 2.64 C8.88 2.91, 8.99 3.19, 9.09 3.48 C9.18 3.77, 9.25 4.07, 9.3 4.37 C9.34 4.67, 9.36 5.13, 9.37 5.29 C9.38 5.44, 9.38 5.13, 9.37 5.29" stroke="#a61e4d" stroke-width="1" fill="none"></path></g><g stroke-linecap="round"><g transform="translate(1011.9031690828856 444.7097046506062) rotate(0 0.14576959322516814 -84.39942324815468)"><path d="M0 0 C0.05 -28.13, 0.24 -140.67, 0.29 -168.8 M0 0 C0.05 -28.13, 0.24 -140.67, 0.29 -168.8" stroke="#000000" stroke-width="2" fill="none"></path></g><g transform="translate(1011.9031690828856 444.7097046506062) rotate(0 0.14576959322516814 -84.39942324815468)"><path d="M0.29 -168.8 L6.61 -155.19 L-6.07 -155.22 L0.29 -168.8" stroke="none" stroke-width="0" fill="#000000" fill-rule="evenodd"></path><path d="M0.29 -168.8 C2.05 -165, 3.82 -161.21, 6.61 -155.19 M0.29 -168.8 C1.84 -165.45, 3.4 -162.11, 6.61 -155.19 M6.61 -155.19 C1.83 -155.2, -2.94 -155.21, -6.07 -155.22 M6.61 -155.19 C2.1 -155.2, -2.4 -155.21, -6.07 -155.22 M-6.07 -155.22 C-3.95 -159.74, -1.83 -164.27, 0.29 -168.8 M-6.07 -155.22 C-4.55 -158.47, -3.03 -161.72, 0.29 -168.8 M0.29 -168.8 C0.29 -168.8, 0.29 -168.8, 0.29 -168.8 M0.29 -168.8 C0.29 -168.8, 0.29 -168.8, 0.29 -168.8" stroke="#000000" stroke-width="2" fill="none"></path></g></g><g stroke-linecap="round"><g transform="translate(1011.1759787868832 444.3481332106502) rotate(0 159.38189281739835 0.8130092003389677)"><path d="M0 0 C53.13 0.27, 265.64 1.36, 318.76 1.63 M0 0 C53.13 0.27, 265.64 1.36, 318.76 1.63" stroke="#000000" stroke-width="2" fill="none"></path></g><g transform="translate(1011.1759787868832 444.3481332106502) rotate(0 159.38189281739835 0.8130092003389677)"><path d="M318.76 1.63 L305.14 7.9 L305.2 -4.78 L318.76 1.63" stroke="none" stroke-width="0" fill="#000000" fill-rule="evenodd"></path><path d="M318.76 1.63 C314.94 3.39, 311.11 5.15, 305.14 7.9 M318.76 1.63 C313.81 3.9, 308.86 6.18, 305.14 7.9 M305.14 7.9 C305.15 5.1, 305.17 2.3, 305.2 -4.78 M305.14 7.9 C305.15 4.47, 305.17 1.05, 305.2 -4.78 M305.2 -4.78 C309.21 -2.89, 313.23 -0.99, 318.76 1.63 M305.2 -4.78 C309.41 -2.79, 313.62 -0.8, 318.76 1.63 M318.76 1.63 C318.76 1.63, 318.76 1.63, 318.76 1.63 M318.76 1.63 C318.76 1.63, 318.76 1.63, 318.76 1.63" stroke="#000000" stroke-width="2" fill="none"></path></g></g><g transform="translate(909.6174377615234 346.0155944824219) rotate(269.75796480119743 65 24)"><text x="65" y="20" font-family="Cascadia, Segoe UI Emoji" font-size="20px" fill="#000000" text-anchor="middle" style="white-space: pre;" direction="ltr">Likelihoold</text><text x="65" y="44" font-family="Cascadia, Segoe UI Emoji" font-size="20px" fill="#000000" text-anchor="middle" style="white-space: pre;" direction="ltr">of Reward</text></g><g transform="translate(1036.9665588552734 457.0891418457031) rotate(0 112.5 12)"><text x="112.5" y="20" font-family="Cascadia, Segoe UI Emoji" font-size="20px" fill="#000000" text-anchor="middle" style="white-space: pre;" direction="ltr">Reward Distribution</text></g><g stroke-linecap="round" transform="translate(1288.403723161914 418.67311096191406) rotate(0 4.684326171875 5.2853546142578125)"><path d="M9.37 5.29 C9.37 5.59, 9.34 5.9, 9.3 6.2 C9.25 6.5, 9.18 6.81, 9.09 7.09 C8.99 7.38, 8.88 7.66, 8.74 7.93 C8.61 8.19, 8.45 8.45, 8.27 8.68 C8.1 8.92, 7.9 9.14, 7.7 9.33 C7.49 9.53, 7.26 9.71, 7.03 9.86 C6.79 10.02, 6.54 10.15, 6.29 10.25 C6.03 10.36, 5.76 10.44, 5.5 10.49 C5.23 10.54, 4.96 10.57, 4.68 10.57 C4.41 10.57, 4.14 10.54, 3.87 10.49 C3.6 10.44, 3.34 10.36, 3.08 10.25 C2.83 10.15, 2.58 10.02, 2.34 9.86 C2.11 9.71, 1.88 9.53, 1.67 9.33 C1.47 9.14, 1.27 8.92, 1.1 8.68 C0.92 8.45, 0.76 8.19, 0.63 7.93 C0.49 7.66, 0.38 7.38, 0.28 7.09 C0.19 6.81, 0.12 6.5, 0.07 6.2 C0.02 5.9, 0 5.59, 0 5.29 C0 4.98, 0.02 4.67, 0.07 4.37 C0.12 4.07, 0.19 3.77, 0.28 3.48 C0.38 3.19, 0.49 2.91, 0.63 2.64 C0.76 2.38, 0.92 2.12, 1.1 1.89 C1.27 1.65, 1.47 1.43, 1.67 1.24 C1.88 1.04, 2.11 0.86, 2.34 0.71 C2.58 0.56, 2.83 0.42, 3.08 0.32 C3.34 0.21, 3.6 0.13, 3.87 0.08 C4.14 0.03, 4.41 0, 4.68 0 C4.96 0, 5.23 0.03, 5.5 0.08 C5.76 0.13, 6.03 0.21, 6.29 0.32 C6.54 0.42, 6.79 0.56, 7.03 0.71 C7.26 0.86, 7.49 1.04, 7.7 1.24 C7.9 1.43, 8.1 1.65, 8.27 1.89 C8.45 2.12, 8.61 2.38, 8.74 2.64 C8.88 2.91, 8.99 3.19, 9.09 3.48 C9.18 3.77, 9.25 4.07, 9.3 4.37 C9.34 4.67, 9.36 5.13, 9.37 5.29 C9.38 5.44, 9.38 5.13, 9.37 5.29" stroke="none" stroke-width="0" fill="#087f5b"></path><path d="M9.37 5.29 C9.37 5.59, 9.34 5.9, 9.3 6.2 C9.25 6.5, 9.18 6.81, 9.09 7.09 C8.99 7.38, 8.88 7.66, 8.74 7.93 C8.61 8.19, 8.45 8.45, 8.27 8.68 C8.1 8.92, 7.9 9.14, 7.7 9.33 C7.49 9.53, 7.26 9.71, 7.03 9.86 C6.79 10.02, 6.54 10.15, 6.29 10.25 C6.03 10.36, 5.76 10.44, 5.5 10.49 C5.23 10.54, 4.96 10.57, 4.68 10.57 C4.41 10.57, 4.14 10.54, 3.87 10.49 C3.6 10.44, 3.34 10.36, 3.08 10.25 C2.83 10.15, 2.58 10.02, 2.34 9.86 C2.11 9.71, 1.88 9.53, 1.67 9.33 C1.47 9.14, 1.27 8.92, 1.1 8.68 C0.92 8.45, 0.76 8.19, 0.63 7.93 C0.49 7.66, 0.38 7.38, 0.28 7.09 C0.19 6.81, 0.12 6.5, 0.07 6.2 C0.02 5.9, 0 5.59, 0 5.29 C0 4.98, 0.02 4.67, 0.07 4.37 C0.12 4.07, 0.19 3.77, 0.28 3.48 C0.38 3.19, 0.49 2.91, 0.63 2.64 C0.76 2.38, 0.92 2.12, 1.1 1.89 C1.27 1.65, 1.47 1.43, 1.67 1.24 C1.88 1.04, 2.11 0.86, 2.34 0.71 C2.58 0.56, 2.83 0.42, 3.08 0.32 C3.34 0.21, 3.6 0.13, 3.87 0.08 C4.14 0.03, 4.41 0, 4.68 0 C4.96 0, 5.23 0.03, 5.5 0.08 C5.76 0.13, 6.03 0.21, 6.29 0.32 C6.54 0.42, 6.79 0.56, 7.03 0.71 C7.26 0.86, 7.49 1.04, 7.7 1.24 C7.9 1.43, 8.1 1.65, 8.27 1.89 C8.45 2.12, 8.61 2.38, 8.74 2.64 C8.88 2.91, 8.99 3.19, 9.09 3.48 C9.18 3.77, 9.25 4.07, 9.3 4.37 C9.34 4.67, 9.36 5.13, 9.37 5.29 C9.38 5.44, 9.38 5.13, 9.37 5.29" stroke="#087f5b" stroke-width="1" fill="none"></path></g><g stroke-linecap="round" transform="translate(1268.7287048513672 418.67311096191406) rotate(0 4.684326171875 5.2853546142578125)"><path d="M9.37 5.29 C9.37 5.59, 9.34 5.9, 9.3 6.2 C9.25 6.5, 9.18 6.81, 9.09 7.09 C8.99 7.38, 8.88 7.66, 8.74 7.93 C8.61 8.19, 8.45 8.45, 8.27 8.68 C8.1 8.92, 7.9 9.14, 7.7 9.33 C7.49 9.53, 7.26 9.71, 7.03 9.86 C6.79 10.02, 6.54 10.15, 6.29 10.25 C6.03 10.36, 5.76 10.44, 5.5 10.49 C5.23 10.54, 4.96 10.57, 4.68 10.57 C4.41 10.57, 4.14 10.54, 3.87 10.49 C3.6 10.44, 3.34 10.36, 3.08 10.25 C2.83 10.15, 2.58 10.02, 2.34 9.86 C2.11 9.71, 1.88 9.53, 1.67 9.33 C1.47 9.14, 1.27 8.92, 1.1 8.68 C0.92 8.45, 0.76 8.19, 0.63 7.93 C0.49 7.66, 0.38 7.38, 0.28 7.09 C0.19 6.81, 0.12 6.5, 0.07 6.2 C0.02 5.9, 0 5.59, 0 5.29 C0 4.98, 0.02 4.67, 0.07 4.37 C0.12 4.07, 0.19 3.77, 0.28 3.48 C0.38 3.19, 0.49 2.91, 0.63 2.64 C0.76 2.38, 0.92 2.12, 1.1 1.89 C1.27 1.65, 1.47 1.43, 1.67 1.24 C1.88 1.04, 2.11 0.86, 2.34 0.71 C2.58 0.56, 2.83 0.42, 3.08 0.32 C3.34 0.21, 3.6 0.13, 3.87 0.08 C4.14 0.03, 4.41 0, 4.68 0 C4.96 0, 5.23 0.03, 5.5 0.08 C5.76 0.13, 6.03 0.21, 6.29 0.32 C6.54 0.42, 6.79 0.56, 7.03 0.71 C7.26 0.86, 7.49 1.04, 7.7 1.24 C7.9 1.43, 8.1 1.65, 8.27 1.89 C8.45 2.12, 8.61 2.38, 8.74 2.64 C8.88 2.91, 8.99 3.19, 9.09 3.48 C9.18 3.77, 9.25 4.07, 9.3 4.37 C9.34 4.67, 9.36 5.13, 9.37 5.29 C9.38 5.44, 9.38 5.13, 9.37 5.29" stroke="none" stroke-width="0" fill="#087f5b"></path><path d="M9.37 5.29 C9.37 5.59, 9.34 5.9, 9.3 6.2 C9.25 6.5, 9.18 6.81, 9.09 7.09 C8.99 7.38, 8.88 7.66, 8.74 7.93 C8.61 8.19, 8.45 8.45, 8.27 8.68 C8.1 8.92, 7.9 9.14, 7.7 9.33 C7.49 9.53, 7.26 9.71, 7.03 9.86 C6.79 10.02, 6.54 10.15, 6.29 10.25 C6.03 10.36, 5.76 10.44, 5.5 10.49 C5.23 10.54, 4.96 10.57, 4.68 10.57 C4.41 10.57, 4.14 10.54, 3.87 10.49 C3.6 10.44, 3.34 10.36, 3.08 10.25 C2.83 10.15, 2.58 10.02, 2.34 9.86 C2.11 9.71, 1.88 9.53, 1.67 9.33 C1.47 9.14, 1.27 8.92, 1.1 8.68 C0.92 8.45, 0.76 8.19, 0.63 7.93 C0.49 7.66, 0.38 7.38, 0.28 7.09 C0.19 6.81, 0.12 6.5, 0.07 6.2 C0.02 5.9, 0 5.59, 0 5.29 C0 4.98, 0.02 4.67, 0.07 4.37 C0.12 4.07, 0.19 3.77, 0.28 3.48 C0.38 3.19, 0.49 2.91, 0.63 2.64 C0.76 2.38, 0.92 2.12, 1.1 1.89 C1.27 1.65, 1.47 1.43, 1.67 1.24 C1.88 1.04, 2.11 0.86, 2.34 0.71 C2.58 0.56, 2.83 0.42, 3.08 0.32 C3.34 0.21, 3.6 0.13, 3.87 0.08 C4.14 0.03, 4.41 0, 4.68 0 C4.96 0, 5.23 0.03, 5.5 0.08 C5.76 0.13, 6.03 0.21, 6.29 0.32 C6.54 0.42, 6.79 0.56, 7.03 0.71 C7.26 0.86, 7.49 1.04, 7.7 1.24 C7.9 1.43, 8.1 1.65, 8.27 1.89 C8.45 2.12, 8.61 2.38, 8.74 2.64 C8.88 2.91, 8.99 3.19, 9.09 3.48 C9.18 3.77, 9.25 4.07, 9.3 4.37 C9.34 4.67, 9.36 5.13, 9.37 5.29 C9.38 5.44, 9.38 5.13, 9.37 5.29" stroke="#087f5b" stroke-width="1" fill="none"></path></g><g stroke-linecap="round" transform="translate(1308.078741472461 418.67311096191406) rotate(0 4.684326171875 5.2853546142578125)"><path d="M9.37 5.29 C9.37 5.59, 9.34 5.9, 9.3 6.2 C9.25 6.5, 9.18 6.81, 9.09 7.09 C8.99 7.38, 8.88 7.66, 8.74 7.93 C8.61 8.19, 8.45 8.45, 8.27 8.68 C8.1 8.92, 7.9 9.14, 7.7 9.33 C7.49 9.53, 7.26 9.71, 7.03 9.86 C6.79 10.02, 6.54 10.15, 6.29 10.25 C6.03 10.36, 5.76 10.44, 5.5 10.49 C5.23 10.54, 4.96 10.57, 4.68 10.57 C4.41 10.57, 4.14 10.54, 3.87 10.49 C3.6 10.44, 3.34 10.36, 3.08 10.25 C2.83 10.15, 2.58 10.02, 2.34 9.86 C2.11 9.71, 1.88 9.53, 1.67 9.33 C1.47 9.14, 1.27 8.92, 1.1 8.68 C0.92 8.45, 0.76 8.19, 0.63 7.93 C0.49 7.66, 0.38 7.38, 0.28 7.09 C0.19 6.81, 0.12 6.5, 0.07 6.2 C0.02 5.9, 0 5.59, 0 5.29 C0 4.98, 0.02 4.67, 0.07 4.37 C0.12 4.07, 0.19 3.77, 0.28 3.48 C0.38 3.19, 0.49 2.91, 0.63 2.64 C0.76 2.38, 0.92 2.12, 1.1 1.89 C1.27 1.65, 1.47 1.43, 1.67 1.24 C1.88 1.04, 2.11 0.86, 2.34 0.71 C2.58 0.56, 2.83 0.42, 3.08 0.32 C3.34 0.21, 3.6 0.13, 3.87 0.08 C4.14 0.03, 4.41 0, 4.68 0 C4.96 0, 5.23 0.03, 5.5 0.08 C5.76 0.13, 6.03 0.21, 6.29 0.32 C6.54 0.42, 6.79 0.56, 7.03 0.71 C7.26 0.86, 7.49 1.04, 7.7 1.24 C7.9 1.43, 8.1 1.65, 8.27 1.89 C8.45 2.12, 8.61 2.38, 8.74 2.64 C8.88 2.91, 8.99 3.19, 9.09 3.48 C9.18 3.77, 9.25 4.07, 9.3 4.37 C9.34 4.67, 9.36 5.13, 9.37 5.29 C9.38 5.44, 9.38 5.13, 9.37 5.29" stroke="none" stroke-width="0" fill="#087f5b"></path><path d="M9.37 5.29 C9.37 5.59, 9.34 5.9, 9.3 6.2 C9.25 6.5, 9.18 6.81, 9.09 7.09 C8.99 7.38, 8.88 7.66, 8.74 7.93 C8.61 8.19, 8.45 8.45, 8.27 8.68 C8.1 8.92, 7.9 9.14, 7.7 9.33 C7.49 9.53, 7.26 9.71, 7.03 9.86 C6.79 10.02, 6.54 10.15, 6.29 10.25 C6.03 10.36, 5.76 10.44, 5.5 10.49 C5.23 10.54, 4.96 10.57, 4.68 10.57 C4.41 10.57, 4.14 10.54, 3.87 10.49 C3.6 10.44, 3.34 10.36, 3.08 10.25 C2.83 10.15, 2.58 10.02, 2.34 9.86 C2.11 9.71, 1.88 9.53, 1.67 9.33 C1.47 9.14, 1.27 8.92, 1.1 8.68 C0.92 8.45, 0.76 8.19, 0.63 7.93 C0.49 7.66, 0.38 7.38, 0.28 7.09 C0.19 6.81, 0.12 6.5, 0.07 6.2 C0.02 5.9, 0 5.59, 0 5.29 C0 4.98, 0.02 4.67, 0.07 4.37 C0.12 4.07, 0.19 3.77, 0.28 3.48 C0.38 3.19, 0.49 2.91, 0.63 2.64 C0.76 2.38, 0.92 2.12, 1.1 1.89 C1.27 1.65, 1.47 1.43, 1.67 1.24 C1.88 1.04, 2.11 0.86, 2.34 0.71 C2.58 0.56, 2.83 0.42, 3.08 0.32 C3.34 0.21, 3.6 0.13, 3.87 0.08 C4.14 0.03, 4.41 0, 4.68 0 C4.96 0, 5.23 0.03, 5.5 0.08 C5.76 0.13, 6.03 0.21, 6.29 0.32 C6.54 0.42, 6.79 0.56, 7.03 0.71 C7.26 0.86, 7.49 1.04, 7.7 1.24 C7.9 1.43, 8.1 1.65, 8.27 1.89 C8.45 2.12, 8.61 2.38, 8.74 2.64 C8.88 2.91, 8.99 3.19, 9.09 3.48 C9.18 3.77, 9.25 4.07, 9.3 4.37 C9.34 4.67, 9.36 5.13, 9.37 5.29 C9.38 5.44, 9.38 5.13, 9.37 5.29" stroke="#087f5b" stroke-width="1" fill="none"></path></g><g transform="translate(1015.6414184570312 536) rotate(0 218 34.5)"><text x="0" y="19" font-family="Helvetica, Segoe UI Emoji" font-size="20px" fill="#a61e4d" text-anchor="start" style="white-space: pre;" direction="ltr">Prestige &amp; compute/memory bound </text><text x="0" y="42" font-family="Helvetica, Segoe UI Emoji" font-size="20px" fill="#a61e4d" text-anchor="start" style="white-space: pre;" direction="ltr">proof of work have uneven probability distribution</text><text x="0" y="65" font-family="Helvetica, Segoe UI Emoji" font-size="20px" fill="#a61e4d" text-anchor="start" style="white-space: pre;" direction="ltr">for subsidies/rewards</text></g><g transform="translate(1015.1414184570312 622) rotate(0 203 23)"><text x="0" y="19" font-family="Helvetica, Segoe UI Emoji" font-size="20px" fill="#087f5b" text-anchor="start" style="white-space: pre;" direction="ltr">Most stochastic proof methods provide even</text><text x="0" y="42" font-family="Helvetica, Segoe UI Emoji" font-size="20px" fill="#087f5b" text-anchor="start" style="white-space: pre;" direction="ltr">probability of subsidy/reward across all nodes</text></g><g transform="translate(963.4136352539062 714.3075561523438) rotate(0 231.5 23)"><text x="231.5" y="19" font-family="Helvetica, Segoe UI Emoji" font-size="20px" fill="#343a40" text-anchor="middle" style="white-space: pre;" direction="ltr">Uniform probability distribution is one of the simplest</text><text x="231.5" y="42" font-family="Helvetica, Segoe UI Emoji" font-size="20px" fill="#343a40" text-anchor="middle" style="white-space: pre;" direction="ltr">and best measures of fairness</text></g></svg>