{
  "type": "excalidraw",
  "version": 2,
  "source": "https://excalidraw.com",
  "elements": [
    {
      "type": "rectangle",
      "version": 558,
      "versionNonce": 1597616811,
      "isDeleted": false,
      "id": "WQBxOXW2Yi1JXNhAvTSoY",
      "fillStyle": "hachure",
      "strokeWidth": 2,
      "strokeStyle": "dotted",
      "roughness": 0,
      "opacity": 100,
      "angle": 0,
      "x": 149.03859747023807,
      "y": 112.55050223214312,
      "strokeColor": "#efeefe",
      "backgroundColor": "#868e96",
      "width": 1278.7782738095239,
      "height": 1088.3208705357138,
      "seed": 388556255,
      "groupIds": [],
      "strokeSharpness": "round",
      "boundElementIds": []
    },
    {
      "type": "ellipse",
      "version": 383,
      "versionNonce": 1185516785,
      "isDeleted": false,
      "id": "qYPrpc0PYj7Q1s9_y3Ysm",
      "fillStyle": "hachure",
      "strokeWidth": 1,
      "strokeStyle": "solid",
      "roughness": 1,
      "opacity": 100,
      "angle": 0,
      "x": 778.6402127692666,
      "y": 844.5301852168,
      "strokeColor": "#000000",
      "backgroundColor": "#15aabf",
      "width": 28.41562519201433,
      "height": 28.41562519201433,
      "seed": 799847398,
      "groupIds": [
        "2J8J-se1cGY6PZ2Cr1Lzd"
      ],
      "strokeSharpness": "sharp",
      "boundElementIds": []
    },
    {
      "type": "ellipse",
      "version": 400,
      "versionNonce": 2083960479,
      "isDeleted": false,
      "id": "0AwM3fWBeIjozT2tsFd6E",
      "fillStyle": "hachure",
      "strokeWidth": 1,
      "strokeStyle": "solid",
      "roughness": 1,
      "opacity": 100,
      "angle": 0,
      "x": 816.4002869572164,
      "y": 931.3884823139128,
      "strokeColor": "#000000",
      "backgroundColor": "#15aabf",
      "width": 28.41562519201433,
      "height": 28.41562519201433,
      "seed": 1972725114,
      "groupIds": [
        "2J8J-se1cGY6PZ2Cr1Lzd"
      ],
      "strokeSharpness": "sharp",
      "boundElementIds": []
    },
    {
      "type": "ellipse",
      "version": 456,
      "versionNonce": 279758545,
      "isDeleted": false,
      "id": "u1iCeJAE0TP8QJdXux6zP",
      "fillStyle": "hachure",
      "strokeWidth": 1,
      "strokeStyle": "solid",
      "roughness": 1,
      "opacity": 100,
      "angle": 0,
      "x": 922.9867333625506,
      "y": 949.4596493233503,
      "strokeColor": "#000000",
      "backgroundColor": "#15aabf",
      "width": 28.41562519201433,
      "height": 28.41562519201433,
      "seed": 1694058278,
      "groupIds": [
        "2J8J-se1cGY6PZ2Cr1Lzd"
      ],
      "strokeSharpness": "sharp",
      "boundElementIds": []
    },
    {
      "type": "ellipse",
      "version": 527,
      "versionNonce": 847547071,
      "isDeleted": false,
      "id": "Vd8gDeQ0q9ENh70mgaoGp",
      "fillStyle": "hachure",
      "strokeWidth": 1,
      "strokeStyle": "solid",
      "roughness": 1,
      "opacity": 100,
      "angle": 0,
      "x": 852.2679260681621,
      "y": 790.4398978245495,
      "strokeColor": "#000000",
      "backgroundColor": "#15aabf",
      "width": 28.41562519201433,
      "height": 28.41562519201433,
      "seed": 2004788794,
      "groupIds": [
        "2J8J-se1cGY6PZ2Cr1Lzd"
      ],
      "strokeSharpness": "sharp",
      "boundElementIds": []
    },
    {
      "type": "ellipse",
      "version": 485,
      "versionNonce": 233686193,
      "isDeleted": false,
      "id": "wcaE49T0JvtcB-4MLaZD8",
      "fillStyle": "hachure",
      "strokeWidth": 1,
      "strokeStyle": "solid",
      "roughness": 1,
      "opacity": 100,
      "angle": 0,
      "x": 944.5507824761698,
      "y": 823.4880896842997,
      "strokeColor": "#000000",
      "backgroundColor": "#15aabf",
      "width": 28.41562519201433,
      "height": 28.41562519201433,
      "seed": 1104245350,
      "groupIds": [
        "2J8J-se1cGY6PZ2Cr1Lzd"
      ],
      "strokeSharpness": "sharp",
      "boundElementIds": []
    },
    {
      "type": "ellipse",
      "version": 496,
      "versionNonce": 1682103007,
      "isDeleted": false,
      "id": "xR-tLX-G3zvcPV-ayUCg0",
      "fillStyle": "hachure",
      "strokeWidth": 1,
      "strokeStyle": "solid",
      "roughness": 1,
      "opacity": 100,
      "angle": 0,
      "x": 959.2695741593986,
      "y": 887.2823238878345,
      "strokeColor": "#000000",
      "backgroundColor": "#15aabf",
      "width": 28.41562519201433,
      "height": 28.41562519201433,
      "seed": 335662842,
      "groupIds": [
        "2J8J-se1cGY6PZ2Cr1Lzd"
      ],
      "strokeSharpness": "sharp",
      "boundElementIds": []
    },
    {
      "type": "line",
      "version": 378,
      "versionNonce": 437520017,
      "isDeleted": false,
      "id": "8Op3MmxoyLM6gHg65zWNv",
      "fillStyle": "hachure",
      "strokeWidth": 1,
      "strokeStyle": "solid",
      "roughness": 1,
      "opacity": 100,
      "angle": 0,
      "x": 854.0599594379842,
      "y": 807.7486036631357,
      "strokeColor": "#000000",
      "backgroundColor": "#15aabf",
      "width": 51.40661868503485,
      "height": 40.15596430955931,
      "seed": 16922022,
      "groupIds": [
        "2J8J-se1cGY6PZ2Cr1Lzd"
      ],
      "strokeSharpness": "round",
      "boundElementIds": [],
      "startBinding": null,
      "endBinding": null,
      "points": [
        [
          0,
          0
        ],
        [
          -51.40661868503485,
          40.15596430955931
        ]
      ],
      "lastCommittedPoint": null,
      "startArrowhead": null,
      "endArrowhead": null
    },
    {
      "type": "line",
      "version": 364,
      "versionNonce": 1174546175,
      "isDeleted": false,
      "id": "jy_BkZxbx64YrMMy3e23y",
      "fillStyle": "hachure",
      "strokeWidth": 1,
      "strokeStyle": "solid",
      "roughness": 1,
      "opacity": 100,
      "angle": 0,
      "x": 795.2352465697846,
      "y": 871.8910139980183,
      "strokeColor": "#000000",
      "backgroundColor": "#15aabf",
      "width": 27.69749468359208,
      "height": 60.1648097816131,
      "seed": 799137722,
      "groupIds": [
        "2J8J-se1cGY6PZ2Cr1Lzd"
      ],
      "strokeSharpness": "round",
      "boundElementIds": [],
      "startBinding": null,
      "endBinding": null,
      "points": [
        [
          0,
          0
        ],
        [
          27.69749468359208,
          60.1648097816131
        ]
      ],
      "lastCommittedPoint": null,
      "startArrowhead": null,
      "endArrowhead": null
    },
    {
      "type": "line",
      "version": 372,
      "versionNonce": 802622577,
      "isDeleted": false,
      "id": "9HLa9fg1FaCmjXYAtz4O_",
      "fillStyle": "hachure",
      "strokeWidth": 1,
      "strokeStyle": "solid",
      "roughness": 1,
      "opacity": 100,
      "angle": 0,
      "x": 843.3697549720766,
      "y": 953.6454214515903,
      "strokeColor": "#000000",
      "backgroundColor": "#15aabf",
      "width": 79.70467655080583,
      "height": 7.560535464936038,
      "seed": 2075693286,
      "groupIds": [
        "2J8J-se1cGY6PZ2Cr1Lzd"
      ],
      "strokeSharpness": "round",
      "boundElementIds": [],
      "startBinding": null,
      "endBinding": null,
      "points": [
        [
          0,
          0
        ],
        [
          79.70467655080583,
          7.560535464936038
        ]
      ],
      "lastCommittedPoint": null,
      "startArrowhead": null,
      "endArrowhead": null
    },
    {
      "type": "line",
      "version": 368,
      "versionNonce": 641920799,
      "isDeleted": false,
      "id": "h9XX1vfKRLmFdiFk4wSxx",
      "fillStyle": "hachure",
      "strokeWidth": 1,
      "strokeStyle": "solid",
      "roughness": 1,
      "opacity": 100,
      "angle": 0,
      "x": 971.1147093224386,
      "y": 917.1371056065534,
      "strokeColor": "#000000",
      "backgroundColor": "#15aabf",
      "width": 23.628881722338672,
      "height": 32.46704685402959,
      "seed": 646043770,
      "groupIds": [
        "2J8J-se1cGY6PZ2Cr1Lzd"
      ],
      "strokeSharpness": "round",
      "boundElementIds": [],
      "startBinding": null,
      "endBinding": null,
      "points": [
        [
          0,
          0
        ],
        [
          -23.628881722338672,
          32.46704685402959
        ]
      ],
      "lastCommittedPoint": null,
      "startArrowhead": null,
      "endArrowhead": null
    },
    {
      "type": "line",
      "version": 383,
      "versionNonce": 117331537,
      "isDeleted": false,
      "id": "y5CDcW6m8gRr2qXZ88DJt",
      "fillStyle": "hachure",
      "strokeWidth": 1,
      "strokeStyle": "solid",
      "roughness": 1,
      "opacity": 100,
      "angle": 0,
      "x": 964.0558527836224,
      "y": 849.2154369758335,
      "strokeColor": "#000000",
      "backgroundColor": "#15aabf",
      "width": 6.815114226036454,
      "height": 37.75806265599567,
      "seed": 1568769062,
      "groupIds": [
        "2J8J-se1cGY6PZ2Cr1Lzd"
      ],
      "strokeSharpness": "round",
      "boundElementIds": [],
      "startBinding": null,
      "endBinding": null,
      "points": [
        [
          0,
          0
        ],
        [
          6.815114226036454,
          37.75806265599567
        ]
      ],
      "lastCommittedPoint": null,
      "startArrowhead": null,
      "endArrowhead": null
    },
    {
      "type": "line",
      "version": 400,
      "versionNonce": 796242751,
      "isDeleted": false,
      "id": "Hkk4hbMwWk6xyaCrWVwn0",
      "fillStyle": "hachure",
      "strokeWidth": 1,
      "strokeStyle": "solid",
      "roughness": 1,
      "opacity": 100,
      "angle": 0,
      "x": 881.9899110976434,
      "y": 801.3058023413846,
      "strokeColor": "#000000",
      "backgroundColor": "#15aabf",
      "width": 74.62739925287173,
      "height": 21.44994444253861,
      "seed": 1482996026,
      "groupIds": [
        "2J8J-se1cGY6PZ2Cr1Lzd"
      ],
      "strokeSharpness": "round",
      "boundElementIds": [],
      "startBinding": null,
      "endBinding": null,
      "points": [
        [
          0,
          0
        ],
        [
          74.62739925287173,
          21.44994444253861
        ]
      ],
      "lastCommittedPoint": null,
      "startArrowhead": null,
      "endArrowhead": null
    },
    {
      "type": "ellipse",
      "version": 429,
      "versionNonce": 1918985265,
      "isDeleted": false,
      "id": "nBRTEYTAGfEjf_zTkhNif",
      "fillStyle": "hachure",
      "strokeWidth": 1,
      "strokeStyle": "solid",
      "roughness": 1,
      "opacity": 100,
      "angle": 0,
      "x": 703.3555171715955,
      "y": 980.1892299262845,
      "strokeColor": "#000000",
      "backgroundColor": "#15aabf",
      "width": 28.41562519201433,
      "height": 28.41562519201433,
      "seed": 1481248614,
      "groupIds": [
        "2J8J-se1cGY6PZ2Cr1Lzd"
      ],
      "strokeSharpness": "sharp",
      "boundElementIds": []
    },
    {
      "type": "ellipse",
      "version": 456,
      "versionNonce": 1778053983,
      "isDeleted": false,
      "id": "mGq4Uvj2wBcmoklSNETFu",
      "fillStyle": "hachure",
      "strokeWidth": 1,
      "strokeStyle": "solid",
      "roughness": 1,
      "opacity": 100,
      "angle": 0,
      "x": 806.5165912382549,
      "y": 1043.1977901346613,
      "strokeColor": "#000000",
      "backgroundColor": "#15aabf",
      "width": 28.41562519201433,
      "height": 28.41562519201433,
      "seed": 883786234,
      "groupIds": [
        "2J8J-se1cGY6PZ2Cr1Lzd"
      ],
      "strokeSharpness": "sharp",
      "boundElementIds": []
    },
    {
      "type": "line",
      "version": 358,
      "versionNonce": 2112337425,
      "isDeleted": false,
      "id": "XabxfSMONu7EmT0iIHnIt",
      "fillStyle": "hachure",
      "strokeWidth": 1,
      "strokeStyle": "solid",
      "roughness": 1,
      "opacity": 100,
      "angle": 0,
      "x": 816.991331857476,
      "y": 946.4636056215053,
      "strokeColor": "#000000",
      "backgroundColor": "#15aabf",
      "width": 87.10006852334823,
      "height": 38.91705189341084,
      "seed": 1482633894,
      "groupIds": [
        "2J8J-se1cGY6PZ2Cr1Lzd"
      ],
      "strokeSharpness": "round",
      "boundElementIds": [],
      "startBinding": null,
      "endBinding": null,
      "points": [
        [
          0,
          0
        ],
        [
          -87.10006852334823,
          38.91705189341084
        ]
      ],
      "lastCommittedPoint": null,
      "startArrowhead": null,
      "endArrowhead": null
    },
    {
      "type": "line",
      "version": 352,
      "versionNonce": 2116235135,
      "isDeleted": false,
      "id": "GDztSjcRQfRte9UGH7aHq",
      "fillStyle": "hachure",
      "strokeWidth": 1,
      "strokeStyle": "solid",
      "roughness": 1,
      "opacity": 100,
      "angle": 0,
      "x": 829.4903270775243,
      "y": 957.315634622418,
      "strokeColor": "#000000",
      "backgroundColor": "#15aabf",
      "width": 6.177309824350935,
      "height": 84.01141361117277,
      "seed": 1180644026,
      "groupIds": [
        "2J8J-se1cGY6PZ2Cr1Lzd"
      ],
      "strokeSharpness": "round",
      "boundElementIds": [],
      "startBinding": null,
      "endBinding": null,
      "points": [
        [
          0,
          0
        ],
        [
          -6.177309824350935,
          84.01141361117277
        ]
      ],
      "lastCommittedPoint": null,
      "startArrowhead": null,
      "endArrowhead": null
    },
    {
      "type": "ellipse",
      "version": 520,
      "versionNonce": 1284033521,
      "isDeleted": false,
      "id": "Keaf2cOn15acEsh0EEUpq",
      "fillStyle": "hachure",
      "strokeWidth": 1,
      "strokeStyle": "solid",
      "roughness": 1,
      "opacity": 100,
      "angle": 0,
      "x": 947.6801760399471,
      "y": 1017.0731888041523,
      "strokeColor": "#000000",
      "backgroundColor": "#15aabf",
      "width": 28.41562519201433,
      "height": 28.41562519201433,
      "seed": 946728422,
      "groupIds": [
        "2J8J-se1cGY6PZ2Cr1Lzd"
      ],
      "strokeSharpness": "sharp",
      "boundElementIds": []
    },
    {
      "type": "line",
      "version": 442,
      "versionNonce": 909043615,
      "isDeleted": false,
      "id": "1nBwJ73pfl7rw8jNkfByR",
      "fillStyle": "hachure",
      "strokeWidth": 1,
      "strokeStyle": "solid",
      "roughness": 1,
      "opacity": 100,
      "angle": 0,
      "x": 944.0782044818693,
      "y": 975.4437772193801,
      "strokeColor": "#000000",
      "backgroundColor": "#15aabf",
      "width": 14.940525890455103,
      "height": 40.18662861277609,
      "seed": 1075628922,
      "groupIds": [
        "2J8J-se1cGY6PZ2Cr1Lzd"
      ],
      "strokeSharpness": "round",
      "boundElementIds": [],
      "startBinding": null,
      "endBinding": null,
      "points": [
        [
          0,
          0
        ],
        [
          14.940525890455103,
          40.18662861277609
        ]
      ],
      "lastCommittedPoint": null,
      "startArrowhead": null,
      "endArrowhead": null
    },
    {
      "type": "line",
      "version": 464,
      "versionNonce": 910960081,
      "isDeleted": false,
      "id": "TYLPVn_U08AjHCrnf0W3N",
      "fillStyle": "hachure",
      "strokeWidth": 1,
      "strokeStyle": "solid",
      "roughness": 1,
      "opacity": 100,
      "angle": 0,
      "x": 806.5542073025794,
      "y": 1061.76209113114,
      "strokeColor": "#000000",
      "backgroundColor": "#15aabf",
      "width": 49.390576131148286,
      "height": 34.98779434262131,
      "seed": 1971536166,
      "groupIds": [
        "2J8J-se1cGY6PZ2Cr1Lzd"
      ],
      "strokeSharpness": "round",
      "boundElementIds": [],
      "startBinding": null,
      "endBinding": null,
      "points": [
        [
          0,
          0
        ],
        [
          -49.390576131148286,
          34.98779434262131
        ]
      ],
      "lastCommittedPoint": null,
      "startArrowhead": null,
      "endArrowhead": null
    },
    {
      "type": "line",
      "version": 504,
      "versionNonce": 1078893503,
      "isDeleted": false,
      "id": "4fx6YssjuVz2O2PMz7RCX",
      "fillStyle": "hachure",
      "strokeWidth": 1,
      "strokeStyle": "solid",
      "roughness": 1,
      "opacity": 100,
      "angle": 0,
      "x": 829.2532233610203,
      "y": 1072.2154386543516,
      "strokeColor": "#000000",
      "backgroundColor": "#15aabf",
      "width": 2.0388549676299594,
      "height": 40.01057639970329,
      "seed": 136924218,
      "groupIds": [
        "2J8J-se1cGY6PZ2Cr1Lzd"
      ],
      "strokeSharpness": "round",
      "boundElementIds": [],
      "startBinding": null,
      "endBinding": null,
      "points": [
        [
          0,
          0
        ],
        [
          -2.0388549676299594,
          40.01057639970329
        ]
      ],
      "lastCommittedPoint": null,
      "startArrowhead": null,
      "endArrowhead": null
    },
    {
      "type": "line",
      "version": 525,
      "versionNonce": 642335665,
      "isDeleted": false,
      "id": "CHtCsRDZhlb6OvmvzdVKH",
      "fillStyle": "hachure",
      "strokeWidth": 1,
      "strokeStyle": "solid",
      "roughness": 1,
      "opacity": 100,
      "angle": 0,
      "x": 836.8901200520957,
      "y": 1070.451624587769,
      "strokeColor": "#000000",
      "backgroundColor": "#15aabf",
      "width": 24.86780672600829,
      "height": 42.732576038648425,
      "seed": 1661742182,
      "groupIds": [
        "2J8J-se1cGY6PZ2Cr1Lzd"
      ],
      "strokeSharpness": "round",
      "boundElementIds": [],
      "startBinding": null,
      "endBinding": null,
      "points": [
        [
          0,
          0
        ],
        [
          24.86780672600829,
          42.732576038648425
        ]
      ],
      "lastCommittedPoint": null,
      "startArrowhead": null,
      "endArrowhead": null
    },
    {
      "type": "ellipse",
      "version": 514,
      "versionNonce": 815975391,
      "isDeleted": false,
      "id": "8h5XQuqNQRg70tJJQrivX",
      "fillStyle": "hachure",
      "strokeWidth": 1,
      "strokeStyle": "solid",
      "roughness": 1,
      "opacity": 100,
      "angle": 0,
      "x": 850.8385813777113,
      "y": 1104.151126939841,
      "strokeColor": "#000000",
      "backgroundColor": "#15aabf",
      "width": 28.41562519201433,
      "height": 28.41562519201433,
      "seed": 1147647226,
      "groupIds": [
        "2J8J-se1cGY6PZ2Cr1Lzd"
      ],
      "strokeSharpness": "sharp",
      "boundElementIds": []
    },
    {
      "type": "ellipse",
      "version": 558,
      "versionNonce": 950510993,
      "isDeleted": false,
      "id": "aUZrIsW2zD0uidUkJYawx",
      "fillStyle": "hachure",
      "strokeWidth": 1,
      "strokeStyle": "solid",
      "roughness": 1,
      "opacity": 100,
      "angle": 0,
      "x": 735.8391877163097,
      "y": 1092.0459276070615,
      "strokeColor": "#000000",
      "backgroundColor": "#15aabf",
      "width": 28.41562519201433,
      "height": 28.41562519201433,
      "seed": 1591062438,
      "groupIds": [
        "2J8J-se1cGY6PZ2Cr1Lzd"
      ],
      "strokeSharpness": "sharp",
      "boundElementIds": []
    },
    {
      "type": "ellipse",
      "version": 552,
      "versionNonce": 1128003583,
      "isDeleted": false,
      "id": "0AlAeiwr0D4GAyanC-7BK",
      "fillStyle": "hachure",
      "strokeWidth": 1,
      "strokeStyle": "solid",
      "roughness": 1,
      "opacity": 100,
      "angle": 0,
      "x": 801.8125240799559,
      "y": 1112.0195065061475,
      "strokeColor": "#000000",
      "backgroundColor": "#15aabf",
      "width": 28.41562519201433,
      "height": 28.41562519201433,
      "seed": 1717241274,
      "groupIds": [
        "2J8J-se1cGY6PZ2Cr1Lzd"
      ],
      "strokeSharpness": "sharp",
      "boundElementIds": []
    },
    {
      "type": "ellipse",
      "version": 517,
      "versionNonce": 413059953,
      "isDeleted": false,
      "id": "8fZ-DftXXvtfoLpa3-0hb",
      "fillStyle": "hachure",
      "strokeWidth": 1,
      "strokeStyle": "solid",
      "roughness": 1,
      "opacity": 100,
      "angle": 4.748883824164155,
      "x": 1019.4230168719087,
      "y": 894.9336211095172,
      "strokeColor": "#000000",
      "backgroundColor": "#15aabf",
      "width": 28.41562519201433,
      "height": 28.41562519201433,
      "seed": 84724454,
      "groupIds": [
        "2J8J-se1cGY6PZ2Cr1Lzd"
      ],
      "strokeSharpness": "sharp",
      "boundElementIds": []
    },
    {
      "type": "line",
      "version": 446,
      "versionNonce": 1578803231,
      "isDeleted": false,
      "id": "xH9LDsZEYRbQmqwTFHYPE",
      "fillStyle": "hachure",
      "strokeWidth": 1,
      "strokeStyle": "solid",
      "roughness": 1,
      "opacity": 100,
      "angle": 4.748883824164155,
      "x": 1004.5786455712055,
      "y": 885.898904822118,
      "strokeColor": "#000000",
      "backgroundColor": "#15aabf",
      "width": 3.3849272143521785,
      "height": 32.0878077134097,
      "seed": 925253242,
      "groupIds": [
        "2J8J-se1cGY6PZ2Cr1Lzd"
      ],
      "strokeSharpness": "round",
      "boundElementIds": [],
      "startBinding": null,
      "endBinding": null,
      "points": [
        [
          0,
          0
        ],
        [
          -3.3849272143521785,
          32.0878077134097
        ]
      ],
      "lastCommittedPoint": null,
      "startArrowhead": null,
      "endArrowhead": null
    },
    {
      "type": "line",
      "version": 561,
      "versionNonce": 511063377,
      "isDeleted": false,
      "id": "2pizeMnA7ayQCR8lV3CyR",
      "fillStyle": "hachure",
      "strokeWidth": 1,
      "strokeStyle": "solid",
      "roughness": 1,
      "opacity": 100,
      "angle": 4.748883824164155,
      "x": 1131.4311433748148,
      "y": 933.3059473360515,
      "strokeColor": "#000000",
      "backgroundColor": "#15aabf",
      "width": 30.213335087489735,
      "height": 22.07829597185975,
      "seed": 1681817126,
      "groupIds": [
        "2J8J-se1cGY6PZ2Cr1Lzd"
      ],
      "strokeSharpness": "round",
      "boundElementIds": [],
      "startBinding": null,
      "endBinding": null,
      "points": [
        [
          0,
          0
        ],
        [
          -30.213335087489735,
          22.07829597185975
        ]
      ],
      "lastCommittedPoint": null,
      "startArrowhead": null,
      "endArrowhead": null
    },
    {
      "type": "line",
      "version": 575,
      "versionNonce": 1395606591,
      "isDeleted": false,
      "id": "uGOAAqvRCx89ZPSjaiTyL",
      "fillStyle": "hachure",
      "strokeWidth": 1,
      "strokeStyle": "solid",
      "roughness": 1,
      "opacity": 100,
      "angle": 4.748883824164155,
      "x": 1070.6465715821957,
      "y": 888.7745559955426,
      "strokeColor": "#000000",
      "backgroundColor": "#15aabf",
      "width": 2.5694959230864387,
      "height": 41.11544826941008,
      "seed": 1670143802,
      "groupIds": [
        "2J8J-se1cGY6PZ2Cr1Lzd"
      ],
      "strokeSharpness": "round",
      "boundElementIds": [],
      "startBinding": null,
      "endBinding": null,
      "points": [
        [
          0,
          0
        ],
        [
          -2.5694959230864387,
          41.11544826941008
        ]
      ],
      "lastCommittedPoint": null,
      "startArrowhead": null,
      "endArrowhead": null
    },
    {
      "type": "line",
      "version": 597,
      "versionNonce": 763716401,
      "isDeleted": false,
      "id": "50G3K-7s1lWXWMkOYpUa8",
      "fillStyle": "hachure",
      "strokeWidth": 1,
      "strokeStyle": "solid",
      "roughness": 1,
      "opacity": 100,
      "angle": 4.748883824164155,
      "x": 1050.6165730824155,
      "y": 861.2652877561818,
      "strokeColor": "#000000",
      "backgroundColor": "#15aabf",
      "width": 24.86780672600829,
      "height": 42.732576038648425,
      "seed": 827836774,
      "groupIds": [
        "2J8J-se1cGY6PZ2Cr1Lzd"
      ],
      "strokeSharpness": "round",
      "boundElementIds": [],
      "startBinding": null,
      "endBinding": null,
      "points": [
        [
          0,
          0
        ],
        [
          24.86780672600829,
          42.732576038648425
        ]
      ],
      "lastCommittedPoint": null,
      "startArrowhead": null,
      "endArrowhead": null
    },
    {
      "type": "ellipse",
      "version": 575,
      "versionNonce": 1650091103,
      "isDeleted": false,
      "id": "VR6Kbd1-4Y6tUJYO80VEs",
      "fillStyle": "hachure",
      "strokeWidth": 1,
      "strokeStyle": "solid",
      "roughness": 1,
      "opacity": 100,
      "angle": 4.748883824164155,
      "x": 1081.952932185087,
      "y": 852.8651320882238,
      "strokeColor": "#000000",
      "backgroundColor": "#15aabf",
      "width": 28.41562519201433,
      "height": 28.41562519201433,
      "seed": 133195770,
      "groupIds": [
        "2J8J-se1cGY6PZ2Cr1Lzd"
      ],
      "strokeSharpness": "sharp",
      "boundElementIds": []
    },
    {
      "type": "ellipse",
      "version": 647,
      "versionNonce": 1379128593,
      "isDeleted": false,
      "id": "kVVFAuCSNdCDCwLVbOASi",
      "fillStyle": "hachure",
      "strokeWidth": 1,
      "strokeStyle": "solid",
      "roughness": 1,
      "opacity": 100,
      "angle": 4.748883824164155,
      "x": 1119.5885029346055,
      "y": 958.6305291001406,
      "strokeColor": "#000000",
      "backgroundColor": "#15aabf",
      "width": 28.41562519201433,
      "height": 28.41562519201433,
      "seed": 2074455206,
      "groupIds": [
        "2J8J-se1cGY6PZ2Cr1Lzd"
      ],
      "strokeSharpness": "sharp",
      "boundElementIds": []
    },
    {
      "type": "ellipse",
      "version": 613,
      "versionNonce": 2070708351,
      "isDeleted": false,
      "id": "OZMdzAxqFKWwYsHqyn395",
      "fillStyle": "hachure",
      "strokeWidth": 1,
      "strokeStyle": "solid",
      "roughness": 1,
      "opacity": 100,
      "angle": 4.748883824164155,
      "x": 1088.027271325018,
      "y": 902.1456362980591,
      "strokeColor": "#000000",
      "backgroundColor": "#15aabf",
      "width": 28.41562519201433,
      "height": 28.41562519201433,
      "seed": 1012226234,
      "groupIds": [
        "2J8J-se1cGY6PZ2Cr1Lzd"
      ],
      "strokeSharpness": "sharp",
      "boundElementIds": []
    },
    {
      "type": "line",
      "version": 655,
      "versionNonce": 536414961,
      "isDeleted": false,
      "id": "kEIxpkiGdhUjVCp3yOOaT",
      "fillStyle": "hachure",
      "strokeWidth": 1,
      "strokeStyle": "solid",
      "roughness": 1,
      "opacity": 100,
      "angle": 4.748883824164155,
      "x": 1124.7642677163583,
      "y": 880.7016611243425,
      "strokeColor": "#000000",
      "backgroundColor": "#15aabf",
      "width": 14.789892227016711,
      "height": 37.01016987807664,
      "seed": 1624582118,
      "groupIds": [
        "2J8J-se1cGY6PZ2Cr1Lzd"
      ],
      "strokeSharpness": "round",
      "boundElementIds": [],
      "startBinding": null,
      "endBinding": null,
      "points": [
        [
          0,
          0
        ],
        [
          14.789892227016711,
          37.01016987807664
        ]
      ],
      "lastCommittedPoint": null,
      "startArrowhead": null,
      "endArrowhead": null
    },
    {
      "type": "ellipse",
      "version": 702,
      "versionNonce": 1076238495,
      "isDeleted": false,
      "id": "bprsukNRT_bD7Slxwas2s",
      "fillStyle": "hachure",
      "strokeWidth": 1,
      "strokeStyle": "solid",
      "roughness": 1,
      "opacity": 100,
      "angle": 4.748883824164155,
      "x": 883.1138725857593,
      "y": 718.059724480371,
      "strokeColor": "#000000",
      "backgroundColor": "#15aabf",
      "width": 28.41562519201433,
      "height": 28.41562519201433,
      "seed": 543043962,
      "groupIds": [
        "2J8J-se1cGY6PZ2Cr1Lzd"
      ],
      "strokeSharpness": "sharp",
      "boundElementIds": []
    },
    {
      "type": "line",
      "version": 327,
      "versionNonce": 1331463377,
      "isDeleted": false,
      "id": "Ms2b95PPqpmy_JExQ2Yd_",
      "fillStyle": "hachure",
      "strokeWidth": 1,
      "strokeStyle": "solid",
      "roughness": 1,
      "opacity": 100,
      "angle": 0,
      "x": 960.7590190127444,
      "y": 822.6663350755166,
      "strokeColor": "#000000",
      "backgroundColor": "#15aabf",
      "width": 7.923403199637539,
      "height": 66.3585017969625,
      "seed": 1089682214,
      "groupIds": [
        "2J8J-se1cGY6PZ2Cr1Lzd"
      ],
      "strokeSharpness": "round",
      "boundElementIds": [],
      "startBinding": null,
      "endBinding": null,
      "points": [
        [
          0,
          0
        ],
        [
          7.923403199637539,
          -66.3585017969625
        ]
      ],
      "lastCommittedPoint": null,
      "startArrowhead": null,
      "endArrowhead": null
    },
    {
      "type": "line",
      "version": 325,
      "versionNonce": 1178053823,
      "isDeleted": false,
      "id": "ZgMqPuQ_w66mWWXlPOCms",
      "fillStyle": "hachure",
      "strokeWidth": 1,
      "strokeStyle": "solid",
      "roughness": 1,
      "opacity": 100,
      "angle": 0,
      "x": 856.8134235491026,
      "y": 792.6766050544613,
      "strokeColor": "#000000",
      "backgroundColor": "#15aabf",
      "width": 52.49254619759724,
      "height": 46.05478109789186,
      "seed": 1733161530,
      "groupIds": [
        "2J8J-se1cGY6PZ2Cr1Lzd"
      ],
      "strokeSharpness": "round",
      "boundElementIds": [],
      "startBinding": null,
      "endBinding": null,
      "points": [
        [
          0,
          0
        ],
        [
          -52.49254619759724,
          -46.05478109789186
        ]
      ],
      "lastCommittedPoint": null,
      "startArrowhead": null,
      "endArrowhead": null
    },
    {
      "type": "line",
      "version": 321,
      "versionNonce": 469090993,
      "isDeleted": false,
      "id": "T0LQEfLOrc6ge8KsBxGjr",
      "fillStyle": "hachure",
      "strokeWidth": 1,
      "strokeStyle": "solid",
      "roughness": 1,
      "opacity": 100,
      "angle": 0,
      "x": 874.1928132002726,
      "y": 791.3778767822001,
      "strokeColor": "#000000",
      "backgroundColor": "#15aabf",
      "width": 19.808507999093333,
      "height": 45.5595683979145,
      "seed": 1919739494,
      "groupIds": [
        "2J8J-se1cGY6PZ2Cr1Lzd"
      ],
      "strokeSharpness": "round",
      "boundElementIds": [],
      "startBinding": null,
      "endBinding": null,
      "points": [
        [
          0,
          0
        ],
        [
          19.808507999093333,
          -45.5595683979145
        ]
      ],
      "lastCommittedPoint": null,
      "startArrowhead": null,
      "endArrowhead": null
    },
    {
      "type": "line",
      "version": 325,
      "versionNonce": 423738591,
      "isDeleted": false,
      "id": "zEWVyBISEx6rPI8QpIhQ5",
      "fillStyle": "hachure",
      "strokeWidth": 1,
      "strokeStyle": "solid",
      "roughness": 1,
      "opacity": 100,
      "angle": 0,
      "x": 786.320328488019,
      "y": 845.6057441953142,
      "strokeColor": "#000000",
      "backgroundColor": "#15aabf",
      "width": 41.10265409811859,
      "height": 63.88243829707583,
      "seed": 1678220026,
      "groupIds": [
        "2J8J-se1cGY6PZ2Cr1Lzd"
      ],
      "strokeSharpness": "round",
      "boundElementIds": [],
      "startBinding": null,
      "endBinding": null,
      "points": [
        [
          0,
          0
        ],
        [
          -41.10265409811859,
          -63.88243829707583
        ]
      ],
      "lastCommittedPoint": null,
      "startArrowhead": null,
      "endArrowhead": null
    },
    {
      "type": "line",
      "version": 325,
      "versionNonce": 1651262609,
      "isDeleted": false,
      "id": "MZ5cqXu2UeObFswf6Q5E8",
      "fillStyle": "hachure",
      "strokeWidth": 1,
      "strokeStyle": "solid",
      "roughness": 1,
      "opacity": 100,
      "angle": 0,
      "x": 778.5349136006165,
      "y": 853.5730681647652,
      "strokeColor": "#000000",
      "backgroundColor": "#15aabf",
      "width": 47.045206497846564,
      "height": 30.207974698617242,
      "seed": 1980705190,
      "groupIds": [
        "2J8J-se1cGY6PZ2Cr1Lzd"
      ],
      "strokeSharpness": "round",
      "boundElementIds": [],
      "startBinding": null,
      "endBinding": null,
      "points": [
        [
          0,
          0
        ],
        [
          -47.045206497846564,
          -30.207974698617242
        ]
      ],
      "lastCommittedPoint": null,
      "startArrowhead": null,
      "endArrowhead": null
    },
    {
      "type": "line",
      "version": 331,
      "versionNonce": 2094319871,
      "isDeleted": false,
      "id": "gZkt9AST8HcWZD-6tzV1-",
      "fillStyle": "hachure",
      "strokeWidth": 1,
      "strokeStyle": "solid",
      "roughness": 1,
      "opacity": 100,
      "angle": 0,
      "x": 780.3673712192108,
      "y": 861.7429864729904,
      "strokeColor": "#000000",
      "backgroundColor": "#15aabf",
      "width": 51.99733349761986,
      "height": 4.456914299796019,
      "seed": 353250234,
      "groupIds": [
        "2J8J-se1cGY6PZ2Cr1Lzd"
      ],
      "strokeSharpness": "round",
      "boundElementIds": [],
      "startBinding": null,
      "endBinding": null,
      "points": [
        [
          0,
          0
        ],
        [
          -51.99733349761986,
          4.456914299796019
        ]
      ],
      "lastCommittedPoint": null,
      "startArrowhead": null,
      "endArrowhead": null
    },
    {
      "type": "line",
      "version": 329,
      "versionNonce": 2121763441,
      "isDeleted": false,
      "id": "mjnvD6ZJJx4JX2Hr5RaOs",
      "fillStyle": "hachure",
      "strokeWidth": 1,
      "strokeStyle": "solid",
      "roughness": 1,
      "opacity": 100,
      "angle": 0,
      "x": 784.8086667116859,
      "y": 869.8405911511995,
      "strokeColor": "#000000",
      "backgroundColor": "#15aabf",
      "width": 41.59786679809593,
      "height": 29.217549298662576,
      "seed": 721880294,
      "groupIds": [
        "2J8J-se1cGY6PZ2Cr1Lzd"
      ],
      "strokeSharpness": "round",
      "boundElementIds": [],
      "startBinding": null,
      "endBinding": null,
      "points": [
        [
          0,
          0
        ],
        [
          -41.59786679809593,
          29.217549298662576
        ]
      ],
      "lastCommittedPoint": null,
      "startArrowhead": null,
      "endArrowhead": null
    },
    {
      "type": "ellipse",
      "version": 712,
      "versionNonce": 1852920095,
      "isDeleted": false,
      "id": "mnNsOC9QPi-ySRpPT2_vw",
      "fillStyle": "hachure",
      "strokeWidth": 1,
      "strokeStyle": "solid",
      "roughness": 1,
      "opacity": 100,
      "angle": 4.748883824164155,
      "x": 954.6715181935599,
      "y": 729.7496918944787,
      "strokeColor": "#000000",
      "backgroundColor": "#15aabf",
      "width": 28.41562519201433,
      "height": 28.41562519201433,
      "seed": 813999226,
      "groupIds": [
        "2J8J-se1cGY6PZ2Cr1Lzd"
      ],
      "strokeSharpness": "sharp",
      "boundElementIds": []
    },
    {
      "type": "ellipse",
      "version": 707,
      "versionNonce": 1759450193,
      "isDeleted": false,
      "id": "KSRAprjUFJD3tMmy_icyv",
      "fillStyle": "hachure",
      "strokeWidth": 1,
      "strokeStyle": "solid",
      "roughness": 1,
      "opacity": 100,
      "angle": 4.748883824164155,
      "x": 1145.328407684828,
      "y": 869.8948859880634,
      "strokeColor": "#000000",
      "backgroundColor": "#15aabf",
      "width": 28.41562519201433,
      "height": 28.41562519201433,
      "seed": 48330790,
      "groupIds": [
        "2J8J-se1cGY6PZ2Cr1Lzd"
      ],
      "strokeSharpness": "sharp",
      "boundElementIds": []
    },
    {
      "type": "ellipse",
      "version": 731,
      "versionNonce": 1736955199,
      "isDeleted": false,
      "id": "UfIZpNqIuulfLDPpWz_3A",
      "fillStyle": "hachure",
      "strokeWidth": 1,
      "strokeStyle": "solid",
      "roughness": 1,
      "opacity": 100,
      "angle": 4.748883824164155,
      "x": 783.3279240013987,
      "y": 721.8262886948405,
      "strokeColor": "#000000",
      "backgroundColor": "#15aabf",
      "width": 28.41562519201433,
      "height": 28.41562519201433,
      "seed": 808322362,
      "groupIds": [
        "2J8J-se1cGY6PZ2Cr1Lzd"
      ],
      "strokeSharpness": "sharp",
      "boundElementIds": []
    },
    {
      "type": "ellipse",
      "version": 723,
      "versionNonce": 360342065,
      "isDeleted": false,
      "id": "8gkz61k2j0gul1cNd90V-",
      "fillStyle": "hachure",
      "strokeWidth": 1,
      "strokeStyle": "solid",
      "roughness": 1,
      "opacity": 100,
      "angle": 4.748883824164155,
      "x": 723.4071873041435,
      "y": 755.9959649932775,
      "strokeColor": "#000000",
      "backgroundColor": "#15aabf",
      "width": 28.41562519201433,
      "height": 28.41562519201433,
      "seed": 898335590,
      "groupIds": [
        "2J8J-se1cGY6PZ2Cr1Lzd"
      ],
      "strokeSharpness": "sharp",
      "boundElementIds": []
    },
    {
      "type": "ellipse",
      "version": 730,
      "versionNonce": 1601754463,
      "isDeleted": false,
      "id": "9QEtL44EBhwhl5Q4eMXFm",
      "fillStyle": "hachure",
      "strokeWidth": 1,
      "strokeStyle": "solid",
      "roughness": 1,
      "opacity": 100,
      "angle": 4.748883824164155,
      "x": 702.608253905094,
      "y": 805.5172349910097,
      "strokeColor": "#000000",
      "backgroundColor": "#15aabf",
      "width": 28.41562519201433,
      "height": 28.41562519201433,
      "seed": 1567444474,
      "groupIds": [
        "2J8J-se1cGY6PZ2Cr1Lzd"
      ],
      "strokeSharpness": "sharp",
      "boundElementIds": []
    },
    {
      "type": "ellipse",
      "version": 733,
      "versionNonce": 288420881,
      "isDeleted": false,
      "id": "PTJWLwmyfGjIl2SyG9Dhi",
      "fillStyle": "hachure",
      "strokeWidth": 1,
      "strokeStyle": "solid",
      "roughness": 1,
      "opacity": 100,
      "angle": 4.748883824164155,
      "x": 701.1226158051636,
      "y": 854.5432922887655,
      "strokeColor": "#000000",
      "backgroundColor": "#15aabf",
      "width": 28.41562519201433,
      "height": 28.41562519201433,
      "seed": 1968318118,
      "groupIds": [
        "2J8J-se1cGY6PZ2Cr1Lzd"
      ],
      "strokeSharpness": "sharp",
      "boundElementIds": []
    },
    {
      "type": "ellipse",
      "version": 718,
      "versionNonce": 227856767,
      "isDeleted": false,
      "id": "PK40N6nFaGXsUoK0LYWJm",
      "fillStyle": "hachure",
      "strokeWidth": 1,
      "strokeStyle": "solid",
      "roughness": 1,
      "opacity": 100,
      "angle": 4.748883824164155,
      "x": 718.4550603043699,
      "y": 896.1411590868615,
      "strokeColor": "#000000",
      "backgroundColor": "#15aabf",
      "width": 28.41562519201433,
      "height": 28.41562519201433,
      "seed": 1564835514,
      "groupIds": [
        "2J8J-se1cGY6PZ2Cr1Lzd"
      ],
      "strokeSharpness": "sharp",
      "boundElementIds": []
    },
    {
      "type": "ellipse",
      "version": 733,
      "versionNonce": 1610238449,
      "isDeleted": false,
      "id": "FZX7wOd1_-KoxHaycptWq",
      "fillStyle": "hachure",
      "strokeWidth": 1,
      "strokeStyle": "solid",
      "roughness": 1,
      "opacity": 100,
      "angle": 4.748883824164155,
      "x": 1027.6322664512877,
      "y": 782.0152656045866,
      "strokeColor": "#000000",
      "backgroundColor": "#15aabf",
      "width": 28.41562519201433,
      "height": 28.41562519201433,
      "seed": 585261542,
      "groupIds": [
        "2J8J-se1cGY6PZ2Cr1Lzd"
      ],
      "strokeSharpness": "sharp",
      "boundElementIds": []
    },
    {
      "type": "line",
      "version": 331,
      "versionNonce": 1797015967,
      "isDeleted": false,
      "id": "3lZwnmmFGK-bCKJeu5cly",
      "fillStyle": "hachure",
      "strokeWidth": 1,
      "strokeStyle": "solid",
      "roughness": 1,
      "opacity": 100,
      "angle": 0,
      "x": 972.1132686934595,
      "y": 829.676047637272,
      "strokeColor": "#000000",
      "backgroundColor": "#15aabf",
      "width": 57.65101182236112,
      "height": 26.78275352377403,
      "seed": 1012504442,
      "groupIds": [
        "2J8J-se1cGY6PZ2Cr1Lzd"
      ],
      "strokeSharpness": "round",
      "boundElementIds": [],
      "startBinding": null,
      "endBinding": null,
      "points": [
        [
          0,
          0
        ],
        [
          57.65101182236112,
          -26.78275352377403
        ]
      ],
      "lastCommittedPoint": null,
      "startArrowhead": null,
      "endArrowhead": null
    },
    {
      "type": "line",
      "version": 332,
      "versionNonce": 450749393,
      "isDeleted": false,
      "id": "VYaljoTWRp4d7rMtfM07a",
      "fillStyle": "hachure",
      "strokeWidth": 1,
      "strokeStyle": "solid",
      "roughness": 1,
      "opacity": 100,
      "angle": 0,
      "x": 704.2543990244523,
      "y": 858.9868146727714,
      "strokeColor": "#000000",
      "backgroundColor": "#15aabf",
      "width": 39.220845838204674,
      "height": 34.86297407840417,
      "seed": 21574950,
      "groupIds": [
        "2J8J-se1cGY6PZ2Cr1Lzd"
      ],
      "strokeSharpness": "round",
      "boundElementIds": [],
      "startBinding": null,
      "endBinding": null,
      "points": [
        [
          0,
          0
        ],
        [
          -39.220845838204674,
          -34.86297407840417
        ]
      ],
      "lastCommittedPoint": null,
      "startArrowhead": null,
      "endArrowhead": null
    },
    {
      "type": "line",
      "version": 325,
      "versionNonce": 1967111615,
      "isDeleted": false,
      "id": "SFWGvryOX1clJV_2x9pm3",
      "fillStyle": "hachure",
      "strokeWidth": 1,
      "strokeStyle": "solid",
      "roughness": 1,
      "opacity": 100,
      "angle": 0,
      "x": 703.1992197170437,
      "y": 874.5061380181768,
      "strokeColor": "#000000",
      "backgroundColor": "#15aabf",
      "width": 43.5787175980052,
      "height": 15.79728512927689,
      "seed": 2062325818,
      "groupIds": [
        "2J8J-se1cGY6PZ2Cr1Lzd"
      ],
      "strokeSharpness": "round",
      "boundElementIds": [],
      "startBinding": null,
      "endBinding": null,
      "points": [
        [
          0,
          0
        ],
        [
          -43.5787175980052,
          15.79728512927689
        ]
      ],
      "lastCommittedPoint": null,
      "startArrowhead": null,
      "endArrowhead": null
    },
    {
      "type": "ellipse",
      "version": 748,
      "versionNonce": 1307787697,
      "isDeleted": false,
      "id": "_2qAUL7SIsrrWMc2iGADL",
      "fillStyle": "hachure",
      "strokeWidth": 1,
      "strokeStyle": "solid",
      "roughness": 1,
      "opacity": 100,
      "angle": 4.748883824164155,
      "x": 637.315245464989,
      "y": 803.9127065404878,
      "strokeColor": "#000000",
      "backgroundColor": "#15aabf",
      "width": 28.41562519201433,
      "height": 28.41562519201433,
      "seed": 1777573990,
      "groupIds": [
        "2J8J-se1cGY6PZ2Cr1Lzd"
      ],
      "strokeSharpness": "sharp",
      "boundElementIds": []
    },
    {
      "type": "ellipse",
      "version": 768,
      "versionNonce": 790605279,
      "isDeleted": false,
      "id": "9PmJ0GcIiCoznUpMrFCIo",
      "fillStyle": "hachure",
      "strokeWidth": 1,
      "strokeStyle": "solid",
      "roughness": 1,
      "opacity": 100,
      "angle": 4.748883824164155,
      "x": 632.9573737051878,
      "y": 881.2649302769478,
      "strokeColor": "#000000",
      "backgroundColor": "#15aabf",
      "width": 28.41562519201433,
      "height": 28.41562519201433,
      "seed": 417431802,
      "groupIds": [
        "2J8J-se1cGY6PZ2Cr1Lzd"
      ],
      "strokeSharpness": "sharp",
      "boundElementIds": []
    },
    {
      "type": "line",
      "version": 529,
      "versionNonce": 375514001,
      "isDeleted": false,
      "id": "j1_vXG0vUkaDMLcJEWHj-",
      "fillStyle": "hachure",
      "strokeWidth": 4,
      "strokeStyle": "solid",
      "roughness": 0,
      "opacity": 100,
      "angle": 0,
      "x": 1131.421964371331,
      "y": 781.2387266561884,
      "strokeColor": "#1864ab",
      "backgroundColor": "transparent",
      "width": 145.6801879558064,
      "height": 328.38171822762143,
      "seed": 1963014545,
      "groupIds": [
        "2J8J-se1cGY6PZ2Cr1Lzd"
      ],
      "strokeSharpness": "round",
      "boundElementIds": [],
      "startBinding": null,
      "endBinding": null,
      "points": [
        [
          -1.3945652817122653,
          0
        ],
        [
          82.5475362552132,
          127.46673635154431
        ],
        [
          82.72706295580639,
          213.48961729488065
        ],
        [
          21.355669372179623,
          276.3024301024596
        ],
        [
          -62.953125,
          328.38171822762143
        ]
      ],
      "lastCommittedPoint": null,
      "startArrowhead": null,
      "endArrowhead": null
    },
    {
      "type": "line",
      "version": 596,
      "versionNonce": 1674353151,
      "isDeleted": false,
      "id": "SO3W0zZKMD962keDNs4oZ",
      "fillStyle": "hachure",
      "strokeWidth": 4,
      "strokeStyle": "solid",
      "roughness": 0,
      "opacity": 100,
      "angle": 0.19057814248270244,
      "x": 861.2866627779247,
      "y": 716.3341215053158,
      "strokeColor": "#1864ab",
      "backgroundColor": "transparent",
      "width": 284.57586765725745,
      "height": 120.67764400168645,
      "seed": 1345595025,
      "groupIds": [
        "2J8J-se1cGY6PZ2Cr1Lzd"
      ],
      "strokeSharpness": "round",
      "boundElementIds": [],
      "startBinding": null,
      "endBinding": null,
      "points": [
        [
          0,
          -3.6019147990532736
        ],
        [
          192.61377696537554,
          -78.86328125
        ],
        [
          284.57586765725745,
          41.81436275168644
        ]
      ],
      "lastCommittedPoint": null,
      "startArrowhead": null,
      "endArrowhead": null
    },
    {
      "type": "line",
      "version": 780,
      "versionNonce": 6375793,
      "isDeleted": false,
      "id": "DeZKVPXYMXtwk_fw3Fi10",
      "fillStyle": "hachure",
      "strokeWidth": 4,
      "strokeStyle": "solid",
      "roughness": 0,
      "opacity": 100,
      "angle": 0,
      "x": 875.3368926136575,
      "y": 1181.5452489263294,
      "strokeColor": "#1864ab",
      "backgroundColor": "transparent",
      "width": 192.25217646283744,
      "height": 83.21284966655269,
      "seed": 1112626673,
      "groupIds": [
        "2J8J-se1cGY6PZ2Cr1Lzd"
      ],
      "strokeSharpness": "round",
      "boundElementIds": [],
      "startBinding": null,
      "endBinding": null,
      "points": [
        [
          0,
          -3.444378974219785
        ],
        [
          39.67913143315056,
          7.7987871665526765
        ],
        [
          120.84166897190988,
          5.498709743191731
        ],
        [
          183.51784679843752,
          -27.872916016819904
        ],
        [
          192.25217646283744,
          -75.4140625
        ]
      ],
      "lastCommittedPoint": null,
      "startArrowhead": null,
      "endArrowhead": null
    },
    {
      "type": "line",
      "version": 782,
      "versionNonce": 675742239,
      "isDeleted": false,
      "id": "0NtsA1wNiRtqJ8ncAdlDZ",
      "fillStyle": "hachure",
      "strokeWidth": 4,
      "strokeStyle": "solid",
      "roughness": 0,
      "opacity": 100,
      "angle": 6.01534236309134,
      "x": 864.8752781219321,
      "y": 707.2916807521119,
      "strokeColor": "#1864ab",
      "backgroundColor": "transparent",
      "width": 188.62871575699162,
      "height": 83.65646265420256,
      "seed": 2076058495,
      "groupIds": [
        "2J8J-se1cGY6PZ2Cr1Lzd"
      ],
      "strokeSharpness": "round",
      "boundElementIds": [],
      "startBinding": null,
      "endBinding": null,
      "points": [
        [
          -9.027534243008363,
          -2.6563430305168336
        ],
        [
          -9.027534243008363,
          -2.6563430305168336
        ],
        [
          -60.28533743784305,
          -58.16015625
        ],
        [
          -150.83830452189608,
          -53.17603385934592
        ],
        [
          -197.65625,
          25.496306404202546
        ]
      ],
      "lastCommittedPoint": null,
      "startArrowhead": null,
      "endArrowhead": null
    },
    {
      "type": "line",
      "version": 741,
      "versionNonce": 624489297,
      "isDeleted": false,
      "id": "VNNwpl5zw4rGjJXkiLXZC",
      "fillStyle": "hachure",
      "strokeWidth": 4,
      "strokeStyle": "solid",
      "roughness": 0,
      "opacity": 100,
      "angle": 0,
      "x": 596.5859375,
      "y": 877.2614136267077,
      "strokeColor": "#1864ab",
      "backgroundColor": "transparent",
      "width": 145.99340701958621,
      "height": 136.64398371684842,
      "seed": 1425694417,
      "groupIds": [
        "2J8J-se1cGY6PZ2Cr1Lzd"
      ],
      "strokeSharpness": "round",
      "boundElementIds": [],
      "startBinding": null,
      "endBinding": null,
      "points": [
        [
          -2.850096038182978,
          -6.539610033151607
        ],
        [
          -62.40234375,
          -123.81746374293338
        ],
        [
          13.358553292081837,
          -143.18359375
        ],
        [
          83.59106326958621,
          -123.94421031083337
        ]
      ],
      "lastCommittedPoint": null,
      "startArrowhead": null,
      "endArrowhead": null
    },
    {
      "type": "line",
      "version": 653,
      "versionNonce": 494888511,
      "isDeleted": false,
      "id": "MohwofOyDp7q9vOjPlIBK",
      "fillStyle": "hachure",
      "strokeWidth": 4,
      "strokeStyle": "solid",
      "roughness": 0,
      "opacity": 100,
      "angle": 5.9652990560877655,
      "x": 607.8064458869391,
      "y": 877.2045177576163,
      "strokeColor": "#1864ab",
      "backgroundColor": "transparent",
      "width": 57.598859430064785,
      "height": 86.4113365859104,
      "seed": 1538858271,
      "groupIds": [
        "2J8J-se1cGY6PZ2Cr1Lzd"
      ],
      "strokeSharpness": "round",
      "boundElementIds": [],
      "startBinding": null,
      "endBinding": null,
      "points": [
        [
          -2.756609319935213,
          0
        ],
        [
          -60.35546875,
          0.13047440813230654
        ],
        [
          -53.369496154573085,
          71.60435518300982
        ],
        [
          -9.820866560241521,
          86.4113365859104
        ]
      ],
      "lastCommittedPoint": null,
      "startArrowhead": null,
      "endArrowhead": null
    },
    {
      "type": "line",
      "version": 831,
      "versionNonce": 155214129,
      "isDeleted": false,
      "id": "lVqRRDD8T50g0wmn375rp",
      "fillStyle": "hachure",
      "strokeWidth": 4,
      "strokeStyle": "solid",
      "roughness": 0,
      "opacity": 100,
      "angle": 0,
      "x": 610.9585583724063,
      "y": 954.1508679935857,
      "strokeColor": "#1864ab",
      "backgroundColor": "transparent",
      "width": 79.02648508562181,
      "height": 108.27511954865255,
      "seed": 110206449,
      "groupIds": [
        "2J8J-se1cGY6PZ2Cr1Lzd"
      ],
      "strokeSharpness": "round",
      "boundElementIds": [],
      "startBinding": null,
      "endBinding": null,
      "points": [
        [
          -2.0392236442210803,
          0
        ],
        [
          -44.6484375,
          79.83950908775742
        ],
        [
          34.37804758562182,
          108.27511954865255
        ]
      ],
      "lastCommittedPoint": null,
      "startArrowhead": null,
      "endArrowhead": null
    },
    {
      "type": "line",
      "version": 584,
      "versionNonce": 1918256735,
      "isDeleted": false,
      "id": "wDCWMnoH2KlBNKj20SoRk",
      "fillStyle": "hachure",
      "strokeWidth": 4,
      "strokeStyle": "solid",
      "roughness": 0,
      "opacity": 100,
      "angle": 0.753609140150238,
      "x": 627.5741744728945,
      "y": 1123.5753557934638,
      "strokeColor": "#1864ab",
      "backgroundColor": "transparent",
      "width": 246.2633991453356,
      "height": 95.43682012605001,
      "seed": 45743135,
      "groupIds": [
        "2J8J-se1cGY6PZ2Cr1Lzd"
      ],
      "strokeSharpness": "round",
      "boundElementIds": [],
      "startBinding": null,
      "endBinding": null,
      "points": [
        [
          0,
          30.98532182090511
        ],
        [
          79.51820236404481,
          52.20244512605
        ],
        [
          246.2633991453356,
          -43.234375
        ]
      ],
      "lastCommittedPoint": null,
      "startArrowhead": null,
      "endArrowhead": null
    },
    {
      "type": "text",
      "version": 213,
      "versionNonce": 970920721,
      "isDeleted": false,
      "id": "qNXwQ2PgFs_Ad5d__N34x",
      "fillStyle": "hachure",
      "strokeWidth": 4,
      "strokeStyle": "solid",
      "roughness": 0,
      "opacity": 100,
      "angle": 0,
      "x": 912.703125,
      "y": 1059.568240170188,
      "strokeColor": "#1864ab",
      "backgroundColor": "transparent",
      "width": 186.12454044117595,
      "height": 59.42004107981205,
      "seed": 482540479,
      "groupIds": [
        "2J8J-se1cGY6PZ2Cr1Lzd"
      ],
      "strokeSharpness": "sharp",
      "boundElementIds": [],
      "fontSize": 24.46707573874614,
      "fontFamily": 3,
      "text": "Deterministic\nNetwork",
      "baseline": 53.42004107981205,
      "textAlign": "center",
      "verticalAlign": "top"
    },
    {
      "type": "line",
      "version": 451,
      "versionNonce": 2095720063,
      "isDeleted": false,
      "id": "u0G8B5H9j_eLt4T5WrDFl",
      "fillStyle": "hachure",
      "strokeWidth": 4,
      "strokeStyle": "solid",
      "roughness": 0,
      "opacity": 100,
      "angle": 0,
      "x": 266.3984375,
      "y": 591.54296875,
      "strokeColor": "#0b7285",
      "backgroundColor": "transparent",
      "width": 1066.05859375,
      "height": 2.9921875,
      "seed": 1491749983,
      "groupIds": [],
      "strokeSharpness": "round",
      "boundElementIds": [],
      "startBinding": null,
      "endBinding": null,
      "points": [
        [
          0,
          0
        ],
        [
          1066.05859375,
          2.9921875
        ]
      ],
      "lastCommittedPoint": null,
      "startArrowhead": null,
      "endArrowhead": null
    },
    {
      "type": "rectangle",
      "version": 147,
      "versionNonce": 221101905,
      "isDeleted": false,
      "id": "TsahlNbLp3Wc2LwSAoDb3",
      "fillStyle": "hachure",
      "strokeWidth": 4,
      "strokeStyle": "dotted",
      "roughness": 0,
      "opacity": 100,
      "angle": 0,
      "x": 503.80859375,
      "y": 428.03125,
      "strokeColor": "#5c940d",
      "backgroundColor": "transparent",
      "width": 424.84765625,
      "height": 60.093749999999986,
      "seed": 141378879,
      "groupIds": [],
      "strokeSharpness": "sharp",
      "boundElementIds": []
    },
    {
      "type": "rectangle",
      "version": 203,
      "versionNonce": 1990571345,
      "isDeleted": false,
      "id": "4XSNlBTvIlxVK223VzAoa",
      "fillStyle": "hachure",
      "strokeWidth": 4,
      "strokeStyle": "dotted",
      "roughness": 0,
      "opacity": 100,
      "angle": 0,
      "x": 977.400390625,
      "y": 429.376953125,
      "strokeColor": "#087f5b",
      "backgroundColor": "transparent",
      "width": 303.57031249999994,
      "height": 62.35546875000001,
      "seed": 1430474417,
      "groupIds": [],
      "strokeSharpness": "sharp",
      "boundElementIds": [
        "-_zdpVMXMkLuGEWm_d81P"
      ]
    },
    {
      "type": "text",
      "version": 43,
      "versionNonce": 895140543,
      "isDeleted": false,
      "id": "4pNWB-KELevlswVAlJyae",
      "fillStyle": "hachure",
      "strokeWidth": 4,
      "strokeStyle": "solid",
      "roughness": 0,
      "opacity": 100,
      "angle": 0,
      "x": 518.708984375,
      "y": 440.349609375,
      "strokeColor": "#5c940d",
      "backgroundColor": "transparent",
      "width": 394,
      "height": 34,
      "seed": 1348496337,
      "groupIds": [],
      "strokeSharpness": "sharp",
      "boundElementIds": [
        "xtHJbPPXGo-r0ji9FMR-i"
      ],
      "fontSize": 28,
      "fontFamily": 3,
      "text": "Bandwidth Spigots/Inlets",
      "baseline": 27,
      "textAlign": "center",
      "verticalAlign": "middle"
    },
    {
      "type": "text",
      "version": 59,
      "versionNonce": 1106121585,
      "isDeleted": false,
      "id": "rk6Xs7-QIPAx755kRK_m8",
      "fillStyle": "hachure",
      "strokeWidth": 4,
      "strokeStyle": "solid",
      "roughness": 0,
      "opacity": 100,
      "angle": 0,
      "x": 991.5,
      "y": 442.5,
      "strokeColor": "#087f5b",
      "backgroundColor": "transparent",
      "width": 279,
      "height": 34,
      "seed": 211356273,
      "groupIds": [],
      "strokeSharpness": "sharp",
      "boundElementIds": [],
      "fontSize": 28,
      "fontFamily": 3,
      "text": "Bandwidth Spigots",
      "baseline": 27,
      "textAlign": "center",
      "verticalAlign": "top"
    },
    {
      "type": "arrow",
      "version": 89,
      "versionNonce": 687804113,
      "isDeleted": false,
      "id": "xtHJbPPXGo-r0ji9FMR-i",
      "fillStyle": "hachure",
      "strokeWidth": 4,
      "strokeStyle": "solid",
      "roughness": 0,
      "opacity": 100,
      "angle": 0,
      "x": 714.6484375,
      "y": 488.42578125,
      "strokeColor": "#5c940d",
      "backgroundColor": "transparent",
      "width": 0.05078125,
      "height": 98.40625,
      "seed": 1775179167,
      "groupIds": [],
      "strokeSharpness": "sharp",
      "boundElementIds": [],
      "startBinding": {
        "elementId": "4pNWB-KELevlswVAlJyae",
        "focus": 0.005464646625080973,
        "gap": 14.076171875
      },
      "endBinding": null,
      "points": [
        [
          0,
          0
        ],
        [
          0.05078125,
          98.40625
        ]
      ],
      "lastCommittedPoint": null,
      "startArrowhead": "arrow",
      "endArrowhead": "arrow"
    },
    {
      "type": "arrow",
      "version": 562,
      "versionNonce": 767300593,
      "isDeleted": false,
      "id": "-_zdpVMXMkLuGEWm_d81P",
      "fillStyle": "hachure",
      "strokeWidth": 4,
      "strokeStyle": "solid",
      "roughness": 0,
      "opacity": 100,
      "angle": 0,
      "x": 1133.974609375,
      "y": 493.796875,
      "strokeColor": "#087f5b",
      "backgroundColor": "transparent",
      "width": 0.05078125,
      "height": 98.40625,
      "seed": 155731807,
      "groupIds": [],
      "strokeSharpness": "sharp",
      "boundElementIds": [],
      "startBinding": {
        "elementId": "4XSNlBTvIlxVK223VzAoa",
        "focus": -0.03143523825028187,
        "gap": 2.064453125
      },
      "endBinding": null,
      "points": [
        [
          0,
          0
        ],
        [
          0.05078125,
          98.40625
        ]
      ],
      "lastCommittedPoint": null,
      "startArrowhead": "arrow",
      "endArrowhead": null
    },
    {
      "type": "text",
      "version": 43,
      "versionNonce": 1138507423,
      "isDeleted": false,
      "id": "VsMfGjaJ9Ei8oDVzsCCWJ",
      "fillStyle": "hachure",
      "strokeWidth": 4,
      "strokeStyle": "dotted",
      "roughness": 0,
      "opacity": 100,
      "angle": 0,
      "x": 250.140625,
      "y": 421.6484375,
      "strokeColor": "#c92a2a",
      "backgroundColor": "transparent",
      "width": 230,
      "height": 68,
      "seed": 1855749457,
      "groupIds": [],
      "strokeSharpness": "sharp",
      "boundElementIds": [],
      "fontSize": 28,
      "fontFamily": 3,
      "text": "Permissioned &\nTrustless",
      "baseline": 61,
      "textAlign": "center",
      "verticalAlign": "top"
    },
    {
      "type": "rectangle",
      "version": 150,
      "versionNonce": 1566217201,
      "isDeleted": false,
      "id": "vMMwoeJ4sujfJaJsgzB3-",
      "fillStyle": "hachure",
      "strokeWidth": 2,
      "strokeStyle": "solid",
      "roughness": 0,
      "opacity": 100,
      "angle": 0,
      "x": 463.890625,
      "y": 289.4296875,
      "strokeColor": "#364fc7",
      "backgroundColor": "transparent",
      "width": 308.61328124999994,
      "height": 74.10546875,
      "seed": 135363231,
      "groupIds": [
        "HBnMrMlvtFpbQtAajc6vo"
      ],
      "strokeSharpness": "round",
      "boundElementIds": []
    },
    {
      "type": "line",
      "version": 62,
      "versionNonce": 708681631,
      "isDeleted": false,
      "id": "ivVb4IzaKZQifuE1CjPcm",
      "fillStyle": "hachure",
      "strokeWidth": 2,
      "strokeStyle": "solid",
      "roughness": 0,
      "opacity": 100,
      "angle": 0,
      "x": 639.92578125,
      "y": 424.99609375,
      "strokeColor": "#364fc7",
      "backgroundColor": "transparent",
      "width": 30.25390625,
      "height": 57.34375,
      "seed": 2084115135,
      "groupIds": [
        "HBnMrMlvtFpbQtAajc6vo"
      ],
      "strokeSharpness": "sharp",
      "boundElementIds": [],
      "startBinding": null,
      "endBinding": null,
      "points": [
        [
          0,
          0
        ],
        [
          -30.25390625,
          -57.34375
        ]
      ],
      "lastCommittedPoint": null,
      "startArrowhead": null,
      "endArrowhead": null
    },
    {
      "type": "text",
      "version": 360,
      "versionNonce": 1503981009,
      "isDeleted": false,
      "id": "eiH9swWVp4ssGebJZyrwh",
      "fillStyle": "hachure",
      "strokeWidth": 2,
      "strokeStyle": "solid",
      "roughness": 0,
      "opacity": 100,
      "angle": 0,
      "x": 475.765625,
      "y": 290.5136494252873,
      "strokeColor": "#364fc7",
      "backgroundColor": "transparent",
      "width": 291,
      "height": 66,
      "seed": 1056395519,
      "groupIds": [
        "HBnMrMlvtFpbQtAajc6vo"
      ],
      "strokeSharpness": "round",
      "boundElementIds": [],
      "fontSize": 27.638234446899748,
      "fontFamily": 3,
      "text": "Decentralized DApp\nFog",
      "baseline": 60,
      "textAlign": "left",
      "verticalAlign": "top"
    },
    {
      "type": "text",
      "version": 153,
      "versionNonce": 835081151,
      "isDeleted": false,
      "id": "cmUJj6kYxW3rAvoS46bwN",
      "fillStyle": "hachure",
      "strokeWidth": 2,
      "strokeStyle": "solid",
      "roughness": 0,
      "opacity": 100,
      "angle": 0,
      "x": 556.55078125,
      "y": 332.71700330284557,
      "strokeColor": "#364fc7",
      "backgroundColor": "transparent",
      "width": 146.52734375,
      "height": 20.25174669715447,
      "seed": 1186143487,
      "groupIds": [
        "HBnMrMlvtFpbQtAajc6vo"
      ],
      "strokeSharpness": "round",
      "boundElementIds": [],
      "fontSize": 16.677909044715452,
      "fontFamily": 3,
      "text": "(e.g. iMynCoin)",
      "baseline": 16.25174669715447,
      "textAlign": "center",
      "verticalAlign": "top"
    },
    {
      "type": "text",
      "version": 82,
      "versionNonce": 1900246623,
      "isDeleted": false,
      "id": "--WPD3F5rYhSG7yotDB78",
      "fillStyle": "hachure",
      "strokeWidth": 2,
      "strokeStyle": "solid",
      "roughness": 0,
      "opacity": 100,
      "angle": 0,
      "x": 211.25,
      "y": 288.73828125,
      "strokeColor": "#364fc7",
      "backgroundColor": "transparent",
      "width": 230,
      "height": 68,
      "seed": 1726179409,
      "groupIds": [],
      "strokeSharpness": "round",
      "boundElementIds": [],
      "fontSize": 28,
      "fontFamily": 3,
      "text": "Application\nInfrastructure",
      "baseline": 61,
      "textAlign": "center",
      "verticalAlign": "top"
    },
    {
      "type": "rectangle",
      "version": 437,
      "versionNonce": 1111205329,
      "isDeleted": false,
      "id": "NQhXo2VEZ6Q5I8z1dRJUd",
      "fillStyle": "hachure",
      "strokeWidth": 2,
      "strokeStyle": "solid",
      "roughness": 0,
      "opacity": 100,
      "angle": 0,
      "x": 888.693359375,
      "y": 289.216796875,
      "strokeColor": "#364fc7",
      "backgroundColor": "transparent",
      "width": 308.61328124999994,
      "height": 74.10546875,
      "seed": 1651404177,
      "groupIds": [
        "dAnpg4gJr300cW5qCMJHW"
      ],
      "strokeSharpness": "round",
      "boundElementIds": []
    },
    {
      "type": "line",
      "version": 349,
      "versionNonce": 1293360063,
      "isDeleted": false,
      "id": "Pat77mDiZNAUygVh0ntaO",
      "fillStyle": "hachure",
      "strokeWidth": 2,
      "strokeStyle": "solid",
      "roughness": 0,
      "opacity": 100,
      "angle": 0,
      "x": 1064.728515625,
      "y": 424.783203125,
      "strokeColor": "#364fc7",
      "backgroundColor": "transparent",
      "width": 30.25390625,
      "height": 57.34375,
      "seed": 338014207,
      "groupIds": [
        "dAnpg4gJr300cW5qCMJHW"
      ],
      "strokeSharpness": "sharp",
      "boundElementIds": [],
      "startBinding": null,
      "endBinding": null,
      "points": [
        [
          0,
          0
        ],
        [
          -30.25390625,
          -57.34375
        ]
      ],
      "lastCommittedPoint": null,
      "startArrowhead": null,
      "endArrowhead": null
    },
    {
      "type": "text",
      "version": 705,
      "versionNonce": 2083967967,
      "isDeleted": false,
      "id": "GTdYWS1pcRefP531Ah5_D",
      "fillStyle": "hachure",
      "strokeWidth": 2,
      "strokeStyle": "solid",
      "roughness": 0,
      "opacity": 100,
      "angle": 0,
      "x": 939.568359375,
      "y": 290.3007588002873,
      "strokeColor": "#364fc7",
      "backgroundColor": "transparent",
      "width": 210,
      "height": 33,
      "seed": 1850512241,
      "groupIds": [
        "dAnpg4gJr300cW5qCMJHW"
      ],
      "strokeSharpness": "round",
      "boundElementIds": [],
      "fontSize": 27.638234446899748,
      "fontFamily": 3,
      "text": "Fog Streaming",
      "baseline": 27,
      "textAlign": "left",
      "verticalAlign": "top"
    },
    {
      "type": "text",
      "version": 512,
      "versionNonce": 402807697,
      "isDeleted": false,
      "id": "HZWaJ8wi0-yCSaiaKdyHo",
      "fillStyle": "hachure",
      "strokeWidth": 2,
      "strokeStyle": "solid",
      "roughness": 0,
      "opacity": 100,
      "angle": 0,
      "x": 899.1171875,
      "y": 332.50411267784557,
      "strokeColor": "#364fc7",
      "backgroundColor": "transparent",
      "width": 293,
      "height": 20,
      "seed": 1494046751,
      "groupIds": [
        "dAnpg4gJr300cW5qCMJHW"
      ],
      "strokeSharpness": "round",
      "boundElementIds": [],
      "fontSize": 16.677909044715452,
      "fontFamily": 3,
      "text": "(e.g. Secure Playback Devices)",
      "baseline": 16,
      "textAlign": "center",
      "verticalAlign": "top"
    },
    {
      "type": "ellipse",
      "version": 160,
      "versionNonce": 2133275601,
      "isDeleted": false,
      "id": "9E4Lt-C4euZpVg9iP5lKa",
      "fillStyle": "solid",
      "strokeWidth": 4,
      "strokeStyle": "solid",
      "roughness": 0,
      "opacity": 100,
      "angle": 0,
      "x": 1218.5390625,
      "y": 321.0625,
      "strokeColor": "#364fc7",
      "backgroundColor": "#364fc7",
      "width": 11.79296875,
      "height": 11.09765625,
      "seed": 1731379569,
      "groupIds": [],
      "strokeSharpness": "round",
      "boundElementIds": []
    },
    {
      "type": "ellipse",
      "version": 406,
      "versionNonce": 2037678463,
      "isDeleted": false,
      "id": "BMDQTaultySOzmhcAfrQl",
      "fillStyle": "solid",
      "strokeWidth": 4,
      "strokeStyle": "solid",
      "roughness": 0,
      "opacity": 100,
      "angle": 0,
      "x": 1244.103515625,
      "y": 321.451171875,
      "strokeColor": "#364fc7",
      "backgroundColor": "#364fc7",
      "width": 11.79296875,
      "height": 11.09765625,
      "seed": 541800305,
      "groupIds": [],
      "strokeSharpness": "round",
      "boundElementIds": []
    },
    {
      "type": "ellipse",
      "version": 625,
      "versionNonce": 1049855295,
      "isDeleted": false,
      "id": "vRW8uI2yKTNlGa6-D8gs5",
      "fillStyle": "solid",
      "strokeWidth": 4,
      "strokeStyle": "solid",
      "roughness": 0,
      "opacity": 100,
      "angle": 0,
      "x": 1269.103515625,
      "y": 322.451171875,
      "strokeColor": "#364fc7",
      "backgroundColor": "#364fc7",
      "width": 11.79296875,
      "height": 11.09765625,
      "seed": 268538385,
      "groupIds": [],
      "strokeSharpness": "round",
      "boundElementIds": []
    },
    {
      "type": "text",
      "version": 128,
      "versionNonce": 873461183,
      "isDeleted": false,
      "id": "tTm1CLS-pkRaphOI9DM19",
      "fillStyle": "solid",
      "strokeWidth": 4,
      "strokeStyle": "solid",
      "roughness": 0,
      "opacity": 100,
      "angle": 0,
      "x": 1302.97265625,
      "y": 309.38671875,
      "strokeColor": "#364fc7",
      "backgroundColor": "#364fc7",
      "width": 66,
      "height": 34,
      "seed": 2089980337,
      "groupIds": [],
      "strokeSharpness": "round",
      "boundElementIds": [],
      "fontSize": 28,
      "fontFamily": 3,
      "text": "etc.",
      "baseline": 27,
      "textAlign": "center",
      "verticalAlign": "top"
    },
    {
      "id": "OX5dYJv5aL8NOLmvtHK20",
      "type": "ellipse",
      "x": 503.884765625,
      "y": 183.076171875,
      "width": 132.53515625,
      "height": 80.84765625,
      "angle": 0,
      "strokeColor": "#c92a2a",
      "backgroundColor": "#868e96",
      "fillStyle": "hachure",
      "strokeWidth": 2,
      "strokeStyle": "solid",
      "roughness": 0,
      "opacity": 100,
      "groupIds": [],
      "strokeSharpness": "round",
      "seed": 275800453,
      "version": 39,
      "versionNonce": 240273829,
      "isDeleted": false,
      "boundElementIds": null
    },
    {
      "id": "K5UgcVsi6kCwcXUkU5l9o",
      "type": "text",
      "x": 514.65234375,
      "y": 198.5,
      "width": 111,
      "height": 50,
      "angle": 0,
      "strokeColor": "#c92a2a",
      "backgroundColor": "#868e96",
      "fillStyle": "hachure",
      "strokeWidth": 2,
      "strokeStyle": "solid",
      "roughness": 0,
      "opacity": 100,
      "groupIds": [],
      "strokeSharpness": "round",
      "seed": 2041524683,
      "version": 20,
      "versionNonce": 1529756357,
      "isDeleted": false,
      "boundElementIds": null,
      "text": "Composable\nDApps",
      "fontSize": 20,
      "fontFamily": 1,
      "textAlign": "center",
      "verticalAlign": "middle",
      "baseline": 43
    },
    {
      "id": "BstOMphPAdZS6llwxKJlt",
      "type": "ellipse",
      "x": 902.16015625,
      "y": 180.8828125,
      "width": 151.32421874999997,
      "height": 80.84765625,
      "angle": 0,
      "strokeColor": "#c92a2a",
      "backgroundColor": "#868e96",
      "fillStyle": "hachure",
      "strokeWidth": 2,
      "strokeStyle": "solid",
      "roughness": 0,
      "opacity": 100,
      "groupIds": [],
      "strokeSharpness": "round",
      "seed": 1486359941,
      "version": 484,
      "versionNonce": 331140389,
      "isDeleted": false,
      "boundElementIds": null
    },
    {
      "id": "3We3X8MxzqJqVqRRdOPgK",
      "type": "text",
      "x": 920.427734375,
      "y": 195.306640625,
      "width": 120,
      "height": 50,
      "angle": 0,
      "strokeColor": "#c92a2a",
      "backgroundColor": "#868e96",
      "fillStyle": "hachure",
      "strokeWidth": 2,
      "strokeStyle": "solid",
      "roughness": 0,
      "opacity": 100,
      "groupIds": [],
      "strokeSharpness": "round",
      "seed": 652032331,
      "version": 486,
      "versionNonce": 75080203,
      "isDeleted": false,
      "boundElementIds": null,
      "text": "Streaming/\nGaming Apps",
      "fontSize": 20,
      "fontFamily": 1,
      "textAlign": "center",
      "verticalAlign": "top",
      "baseline": 43
    },
    {
      "id": "J7vrcfSuB29fGQSOSwDn9",
      "type": "text",
      "x": 238.634765625,
      "y": 204.052734375,
      "width": 179.14750000000006,
      "height": 39.98828124999999,
      "angle": 0,
      "strokeColor": "#c92a2a",
      "backgroundColor": "#868e96",
      "fillStyle": "hachure",
      "strokeWidth": 2,
      "strokeStyle": "solid",
      "roughness": 0,
      "opacity": 100,
      "groupIds": [],
      "strokeSharpness": "round",
      "seed": 1282327691,
      "version": 111,
      "versionNonce": 1712233285,
      "isDeleted": false,
      "boundElementIds": null,
      "text": "Applications",
      "fontSize": 31.990624999999998,
      "fontFamily": 1,
      "textAlign": "left",
      "verticalAlign": "top",
      "baseline": 27.988281249999993
    },
    {
      "type": "ellipse",
      "version": 532,
      "versionNonce": 97829989,
      "isDeleted": false,
      "id": "GOAl3xfVzxv06ESSqDX58",
      "fillStyle": "solid",
      "strokeWidth": 4,
      "strokeStyle": "solid",
      "roughness": 0,
      "opacity": 100,
      "angle": 0,
      "x": 1096.2109375,
      "y": 219.982421875,
      "strokeColor": "#c92a2a",
      "backgroundColor": "#c92a2a",
      "width": 11.79296875,
      "height": 11.09765625,
      "seed": 1009534309,
      "groupIds": [],
      "strokeSharpness": "round",
      "boundElementIds": []
    },
    {
      "type": "ellipse",
      "version": 778,
      "versionNonce": 34857067,
      "isDeleted": false,
      "id": "BhGfrtfvZc_gflYQZCDIn",
      "fillStyle": "solid",
      "strokeWidth": 4,
      "strokeStyle": "solid",
      "roughness": 0,
      "opacity": 100,
      "angle": 0,
      "x": 1121.775390625,
      "y": 220.37109375,
      "strokeColor": "#c92a2a",
      "backgroundColor": "#c92a2a",
      "width": 11.79296875,
      "height": 11.09765625,
      "seed": 531689323,
      "groupIds": [],
      "strokeSharpness": "round",
      "boundElementIds": []
    },
    {
      "type": "ellipse",
      "version": 997,
      "versionNonce": 1105784773,
      "isDeleted": false,
      "id": "3GtqiKqoTGTexi9-HG7U5",
      "fillStyle": "solid",
      "strokeWidth": 4,
      "strokeStyle": "solid",
      "roughness": 0,
      "opacity": 100,
      "angle": 0,
      "x": 1146.775390625,
      "y": 221.37109375,
      "strokeColor": "#c92a2a",
      "backgroundColor": "#c92a2a",
      "width": 11.79296875,
      "height": 11.09765625,
      "seed": 598233285,
      "groupIds": [],
      "strokeSharpness": "round",
      "boundElementIds": []
    },
    {
      "type": "text",
      "version": 500,
      "versionNonce": 1630706443,
      "isDeleted": false,
      "id": "I1aRpnspydfaeXts64T1m",
      "fillStyle": "solid",
      "strokeWidth": 4,
      "strokeStyle": "solid",
      "roughness": 0,
      "opacity": 100,
      "angle": 0,
      "x": 1180.64453125,
      "y": 208.306640625,
      "strokeColor": "#c92a2a",
      "backgroundColor": "#c92a2a",
      "width": 66,
      "height": 34,
      "seed": 106285579,
      "groupIds": [],
      "strokeSharpness": "round",
      "boundElementIds": [],
      "fontSize": 28,
      "fontFamily": 3,
      "text": "etc.",
      "baseline": 27,
      "textAlign": "center",
      "verticalAlign": "top"
    }
  ],
  "appState": {
    "gridSize": null,
    "viewBackgroundColor": "#ffffff"
  }
}