{
  "type": "excalidraw",
  "version": 2,
  "source": "https://excalidraw.com",
  "elements": [
    {
      "type": "rectangle",
      "version": 682,
      "versionNonce": 1895574348,
      "isDeleted": false,
      "id": "WQBxOXW2Yi1JXNhAvTSoY",
      "fillStyle": "cross-hatch",
      "strokeWidth": 2,
      "strokeStyle": "dotted",
      "roughness": 0,
      "opacity": 100,
      "angle": 0,
      "x": 149.03859747023807,
      "y": 129.55050223214312,
      "strokeColor": "#efeefe",
      "backgroundColor": "#668e96",
      "width": 1712.1298363095236,
      "height": 546.5279017857138,
      "seed": 388556255,
      "groupIds": [],
      "strokeSharpness": "round",
      "boundElementIds": []
    },
    {
      "type": "text",
      "version": 27,
      "versionNonce": 1821753292,
      "isDeleted": false,
      "id": "iZv4-p2ybI60ubspHf46O",
      "fillStyle": "cross-hatch",
      "strokeWidth": 2,
      "strokeStyle": "solid",
      "roughness": 0,
      "opacity": 100,
      "angle": 0,
      "x": 222.947265625,
      "y": 281.876953125,
      "strokeColor": "#2b8a3e",
      "backgroundColor": "#668e96",
      "width": 241,
      "height": 54,
      "seed": 2013562501,
      "groupIds": [],
      "strokeSharpness": "round",
      "boundElementIds": [],
      "fontSize": 42.39732142857143,
      "fontFamily": 1,
      "text": "Net Margins",
      "baseline": 38,
      "textAlign": "left",
      "verticalAlign": "top"
    },
    {
      "type": "text",
      "version": 131,
      "versionNonce": 1362442356,
      "isDeleted": false,
      "id": "l-3ef3-rYz8ltqwd4G2zn",
      "fillStyle": "cross-hatch",
      "strokeWidth": 2,
      "strokeStyle": "solid",
      "roughness": 0,
      "opacity": 100,
      "angle": 0,
      "x": 277.869140625,
      "y": 357.892578125,
      "strokeColor": "#2b8a3e",
      "backgroundColor": "#668e96",
      "width": 236,
      "height": 175,
      "seed": 687273259,
      "groupIds": [],
      "strokeSharpness": "round",
      "boundElementIds": [],
      "fontSize": 20,
      "fontFamily": 1,
      "text": "Sources:\n- Donations\n- Capital\n- DeX/Oracle Earnings\n- Merchandise\n- Digital Asset Holdings\n",
      "baseline": 168,
      "textAlign": "left",
      "verticalAlign": "top"
    },
    {
      "type": "rectangle",
      "version": 143,
      "versionNonce": 1949917940,
      "isDeleted": false,
      "id": "A_mbl10aNj9WEidN5IQCK",
      "fillStyle": "cross-hatch",
      "strokeWidth": 2,
      "strokeStyle": "solid",
      "roughness": 0,
      "opacity": 100,
      "angle": 0,
      "x": 209.685546875,
      "y": 272.798828125,
      "strokeColor": "#2b8a3e",
      "backgroundColor": "#668e96",
      "width": 331.47265625,
      "height": 256.44140625,
      "seed": 545256180,
      "groupIds": [],
      "strokeSharpness": "round",
      "boundElementIds": [
        "S4xyeSexWIlkEW19EkEAZ"
      ]
    },
    {
      "type": "arrow",
      "version": 163,
      "versionNonce": 1882123724,
      "isDeleted": false,
      "id": "S4xyeSexWIlkEW19EkEAZ",
      "fillStyle": "cross-hatch",
      "strokeWidth": 4,
      "strokeStyle": "solid",
      "roughness": 0,
      "opacity": 100,
      "angle": 0,
      "x": 563.072265625,
      "y": 389.8645094194343,
      "strokeColor": "#2b8a3e",
      "backgroundColor": "#668e96",
      "width": 148.0078125000001,
      "height": 0.3117590690036991,
      "seed": 1035435636,
      "groupIds": [],
      "strokeSharpness": "sharp",
      "boundElementIds": [],
      "startBinding": {
        "elementId": "A_mbl10aNj9WEidN5IQCK",
        "focus": -0.08367213020521656,
        "gap": 21.9140625
      },
      "endBinding": {
        "elementId": "Gv5jqqJKujp9aQW7Mqu4n",
        "focus": 0.06306427329954278,
        "gap": 24.88671875
      },
      "points": [
        [
          0,
          0
        ],
        [
          148.0078125000001,
          -0.3117590690036991
        ]
      ],
      "lastCommittedPoint": null,
      "startArrowhead": null,
      "endArrowhead": "arrow"
    },
    {
      "type": "rectangle",
      "version": 128,
      "versionNonce": 1956277708,
      "isDeleted": false,
      "id": "Gv5jqqJKujp9aQW7Mqu4n",
      "fillStyle": "cross-hatch",
      "strokeWidth": 4,
      "strokeStyle": "solid",
      "roughness": 0,
      "opacity": 100,
      "angle": 0,
      "x": 735.966796875,
      "y": 302.724609375,
      "strokeColor": "#1864ab",
      "backgroundColor": "transparent",
      "width": 253.42578125,
      "height": 184.69921875,
      "seed": 1204915700,
      "groupIds": [],
      "strokeSharpness": "round",
      "boundElementIds": [
        "S4xyeSexWIlkEW19EkEAZ"
      ]
    },
    {
      "type": "text",
      "version": 358,
      "versionNonce": 182789364,
      "isDeleted": false,
      "id": "_GH4EDvZT3lya9qMi1Sbg",
      "fillStyle": "cross-hatch",
      "strokeWidth": 4,
      "strokeStyle": "solid",
      "roughness": 0,
      "opacity": 100,
      "angle": 0,
      "x": 771.134765625,
      "y": 366.138671875,
      "strokeColor": "#1864ab",
      "backgroundColor": "#668e96",
      "width": 194,
      "height": 56,
      "seed": 1137703540,
      "groupIds": [],
      "strokeSharpness": "round",
      "boundElementIds": [],
      "fontSize": 49.66562499999996,
      "fontFamily": 2,
      "text": "Treasury",
      "baseline": 45,
      "textAlign": "left",
      "verticalAlign": "top"
    },
    {
      "type": "line",
      "version": 2541,
      "versionNonce": 851728628,
      "isDeleted": false,
      "id": "SAf022e1plDTETm39QPQT",
      "fillStyle": "solid",
      "strokeWidth": 1,
      "strokeStyle": "solid",
      "roughness": 1,
      "opacity": 100,
      "angle": 6.27398381473644,
      "x": 242.75647107065342,
      "y": 493.1696289539156,
      "strokeColor": "#000000",
      "backgroundColor": "#ecc75c",
      "width": 14.286024165257505,
      "height": 22.254515557841344,
      "seed": 1573378420,
      "groupIds": [
        "ufD-d8Vk_bQA50-ISSKzB"
      ],
      "strokeSharpness": "sharp",
      "boundElementIds": [],
      "startBinding": null,
      "endBinding": null,
      "points": [
        [
          -1.6368290820908815,
          -30.894465177824898
        ],
        [
          12.203709728012893,
          -39.3028151653795
        ],
        [
          11.476524384176127,
          -24.20195805860304
        ],
        [
          -2.0823144372446123,
          -17.04829960753815
        ],
        [
          -1.6368290820908815,
          -30.894465177824898
        ]
      ],
      "lastCommittedPoint": null,
      "startArrowhead": null,
      "endArrowhead": null
    },
    {
      "type": "line",
      "version": 2138,
      "versionNonce": 218161228,
      "isDeleted": false,
      "id": "fLVrWIMK_6hvqjvFNZ7Fi",
      "fillStyle": "solid",
      "strokeWidth": 1,
      "strokeStyle": "solid",
      "roughness": 1,
      "opacity": 100,
      "angle": 6.27398381473644,
      "x": 331.8071827206386,
      "y": 510.6484283770744,
      "strokeColor": "#000000",
      "backgroundColor": "#ecc75c",
      "width": 13.495013109256872,
      "height": 21.494972073521613,
      "seed": 643016652,
      "groupIds": [
        "ufD-d8Vk_bQA50-ISSKzB"
      ],
      "strokeSharpness": "sharp",
      "boundElementIds": [],
      "startBinding": null,
      "endBinding": null,
      "points": [
        [
          -90.65941637691809,
          -48.37236034677152
        ],
        [
          -91.12431466947814,
          -34.077805649547734
        ],
        [
          -104.15442948617496,
          -40.98440926526212
        ],
        [
          -103.93791920250486,
          -55.57277772306935
        ],
        [
          -90.65941637691809,
          -48.37236034677152
        ]
      ],
      "lastCommittedPoint": null,
      "startArrowhead": null,
      "endArrowhead": null
    },
    {
      "type": "line",
      "version": 3168,
      "versionNonce": 1748310644,
      "isDeleted": false,
      "id": "IMdgvJ9M4YLTMQgq3Rk6f",
      "fillStyle": "solid",
      "strokeWidth": 1,
      "strokeStyle": "solid",
      "roughness": 1,
      "opacity": 100,
      "angle": 6.27398381473644,
      "x": 329.5494840742412,
      "y": 566.4447216791091,
      "strokeColor": "#000000",
      "backgroundColor": "#ecc75c",
      "width": 27.0732700504107,
      "height": 15.503661653985922,
      "seed": 1475644148,
      "groupIds": [
        "ufD-d8Vk_bQA50-ISSKzB"
      ],
      "strokeSharpness": "sharp",
      "boundElementIds": [],
      "startBinding": null,
      "endBinding": null,
      "points": [
        [
          -88.45547786681418,
          -104.15350514120122
        ],
        [
          -74.54915595155775,
          -112.02481503009507
        ],
        [
          -87.42762472540282,
          -119.65716679518714
        ],
        [
          -101.62242600196845,
          -111.62662791317051
        ],
        [
          -88.45547786681418,
          -104.15350514120122
        ]
      ],
      "lastCommittedPoint": null,
      "startArrowhead": null,
      "endArrowhead": null
    },
    {
      "type": "line",
      "version": 1924,
      "versionNonce": 890697420,
      "isDeleted": false,
      "id": "pkIWURto5oa80wjjeREXt",
      "fillStyle": "solid",
      "strokeWidth": 1,
      "strokeStyle": "solid",
      "roughness": 1,
      "opacity": 100,
      "angle": 6.27398381473644,
      "x": 242.96800512288752,
      "y": 505.7195280872025,
      "strokeColor": "#000000",
      "backgroundColor": "#344385",
      "width": 27.055999683799588,
      "height": 29.573552297314134,
      "seed": 933547596,
      "groupIds": [
        "ufD-d8Vk_bQA50-ISSKzB"
      ],
      "strokeSharpness": "sharp",
      "boundElementIds": [],
      "startBinding": null,
      "endBinding": null,
      "points": [
        [
          -1.6368290820909321,
          -57.78651011143814
        ],
        [
          24.97368524655491,
          -73.51389683846557
        ],
        [
          24.34563267908903,
          -58.91356477522027
        ],
        [
          -2.0823144372446762,
          -43.94034454115143
        ],
        [
          -1.6368290820909321,
          -57.78651011143814
        ]
      ],
      "lastCommittedPoint": null,
      "startArrowhead": null,
      "endArrowhead": null
    },
    {
      "type": "line",
      "version": 1572,
      "versionNonce": 85044212,
      "isDeleted": false,
      "id": "BTg6qW9U9uQ64fq_eoRKR",
      "fillStyle": "solid",
      "strokeWidth": 1,
      "strokeStyle": "solid",
      "roughness": 1,
      "opacity": 100,
      "angle": 6.27398381473644,
      "x": 292.4484851786906,
      "y": 476.3440062534865,
      "strokeColor": "#000000",
      "backgroundColor": "#344385",
      "width": 13.751221193242346,
      "height": 21.929225135029643,
      "seed": 479136884,
      "groupIds": [
        "ufD-d8Vk_bQA50-ISSKzB"
      ],
      "strokeSharpness": "sharp",
      "boundElementIds": [],
      "startBinding": null,
      "endBinding": null,
      "points": [
        [
          -50.52556386639517,
          -28.41997110623046
        ],
        [
          -51.31134379181788,
          -14.22562865397002
        ],
        [
          -64.19670758801193,
          -21.20106492279058
        ],
        [
          -64.27678505963752,
          -36.15485378899967
        ],
        [
          -50.52556386639517,
          -28.41997110623046
        ]
      ],
      "lastCommittedPoint": null,
      "startArrowhead": null,
      "endArrowhead": null
    },
    {
      "type": "line",
      "version": 2406,
      "versionNonce": 1327906124,
      "isDeleted": false,
      "id": "hzoW3oIPjZDvMpr-ajTPP",
      "fillStyle": "solid",
      "strokeWidth": 1,
      "strokeStyle": "solid",
      "roughness": 1,
      "opacity": 100,
      "angle": 6.27398381473644,
      "x": 329.43896210949833,
      "y": 593.5875459536624,
      "strokeColor": "#000000",
      "backgroundColor": "#344385",
      "width": 39.43531087480887,
      "height": 21.689490229453426,
      "seed": 17638604,
      "groupIds": [
        "ufD-d8Vk_bQA50-ISSKzB"
      ],
      "strokeSharpness": "sharp",
      "boundElementIds": [],
      "startBinding": null,
      "endBinding": null,
      "points": [
        [
          -88.45547786681439,
          -145.70986406573374
        ],
        [
          -62.187115127159906,
          -160.97359844925037
        ],
        [
          -74.54022879862096,
          -167.39935429518715
        ],
        [
          -101.62242600196878,
          -153.18298683770283
        ],
        [
          -88.45547786681439,
          -145.70986406573374
        ]
      ],
      "lastCommittedPoint": null,
      "startArrowhead": null,
      "endArrowhead": null
    },
    {
      "type": "line",
      "version": 1820,
      "versionNonce": 1264586100,
      "isDeleted": false,
      "id": "bVf_rPHw35vtyi0Msz3MW",
      "fillStyle": "solid",
      "strokeWidth": 1,
      "strokeStyle": "solid",
      "roughness": 1,
      "opacity": 100,
      "angle": 6.27398381473644,
      "x": 443.7993680115235,
      "y": 571.6024667101053,
      "strokeColor": "#000000",
      "backgroundColor": "#66a7c4",
      "width": 39.67723740557905,
      "height": 21.809441249939898,
      "seed": 1029529076,
      "groupIds": [
        "ufD-d8Vk_bQA50-ISSKzB"
      ],
      "strokeSharpness": "sharp",
      "boundElementIds": [],
      "startBinding": null,
      "endBinding": null,
      "points": [
        [
          -187.31078627557392,
          -146.51569429524704
        ],
        [
          -175.5155010963897,
          -153.92491438792084
        ],
        [
          -202.28045151195488,
          -168.32513554518695
        ],
        [
          -215.19273850196873,
          -162.02958441940507
        ],
        [
          -187.31078627557392,
          -146.51569429524704
        ]
      ],
      "lastCommittedPoint": null,
      "startArrowhead": null,
      "endArrowhead": null
    },
    {
      "type": "line",
      "version": 1420,
      "versionNonce": 612938700,
      "isDeleted": false,
      "id": "0Nm_B-yfx8GIrfzSAZ_BV",
      "fillStyle": "solid",
      "strokeWidth": 1,
      "strokeStyle": "solid",
      "roughness": 1,
      "opacity": 100,
      "angle": 6.27398381473644,
      "x": 260.90254565624934,
      "y": 484.950619470468,
      "strokeColor": "#000000",
      "backgroundColor": "#66a7c4",
      "width": 12.90279151129306,
      "height": 21.605160455376506,
      "seed": 1478929228,
      "groupIds": [
        "ufD-d8Vk_bQA50-ISSKzB"
      ],
      "strokeSharpness": "sharp",
      "boundElementIds": [],
      "startBinding": null,
      "endBinding": null,
      "points": [
        [
          -4.570375231359226,
          -59.738017360132766
        ],
        [
          7.547322761293058,
          -67.00000000000006
        ],
        [
          6.175270193341386,
          -52.755472018619855
        ],
        [
          -5.355468750000002,
          -45.39483954462355
        ],
        [
          -4.570375231359226,
          -59.738017360132766
        ]
      ],
      "lastCommittedPoint": null,
      "startArrowhead": null,
      "endArrowhead": null
    },
    {
      "type": "line",
      "version": 1412,
      "versionNonce": 1281769204,
      "isDeleted": false,
      "id": "s63kw-DJkswbakKCakPKR",
      "fillStyle": "solid",
      "strokeWidth": 1,
      "strokeStyle": "solid",
      "roughness": 1,
      "opacity": 100,
      "angle": 6.27398381473644,
      "x": 441.90489456371836,
      "y": 529.5410724022611,
      "strokeColor": "#000000",
      "backgroundColor": "#66a7c4",
      "width": 27.575339649062716,
      "height": 29.85915167081969,
      "seed": 593854324,
      "groupIds": [
        "ufD-d8Vk_bQA50-ISSKzB"
      ],
      "strokeSharpness": "sharp",
      "boundElementIds": [],
      "startBinding": null,
      "endBinding": null,
      "points": [
        [
          -185.25096483711215,
          -105.23609350451028
        ],
        [
          -186.03674476253477,
          -91.04175105224988
        ],
        [
          -212.82630448617488,
          -106.9836526330473
        ],
        [
          -212.6811574678575,
          -120.90090272306956
        ],
        [
          -185.25096483711215,
          -105.23609350451028
        ]
      ],
      "lastCommittedPoint": null,
      "startArrowhead": null,
      "endArrowhead": null
    },
    {
      "type": "arrow",
      "version": 96,
      "versionNonce": 67668596,
      "isDeleted": false,
      "id": "xQlDi9XXkSXgxdKepwFpH",
      "fillStyle": "cross-hatch",
      "strokeWidth": 4,
      "strokeStyle": "solid",
      "roughness": 0,
      "opacity": 100,
      "angle": 0,
      "x": 1036.740234375,
      "y": 391.025390625,
      "strokeColor": "#1864ab",
      "backgroundColor": "transparent",
      "width": 155.37328826515386,
      "height": 104.89052069600473,
      "seed": 442263156,
      "groupIds": [],
      "strokeSharpness": "sharp",
      "boundElementIds": [],
      "startBinding": null,
      "endBinding": {
        "elementId": "kMNRvp0eRWPcaodaDa225",
        "focus": 0.8686138589641649,
        "gap": 20.457741206299247
      },
      "points": [
        [
          0,
          0
        ],
        [
          155.37328826515386,
          -104.89052069600473
        ]
      ],
      "lastCommittedPoint": null,
      "startArrowhead": null,
      "endArrowhead": "arrow"
    },
    {
      "type": "arrow",
      "version": 221,
      "versionNonce": 1029967348,
      "isDeleted": false,
      "id": "zRAe9jKtcox9S0dTCqI-I",
      "fillStyle": "cross-hatch",
      "strokeWidth": 4,
      "strokeStyle": "solid",
      "roughness": 0,
      "opacity": 100,
      "angle": 0,
      "x": 1041.802734375,
      "y": 427.884765625,
      "strokeColor": "#1864ab",
      "backgroundColor": "transparent",
      "width": 147.11273762750443,
      "height": 111.40163454572576,
      "seed": 478446708,
      "groupIds": [],
      "strokeSharpness": "sharp",
      "boundElementIds": [],
      "startBinding": null,
      "endBinding": {
        "elementId": "gGpNaiBOdPEsL45x8zmno",
        "gap": 30.96969428572246,
        "focus": -0.9518920413064912
      },
      "points": [
        [
          0,
          0
        ],
        [
          147.11273762750443,
          111.40163454572576
        ]
      ],
      "lastCommittedPoint": null,
      "startArrowhead": null,
      "endArrowhead": "arrow"
    },
    {
      "type": "ellipse",
      "version": 130,
      "versionNonce": 1183739980,
      "isDeleted": false,
      "id": "kMNRvp0eRWPcaodaDa225",
      "fillStyle": "cross-hatch",
      "strokeWidth": 4,
      "strokeStyle": "solid",
      "roughness": 0,
      "opacity": 100,
      "angle": 0,
      "x": 1211.787109375,
      "y": 220.724609375,
      "strokeColor": "#c92a2a",
      "backgroundColor": "transparent",
      "width": 240.48828125,
      "height": 114.44140625,
      "seed": 1484327796,
      "groupIds": [],
      "strokeSharpness": "round",
      "boundElementIds": [
        "xQlDi9XXkSXgxdKepwFpH"
      ]
    },
    {
      "type": "text",
      "version": 396,
      "versionNonce": 108168908,
      "isDeleted": false,
      "id": "DoGqcpT8b65IY-PAsc_Vl",
      "fillStyle": "cross-hatch",
      "strokeWidth": 4,
      "strokeStyle": "solid",
      "roughness": 0,
      "opacity": 100,
      "angle": 0,
      "x": 1220.427734375,
      "y": 255.306640625,
      "strokeColor": "#c92a2a",
      "backgroundColor": "transparent",
      "width": 222.81725543478257,
      "height": 51.76562500000001,
      "seed": 1440104780,
      "groupIds": [],
      "strokeSharpness": "round",
      "boundElementIds": [],
      "fontSize": 22.50679347826088,
      "fontFamily": 2,
      "text": "Ongoing Expenditures\n& Payroll",
      "baseline": 46.76562500000001,
      "textAlign": "center",
      "verticalAlign": "top"
    },
    {
      "type": "ellipse",
      "version": 251,
      "versionNonce": 1159920460,
      "isDeleted": false,
      "id": "gGpNaiBOdPEsL45x8zmno",
      "fillStyle": "cross-hatch",
      "strokeWidth": 4,
      "strokeStyle": "solid",
      "roughness": 0,
      "opacity": 100,
      "angle": 0,
      "x": 1219.75390625,
      "y": 472.15234375,
      "strokeColor": "#0b7285",
      "backgroundColor": "transparent",
      "width": 240.48828125,
      "height": 142.57421874999997,
      "seed": 888609780,
      "groupIds": [],
      "strokeSharpness": "round",
      "boundElementIds": [
        "xQlDi9XXkSXgxdKepwFpH",
        "zRAe9jKtcox9S0dTCqI-I"
      ]
    },
    {
      "type": "text",
      "version": 564,
      "versionNonce": 113181300,
      "isDeleted": false,
      "id": "4MFThfMviT9IP20ZMSyYF",
      "fillStyle": "cross-hatch",
      "strokeWidth": 4,
      "strokeStyle": "solid",
      "roughness": 0,
      "opacity": 100,
      "angle": 0,
      "x": 1253.3031589673913,
      "y": 518.734375,
      "strokeColor": "#0b7285",
      "backgroundColor": "transparent",
      "width": 179,
      "height": 50,
      "seed": 244305228,
      "groupIds": [],
      "strokeSharpness": "round",
      "boundElementIds": [],
      "fontSize": 22.50679347826088,
      "fontFamily": 2,
      "text": "Member Retained\nNet Margins",
      "baseline": 45,
      "textAlign": "center",
      "verticalAlign": "top"
    },
    {
      "type": "text",
      "version": 384,
      "versionNonce": 169594444,
      "isDeleted": false,
      "id": "-G8KxdwZo85p3olve3SnF",
      "fillStyle": "cross-hatch",
      "strokeWidth": 4,
      "strokeStyle": "solid",
      "roughness": 0,
      "opacity": 100,
      "angle": 0,
      "x": 1478.775390625,
      "y": 496.025390625,
      "strokeColor": "#0b7285",
      "backgroundColor": "transparent",
      "width": 293,
      "height": 115,
      "seed": 2017309132,
      "groupIds": [],
      "strokeSharpness": "round",
      "boundElementIds": [],
      "fontSize": 20,
      "fontFamily": 2,
      "text": "- Liquidated upon Termination\n- Minimum Required Contribution\nrequired to maintain\n- 1 Year Vesting Cliff\n- 5 Year Vesting Schedule",
      "baseline": 110,
      "textAlign": "left",
      "verticalAlign": "top"
    },
    {
      "type": "text",
      "version": 1391,
      "versionNonce": 315144908,
      "isDeleted": false,
      "id": "NbQYjRzbFsX4YJG7mzIlj",
      "fillStyle": "cross-hatch",
      "strokeWidth": 4,
      "strokeStyle": "solid",
      "roughness": 0,
      "opacity": 100,
      "angle": 0,
      "x": 1468.927734375,
      "y": 177.806640625,
      "strokeColor": "#c92a2a",
      "backgroundColor": "transparent",
      "width": 385,
      "height": 230,
      "seed": 1586157004,
      "groupIds": [],
      "strokeSharpness": "round",
      "boundElementIds": [],
      "fontSize": 20,
      "fontFamily": 2,
      "text": "- Competitive Salaries & Contractor Rates\n- Benefits provided only to Member\nEmployees\n-  Margins may be meted based on\nPull Requests, Documentation, Coding\ncontributions, etc. rather than time-based\nvalue\n- W-2, 1099 & member contributors granted\ntokens and associated voting rights based\non contribution",
      "baseline": 225,
      "textAlign": "left",
      "verticalAlign": "top"
    }
  ],
  "appState": {
    "gridSize": null,
    "viewBackgroundColor": "#ffffff"
  }
}