{
  "type": "excalidraw",
  "version": 2,
  "source": "https://excalidraw.com",
  "elements": [
    {
      "type": "rectangle",
      "version": 174,
      "versionNonce": 120092792,
      "isDeleted": false,
      "id": "kPSXUGUG33XwakfZJ8xqx",
      "fillStyle": "hachure",
      "strokeWidth": 2,
      "strokeStyle": "solid",
      "roughness": 0,
      "opacity": 100,
      "angle": 0,
      "x": 428.8188171386719,
      "y": 223.90691375732422,
      "strokeColor": "#1864ab",
      "backgroundColor": "transparent",
      "width": 387.3849182128906,
      "height": 217.41537475585938,
      "seed": 1573305368,
      "groupIds": [],
      "strokeSharpness": "sharp",
      "boundElementIds": [
        "cBoiEarFg2BJOCLQ_u2fN"
      ]
    },
    {
      "type": "text",
      "version": 333,
      "versionNonce": 940796680,
      "isDeleted": false,
      "id": "IIDZ3CxGZWaiXgJQJtrNX",
      "fillStyle": "hachure",
      "strokeWidth": 2,
      "strokeStyle": "solid",
      "roughness": 0,
      "opacity": 100,
      "angle": 0,
      "x": 468.33646425059135,
      "y": 257.51158142089844,
      "strokeColor": "#2b8a3e",
      "backgroundColor": "transparent",
      "width": 320.21438706089083,
      "height": 131.41746520996094,
      "seed": 2063631533,
      "groupIds": [],
      "strokeSharpness": "sharp",
      "boundElementIds": [],
      "fontSize": 51.82660599829448,
      "fontFamily": 1,
      "text": "Fog Services\nNetwork",
      "baseline": 112.41746520996094,
      "textAlign": "center",
      "verticalAlign": "top"
    },
    {
      "type": "rectangle",
      "version": 754,
      "versionNonce": 359836024,
      "isDeleted": false,
      "id": "WlKS4pTkwv8wp84UpdhGA",
      "fillStyle": "solid",
      "strokeWidth": 1,
      "strokeStyle": "solid",
      "roughness": 1,
      "opacity": 100,
      "angle": 0,
      "x": 441.10337021986805,
      "y": 64.08005482745494,
      "strokeColor": "#c92a2a",
      "backgroundColor": "#aed4da",
      "width": 127.88383573213892,
      "height": 76.53703389977764,
      "seed": 1677454925,
      "groupIds": [
        "dVMRGi5DI6pw4mHaunmyj"
      ],
      "strokeSharpness": "sharp",
      "boundElementIds": []
    },
    {
      "type": "line",
      "version": 540,
      "versionNonce": 796969480,
      "isDeleted": false,
      "id": "ZY6tfjVR40yPZFiKgPbjM",
      "fillStyle": "solid",
      "strokeWidth": 1,
      "strokeStyle": "solid",
      "roughness": 1,
      "opacity": 100,
      "angle": 0,
      "x": 440.02777246897284,
      "y": 74.79658921969911,
      "strokeColor": "#c92a2a",
      "backgroundColor": "#aed4da",
      "width": 128.84193229844433,
      "height": 0,
      "seed": 1555736835,
      "groupIds": [
        "dVMRGi5DI6pw4mHaunmyj"
      ],
      "strokeSharpness": "round",
      "boundElementIds": [],
      "startBinding": null,
      "endBinding": null,
      "points": [
        [
          0,
          0
        ],
        [
          128.84193229844433,
          0
        ]
      ],
      "lastCommittedPoint": null,
      "startArrowhead": null,
      "endArrowhead": null
    },
    {
      "type": "ellipse",
      "version": 360,
      "versionNonce": 491698808,
      "isDeleted": false,
      "id": "nC3pgL8tLuYKcnDnrg0WI",
      "fillStyle": "solid",
      "strokeWidth": 1,
      "strokeStyle": "solid",
      "roughness": 0,
      "opacity": 100,
      "angle": 0,
      "x": 445.591405688823,
      "y": 68.35162462746376,
      "strokeColor": "#c92a2a",
      "backgroundColor": "#aed4da",
      "width": 5.001953125,
      "height": 5.001953125,
      "seed": 1617075373,
      "groupIds": [
        "dVMRGi5DI6pw4mHaunmyj"
      ],
      "strokeSharpness": "sharp",
      "boundElementIds": []
    },
    {
      "type": "ellipse",
      "version": 405,
      "versionNonce": 803883272,
      "isDeleted": false,
      "id": "iz6i7xG8vQXC5AtfXvqMI",
      "fillStyle": "solid",
      "strokeWidth": 1,
      "strokeStyle": "solid",
      "roughness": 0,
      "opacity": 100,
      "angle": 0,
      "x": 455.854101001323,
      "y": 68.35162462746376,
      "strokeColor": "#c92a2a",
      "backgroundColor": "#aed4da",
      "width": 5.001953125,
      "height": 5.001953125,
      "seed": 1109692579,
      "groupIds": [
        "dVMRGi5DI6pw4mHaunmyj"
      ],
      "strokeSharpness": "sharp",
      "boundElementIds": []
    },
    {
      "type": "ellipse",
      "version": 463,
      "versionNonce": 1367387000,
      "isDeleted": false,
      "id": "YHTx-y-W3pSBCMgsGVFTl",
      "fillStyle": "solid",
      "strokeWidth": 1,
      "strokeStyle": "solid",
      "roughness": 0,
      "opacity": 100,
      "angle": 0,
      "x": 466.5675174676692,
      "y": 68.80234578130995,
      "strokeColor": "#c92a2a",
      "backgroundColor": "#aed4da",
      "width": 5.001953125,
      "height": 5.001953125,
      "seed": 1285848845,
      "groupIds": [
        "dVMRGi5DI6pw4mHaunmyj"
      ],
      "strokeSharpness": "sharp",
      "boundElementIds": []
    },
    {
      "type": "ellipse",
      "version": 742,
      "versionNonce": 80472072,
      "isDeleted": false,
      "id": "3QIF0AhmN8AO9RGp1iT2B",
      "fillStyle": "solid",
      "strokeWidth": 1,
      "strokeStyle": "solid",
      "roughness": 1,
      "opacity": 90,
      "angle": 0,
      "x": 482.5945784572964,
      "y": 84.8547146593258,
      "strokeColor": "#c92a2a",
      "backgroundColor": "#aed4da",
      "width": 42.72020253937572,
      "height": 42.72020253937572,
      "seed": 489718851,
      "groupIds": [
        "dVMRGi5DI6pw4mHaunmyj"
      ],
      "strokeSharpness": "sharp",
      "boundElementIds": []
    },
    {
      "type": "draw",
      "version": 1359,
      "versionNonce": 1816951928,
      "isDeleted": false,
      "id": "e34BSb2OTzOQighy_IR00",
      "fillStyle": "solid",
      "strokeWidth": 1,
      "strokeStyle": "solid",
      "roughness": 0,
      "opacity": 100,
      "angle": 0,
      "x": 504.7652181674962,
      "y": 99.03601101157193,
      "strokeColor": "#c92a2a",
      "backgroundColor": "#aed4da",
      "width": 28.226201983883442,
      "height": 24.44112284281997,
      "seed": 1866143085,
      "groupIds": [
        "dVMRGi5DI6pw4mHaunmyj"
      ],
      "strokeSharpness": "round",
      "boundElementIds": [],
      "startBinding": null,
      "endBinding": null,
      "points": [
        [
          4.907524351775825,
          2.043055712211473
        ],
        [
          3.0769604829149455,
          1.6284171290602836
        ],
        [
          -2.66472604008681,
          -4.228569719133945
        ],
        [
          -6.450168189798415,
          -2.304577297733668
        ],
        [
          -7.704241049212052,
          4.416384506147983
        ],
        [
          -6.361372181234263,
          8.783101300254884
        ],
        [
          -12.516984713388897,
          10.9291595737194
        ],
        [
          -12.295677738198286,
          15.686226498407976
        ],
        [
          -7.473371426945252,
          15.393030178104425
        ],
        [
          -3.787654025313423,
          11.5207568827343
        ],
        [
          1.2873793872375165,
          19.910682356036197
        ],
        [
          4.492232250183542,
          20.212553123686025
        ],
        [
          1.1302787567009416,
          6.843494873631317
        ],
        [
          6.294108177816019,
          6.390688722156585
        ],
        [
          8.070028349098962,
          7.910451897221202
        ],
        [
          14.143675334886687,
          7.910451897221202
        ],
        [
          15.709217270494545,
          2.6780252579576427
        ],
        [
          9.128749989671498,
          3.1533849725326517
        ],
        [
          10.393751588600717,
          -3.7167773257046695
        ],
        [
          7.380151667177483,
          -3.30213874255348
        ],
        [
          4.669824267311791,
          1.1200945145694894
        ],
        [
          4.907524351775825,
          2.043055712211473
        ]
      ],
      "lastCommittedPoint": null,
      "startArrowhead": null,
      "endArrowhead": null
    },
    {
      "type": "line",
      "version": 779,
      "versionNonce": 706848520,
      "isDeleted": false,
      "id": "s1IdejF9trgjYQ36tsOVZ",
      "fillStyle": "solid",
      "strokeWidth": 1,
      "strokeStyle": "solid",
      "roughness": 1,
      "opacity": 90,
      "angle": 0,
      "x": 483.65364093132393,
      "y": 105.8175882225068,
      "strokeColor": "#c92a2a",
      "backgroundColor": "#aed4da",
      "width": 42.095115772272244,
      "height": 0,
      "seed": 96273379,
      "groupIds": [
        "dVMRGi5DI6pw4mHaunmyj"
      ],
      "strokeSharpness": "round",
      "boundElementIds": [],
      "startBinding": null,
      "endBinding": null,
      "points": [
        [
          0,
          0
        ],
        [
          42.095115772272244,
          0
        ]
      ],
      "lastCommittedPoint": null,
      "startArrowhead": null,
      "endArrowhead": null
    },
    {
      "type": "line",
      "version": 2986,
      "versionNonce": 1064709496,
      "isDeleted": false,
      "id": "LE4eUg91uJjZUdmGnae5-",
      "fillStyle": "solid",
      "strokeWidth": 1,
      "strokeStyle": "solid",
      "roughness": 0,
      "opacity": 90,
      "angle": 0,
      "x": 488.7489699610983,
      "y": 92.7247426229838,
      "strokeColor": "#c92a2a",
      "backgroundColor": "#aed4da",
      "width": 29.31860660384862,
      "height": 5.711199931375845,
      "seed": 57663437,
      "groupIds": [
        "dVMRGi5DI6pw4mHaunmyj"
      ],
      "strokeSharpness": "round",
      "boundElementIds": [],
      "startBinding": null,
      "endBinding": null,
      "points": [
        [
          0,
          -2.341683327443203
        ],
        [
          0.7724193963150375,
          -0.06510358900749044
        ],
        [
          4.103544916365185,
          1.84492589414448
        ],
        [
          8.536129150893453,
          3.0016281808630056
        ],
        [
          15.480325949120388,
          3.1070332647092163
        ],
        [
          23.583965316012858,
          2.3706131055211244
        ],
        [
          28.316582284417855,
          -0.3084668090492442
        ],
        [
          29.31860660384862,
          -2.6041666666666288
        ]
      ],
      "lastCommittedPoint": null,
      "startArrowhead": null,
      "endArrowhead": null
    },
    {
      "type": "ellipse",
      "version": 803,
      "versionNonce": 1013417480,
      "isDeleted": false,
      "id": "t-GCRR2rPsBGTIEMTZ0Lh",
      "fillStyle": "solid",
      "strokeWidth": 1,
      "strokeStyle": "solid",
      "roughness": 1,
      "opacity": 90,
      "angle": 0,
      "x": 496.82288588501774,
      "y": 83.47218502973311,
      "strokeColor": "#c92a2a",
      "backgroundColor": "#aed4da",
      "width": 15.528434353116108,
      "height": 44.82230388130942,
      "seed": 332959619,
      "groupIds": [
        "dVMRGi5DI6pw4mHaunmyj"
      ],
      "strokeSharpness": "sharp",
      "boundElementIds": []
    },
    {
      "type": "line",
      "version": 3191,
      "versionNonce": 1145159288,
      "isDeleted": false,
      "id": "2KXxlP9Sed1Jgx-w2eEd3",
      "fillStyle": "solid",
      "strokeWidth": 1,
      "strokeStyle": "solid",
      "roughness": 0,
      "opacity": 90,
      "angle": 0,
      "x": 490.2649214707242,
      "y": 122.1201513539815,
      "strokeColor": "#c92a2a",
      "backgroundColor": "#aed4da",
      "width": 29.31860660384862,
      "height": 5.896061363392446,
      "seed": 526147117,
      "groupIds": [
        "dVMRGi5DI6pw4mHaunmyj"
      ],
      "strokeSharpness": "round",
      "boundElementIds": [],
      "startBinding": null,
      "endBinding": null,
      "points": [
        [
          0,
          0
        ],
        [
          4.103544916365185,
          -4.322122351104391
        ],
        [
          8.536129150893453,
          -5.516265043290966
        ],
        [
          15.480325949120388,
          -5.625081903117008
        ],
        [
          23.583965316012858,
          -4.8648251269605955
        ],
        [
          28.316582284417855,
          -2.0990281379671547
        ],
        [
          29.31860660384862,
          0.2709794602754383
        ]
      ],
      "lastCommittedPoint": null,
      "startArrowhead": null,
      "endArrowhead": null
    },
    {
      "type": "line",
      "version": 74,
      "versionNonce": 1754891528,
      "isDeleted": false,
      "id": "pegTZATeGmJsmRdH7g6Qz",
      "fillStyle": "hachure",
      "strokeWidth": 2,
      "strokeStyle": "solid",
      "roughness": 0,
      "opacity": 100,
      "angle": 0,
      "x": 499.97314453125,
      "y": 142.4362030029297,
      "strokeColor": "#1864ab",
      "backgroundColor": "transparent",
      "width": 56.448974609375,
      "height": 81.83949279785156,
      "seed": 1868266883,
      "groupIds": [],
      "strokeSharpness": "round",
      "boundElementIds": [],
      "startBinding": null,
      "endBinding": null,
      "points": [
        [
          0,
          0
        ],
        [
          56.448974609375,
          81.83949279785156
        ]
      ],
      "lastCommittedPoint": null,
      "startArrowhead": null,
      "endArrowhead": null
    },
    {
      "type": "arrow",
      "version": 46,
      "versionNonce": 728969080,
      "isDeleted": false,
      "id": "cBoiEarFg2BJOCLQ_u2fN",
      "fillStyle": "hachure",
      "strokeWidth": 2,
      "strokeStyle": "solid",
      "roughness": 0,
      "opacity": 100,
      "angle": 0,
      "x": 698.1799926757812,
      "y": 221.25262451171875,
      "strokeColor": "#1864ab",
      "backgroundColor": "#aed4da",
      "width": 61.56622314453125,
      "height": 95.78358459472656,
      "seed": 1091650733,
      "groupIds": [],
      "strokeSharpness": "round",
      "boundElementIds": [],
      "startBinding": {
        "elementId": "kPSXUGUG33XwakfZJ8xqx",
        "focus": 0.015515161732842222,
        "gap": 2.6542892456054688
      },
      "endBinding": null,
      "points": [
        [
          0,
          0
        ],
        [
          61.56622314453125,
          -95.78358459472656
        ]
      ],
      "lastCommittedPoint": null,
      "startArrowhead": null,
      "endArrowhead": "arrow"
    },
    {
      "type": "line",
      "version": 116,
      "versionNonce": 1546888200,
      "isDeleted": false,
      "id": "RvALLezTOHq_labvTV9aA",
      "fillStyle": "solid",
      "strokeWidth": 1,
      "strokeStyle": "solid",
      "roughness": 1,
      "opacity": 100,
      "angle": 0,
      "x": 784.5838425178081,
      "y": 85.34486273529683,
      "strokeColor": "#000000",
      "backgroundColor": "#40c057",
      "width": 158.3714,
      "height": 156.7594,
      "seed": 1783614925,
      "groupIds": [],
      "strokeSharpness": "sharp",
      "boundElementIds": [],
      "points": [
        [
          29.6946,
          -4.2694
        ],
        [
          79.1857,
          11.3852
        ],
        [
          27.289,
          12.4625
        ],
        [
          60.46,
          52.3889
        ],
        [
          16.2192,
          25.2376
        ],
        [
          22.5386,
          76.7594
        ],
        [
          0,
          30
        ],
        [
          -22.5386,
          76.7594
        ],
        [
          -16.2192,
          25.2376
        ],
        [
          -60.46,
          52.3889
        ],
        [
          -27.289,
          12.4625
        ],
        [
          -79.1857,
          11.3852
        ],
        [
          -29.6946,
          -4.2694
        ],
        [
          -72.7706,
          -33.2332
        ],
        [
          -22.6725,
          -19.6458
        ],
        [
          -43.2513,
          -67.3003
        ],
        [
          -8.452,
          -28.7848
        ],
        [
          0,
          -80
        ],
        [
          8.452,
          -28.7848
        ],
        [
          43.2513,
          -67.3003
        ],
        [
          22.6725,
          -19.6458
        ],
        [
          72.7706,
          -33.2332
        ],
        [
          29.6946,
          -4.2694
        ]
      ],
      "lastCommittedPoint": null,
      "startArrowhead": null,
      "endArrowhead": null
    },
    {
      "type": "text",
      "version": 426,
      "versionNonce": 1833861240,
      "isDeleted": false,
      "id": "un0GyMGdZJWcCW9wL17Fn",
      "fillStyle": "hachure",
      "strokeWidth": 2,
      "strokeStyle": "solid",
      "roughness": 0,
      "opacity": 100,
      "angle": 6.016139900493895,
      "x": 830.3497924804688,
      "y": -40.225677490234375,
      "strokeColor": "#5f3dc4",
      "backgroundColor": "#aed4da",
      "width": 152,
      "height": 142,
      "seed": 837960397,
      "groupIds": [],
      "strokeSharpness": "sharp",
      "boundElementIds": [],
      "fontSize": 28,
      "fontFamily": 1,
      "text": "Solidity/\ncross-chain\nSmart\nContracts",
      "baseline": 131,
      "textAlign": "center",
      "verticalAlign": "top"
    },
    {
      "type": "rectangle",
      "version": 398,
      "versionNonce": 892461832,
      "isDeleted": false,
      "id": "5YcUG7SEAzkZp5D5BbPRR",
      "fillStyle": "solid",
      "strokeWidth": 2,
      "strokeStyle": "solid",
      "roughness": 0,
      "opacity": 100,
      "angle": 0,
      "x": 326.29718017578125,
      "y": 667.8683166503906,
      "strokeColor": "#5f3dc4",
      "backgroundColor": "#ffffff",
      "width": 192.03936767578125,
      "height": 161.83071899414062,
      "seed": 1000741973,
      "groupIds": [],
      "strokeSharpness": "sharp",
      "boundElementIds": [
        "oYl54iyc9tsWf0tkXtQ5i",
        "-qxSoW7PRYMpc22ySztrU",
        "kBe77_903PDk9PAQOmXqk"
      ]
    },
    {
      "type": "arrow",
      "version": 1511,
      "versionNonce": 1503113592,
      "isDeleted": false,
      "id": "oYl54iyc9tsWf0tkXtQ5i",
      "fillStyle": "solid",
      "strokeWidth": 2,
      "strokeStyle": "solid",
      "roughness": 0,
      "opacity": 100,
      "angle": 0,
      "x": 737.3228025280469,
      "y": 682.2859479713807,
      "strokeColor": "#0b7285",
      "backgroundColor": "#ffffff",
      "width": 217.2554807507031,
      "height": 1.8416333374568694,
      "seed": 1423662101,
      "groupIds": [],
      "strokeSharpness": "round",
      "boundElementIds": [],
      "startBinding": {
        "elementId": "7jTLk6HYtsQnfIfKp_OKq",
        "focus": 0.6376514770707188,
        "gap": 1
      },
      "endBinding": {
        "elementId": "59oOnkixsoqbWkAki2xLU",
        "focus": -1.0718497252077153,
        "gap": 7.855325655172578
      },
      "points": [
        [
          0,
          0
        ],
        [
          -217.2554807507031,
          -1.8416333374568694
        ]
      ],
      "lastCommittedPoint": null,
      "startArrowhead": null,
      "endArrowhead": "arrow"
    },
    {
      "type": "text",
      "version": 417,
      "versionNonce": 1913668104,
      "isDeleted": false,
      "id": "YsOWx3wWF1Xbfy1OiuVft",
      "fillStyle": "solid",
      "strokeWidth": 2,
      "strokeStyle": "solid",
      "roughness": 0,
      "opacity": 100,
      "angle": 0,
      "x": 541.1519775390625,
      "y": 649.4950561523438,
      "strokeColor": "#0b7285",
      "backgroundColor": "#ffffff",
      "width": 182,
      "height": 40,
      "seed": 696280283,
      "groupIds": [],
      "strokeSharpness": "sharp",
      "boundElementIds": [
        "oYl54iyc9tsWf0tkXtQ5i"
      ],
      "fontSize": 16,
      "fontFamily": 1,
      "text": "Associate Link Request\n",
      "baseline": 34,
      "textAlign": "center",
      "verticalAlign": "top"
    },
    {
      "type": "text",
      "version": 476,
      "versionNonce": 663929464,
      "isDeleted": false,
      "id": "nYEXghrC9zyuYJKNmSDjh",
      "fillStyle": "solid",
      "strokeWidth": 2,
      "strokeStyle": "solid",
      "roughness": 0,
      "opacity": 100,
      "angle": 0,
      "x": 436.981201171875,
      "y": 602.264892578125,
      "strokeColor": "#e67700",
      "backgroundColor": "#ffffff",
      "width": 370,
      "height": 35,
      "seed": 1376198779,
      "groupIds": [],
      "strokeSharpness": "sharp",
      "boundElementIds": [
        "f96jvOFMEHqV4XcjO53yr"
      ],
      "fontSize": 28,
      "fontFamily": 1,
      "text": "Ephemeral Links & Security",
      "baseline": 25,
      "textAlign": "center",
      "verticalAlign": "top"
    },
    {
      "type": "rectangle",
      "version": 601,
      "versionNonce": 1640677640,
      "isDeleted": false,
      "id": "7jTLk6HYtsQnfIfKp_OKq",
      "fillStyle": "solid",
      "strokeWidth": 2,
      "strokeStyle": "solid",
      "roughness": 0,
      "opacity": 100,
      "angle": 0,
      "x": 737.3597717285156,
      "y": 652.8468780517578,
      "strokeColor": "#1864ab",
      "backgroundColor": "#ffffff",
      "width": 274.4298095703125,
      "height": 173.005859375,
      "seed": 1822257243,
      "groupIds": [],
      "strokeSharpness": "sharp",
      "boundElementIds": [
        "oYl54iyc9tsWf0tkXtQ5i",
        "kBe77_903PDk9PAQOmXqk",
        "JlLcfr5J3C_k8K2m_sevV",
        "-qxSoW7PRYMpc22ySztrU",
        "jtdnfDF97zNSV31HGrIOO"
      ]
    },
    {
      "type": "text",
      "version": 619,
      "versionNonce": 100905848,
      "isDeleted": false,
      "id": "SVrE7bcIs8hWjGt2g1rYG",
      "fillStyle": "solid",
      "strokeWidth": 2,
      "strokeStyle": "solid",
      "roughness": 0,
      "opacity": 100,
      "angle": 0,
      "x": 533.8872680664062,
      "y": 697.5708923339844,
      "strokeColor": "#0b7285",
      "backgroundColor": "#ffffff",
      "width": 163.24896240234375,
      "height": 58.30320085797992,
      "seed": 2012964731,
      "groupIds": [],
      "strokeSharpness": "sharp",
      "boundElementIds": [
        "jtdnfDF97zNSV31HGrIOO"
      ],
      "fontSize": 15.547520228794639,
      "fontFamily": 1,
      "text": "Unique Ephemeral Link\n\nto \"Super\" DApp",
      "baseline": 52.30320085797992,
      "textAlign": "center",
      "verticalAlign": "top"
    },
    {
      "type": "ellipse",
      "version": 752,
      "versionNonce": 94415992,
      "isDeleted": false,
      "id": "hBtcbTnirdNlrCtJuv0C5",
      "fillStyle": "solid",
      "strokeWidth": 2,
      "strokeStyle": "solid",
      "roughness": 0,
      "opacity": 100,
      "angle": 0,
      "x": 821.5957641601562,
      "y": 703.7165832519531,
      "strokeColor": "#d964dd",
      "backgroundColor": "#ffffff",
      "width": 164.22235107421875,
      "height": 89.41748046875,
      "seed": 639753941,
      "groupIds": [],
      "strokeSharpness": "sharp",
      "boundElementIds": [
        "kBe77_903PDk9PAQOmXqk",
        "JlLcfr5J3C_k8K2m_sevV"
      ]
    },
    {
      "type": "text",
      "version": 340,
      "versionNonce": 594048776,
      "isDeleted": false,
      "id": "zyi3BSQhccnr5ktWwHsFa",
      "fillStyle": "solid",
      "strokeWidth": 2,
      "strokeStyle": "solid",
      "roughness": 0,
      "opacity": 100,
      "angle": 0,
      "x": 840.2569885253906,
      "y": 713.2196502685547,
      "strokeColor": "#d964dd",
      "backgroundColor": "#ffffff",
      "width": 111,
      "height": 74,
      "seed": 2072228693,
      "groupIds": [],
      "strokeSharpness": "sharp",
      "boundElementIds": [],
      "fontSize": 20,
      "fontFamily": 1,
      "text": "Restricted\nExecution\nEnvironment",
      "baseline": 66,
      "textAlign": "center",
      "verticalAlign": "middle"
    },
    {
      "type": "diamond",
      "version": 498,
      "versionNonce": 719030024,
      "isDeleted": false,
      "id": "95P33Y14Av-PZiRJniMp9",
      "fillStyle": "solid",
      "strokeWidth": 2,
      "strokeStyle": "solid",
      "roughness": 0,
      "opacity": 100,
      "angle": 0,
      "x": 744.263671875,
      "y": 713.2207641601562,
      "strokeColor": "#c92a2a",
      "backgroundColor": "#ffffff",
      "width": 79.905029296875,
      "height": 69.35775756835938,
      "seed": 365067765,
      "groupIds": [],
      "strokeSharpness": "sharp",
      "boundElementIds": [
        "JlLcfr5J3C_k8K2m_sevV"
      ]
    },
    {
      "type": "text",
      "version": 222,
      "versionNonce": 1691825528,
      "isDeleted": false,
      "id": "V82VJL23f03enLDmyTwwc",
      "fillStyle": "solid",
      "strokeWidth": 2,
      "strokeStyle": "solid",
      "roughness": 0,
      "opacity": 100,
      "angle": 0,
      "x": 463.4801940917969,
      "y": 465.06951904296875,
      "strokeColor": "#2b8a3e",
      "backgroundColor": "#ffffff",
      "width": 322,
      "height": 25,
      "seed": 41675626,
      "groupIds": [],
      "strokeSharpness": "sharp",
      "boundElementIds": [
        "f96jvOFMEHqV4XcjO53yr"
      ],
      "fontSize": 20,
      "fontFamily": 1,
      "text": "Off Chain Execution Environment",
      "baseline": 17,
      "textAlign": "center",
      "verticalAlign": "top"
    },
    {
      "type": "arrow",
      "version": 484,
      "versionNonce": 1601895944,
      "isDeleted": false,
      "id": "f96jvOFMEHqV4XcjO53yr",
      "fillStyle": "solid",
      "strokeWidth": 2,
      "strokeStyle": "solid",
      "roughness": 0,
      "opacity": 100,
      "angle": 0,
      "x": 610.6442140879664,
      "y": 497.8792724609376,
      "strokeColor": "#2b8a3e",
      "backgroundColor": "#ffffff",
      "width": 3.0452588763251924,
      "height": 99.62206148198425,
      "seed": 1492728374,
      "groupIds": [],
      "strokeSharpness": "round",
      "boundElementIds": [],
      "startBinding": {
        "elementId": "V82VJL23f03enLDmyTwwc",
        "focus": 0.0827997252993448,
        "gap": 7.80975341796875
      },
      "endBinding": {
        "elementId": "nYEXghrC9zyuYJKNmSDjh",
        "focus": -0.08118579103565059,
        "gap": 4.76355863520314
      },
      "points": [
        [
          0,
          0
        ],
        [
          -3.0452588763251924,
          99.62206148198425
        ]
      ],
      "lastCommittedPoint": null,
      "startArrowhead": null,
      "endArrowhead": "arrow"
    },
    {
      "type": "text",
      "version": 314,
      "versionNonce": 675399288,
      "isDeleted": false,
      "id": "gk78VOG7Y9cIjEZR4b_ZT",
      "fillStyle": "solid",
      "strokeWidth": 2,
      "strokeStyle": "solid",
      "roughness": 0,
      "opacity": 100,
      "angle": 0,
      "x": 634.9022827148438,
      "y": 503.1854553222656,
      "strokeColor": "#2b8a3e",
      "backgroundColor": "#ffffff",
      "width": 203,
      "height": 74,
      "seed": 609892202,
      "groupIds": [],
      "strokeSharpness": "sharp",
      "boundElementIds": [],
      "fontSize": 20,
      "fontFamily": 1,
      "text": "Creates Composable\nDApps via\nEphemeral Links",
      "baseline": 66,
      "textAlign": "left",
      "verticalAlign": "top"
    },
    {
      "type": "text",
      "version": 690,
      "versionNonce": 1249770760,
      "isDeleted": false,
      "id": "on4JCxpaiAnic4rC9mxLx",
      "fillStyle": "hachure",
      "strokeWidth": 2,
      "strokeStyle": "solid",
      "roughness": 0,
      "opacity": 100,
      "angle": 0.01742435360428729,
      "x": 445.6696387010945,
      "y": -23.77349437925717,
      "strokeColor": "#5f3dc4",
      "backgroundColor": "#aed4da",
      "width": 119.24213743005022,
      "height": 81.02350363836743,
      "seed": 1213047862,
      "groupIds": [],
      "strokeSharpness": "sharp",
      "boundElementIds": [],
      "fontSize": 21.40243492334235,
      "fontFamily": 1,
      "text": "Browser\nProgressive\nWeb App",
      "baseline": 73.02350363836743,
      "textAlign": "center",
      "verticalAlign": "top"
    },
    {
      "type": "text",
      "version": 456,
      "versionNonce": 573716344,
      "isDeleted": false,
      "id": "59oOnkixsoqbWkAki2xLU",
      "fillStyle": "solid",
      "strokeWidth": 2,
      "strokeStyle": "solid",
      "roughness": 0,
      "opacity": 100,
      "angle": 0,
      "x": 332.65647323258963,
      "y": 684.1714172363281,
      "strokeColor": "#1864ab",
      "backgroundColor": "#ffffff",
      "width": 179.55552288958154,
      "height": 104.07864379882815,
      "seed": 1309357535,
      "groupIds": [],
      "strokeSharpness": "sharp",
      "boundElementIds": [
        "oYl54iyc9tsWf0tkXtQ5i",
        "JlLcfr5J3C_k8K2m_sevV",
        "-qxSoW7PRYMpc22ySztrU",
        "kBe77_903PDk9PAQOmXqk",
        "jtdnfDF97zNSV31HGrIOO",
        "UNPBrRwHzIG1aHh_eFYJ4"
      ],
      "fontSize": 20.314275794819142,
      "fontFamily": 1,
      "text": "Ancestor\nComposable\nDApp\n(e.g. User Profile)",
      "baseline": 97.07864379882815,
      "textAlign": "center",
      "verticalAlign": "top"
    },
    {
      "type": "text",
      "version": 542,
      "versionNonce": 2060000264,
      "isDeleted": false,
      "id": "Sbe1SjCqDoH6c5uQgMSsK",
      "fillStyle": "solid",
      "strokeWidth": 2,
      "strokeStyle": "solid",
      "roughness": 0,
      "opacity": 100,
      "angle": 0,
      "x": 774.4474487304688,
      "y": 667.8253326416016,
      "strokeColor": "#1864ab",
      "backgroundColor": "#ffffff",
      "width": 200.28759765624997,
      "height": 56.43462696391575,
      "seed": 1109442591,
      "groupIds": [],
      "strokeSharpness": "sharp",
      "boundElementIds": [
        "kBe77_903PDk9PAQOmXqk"
      ],
      "fontSize": 22.478991696523934,
      "fontFamily": 1,
      "text": "Descendant DApp\n",
      "baseline": 48.43462696391575,
      "textAlign": "center",
      "verticalAlign": "top"
    },
    {
      "type": "text",
      "version": 317,
      "versionNonce": 2007216392,
      "isDeleted": false,
      "id": "L7MsUwY4gqBlU84UxrG00",
      "fillStyle": "hachure",
      "strokeWidth": 1,
      "strokeStyle": "solid",
      "roughness": 1,
      "opacity": 100,
      "angle": 0,
      "x": 532,
      "y": 781,
      "strokeColor": "#0b7285",
      "backgroundColor": "transparent",
      "width": 194,
      "height": 20,
      "seed": 2087062113,
      "groupIds": [],
      "strokeSharpness": "sharp",
      "boundElementIds": [
        "JlLcfr5J3C_k8K2m_sevV",
        "jtdnfDF97zNSV31HGrIOO"
      ],
      "fontSize": 15.527661641438803,
      "fontFamily": 1,
      "text": "SRP/ZKPP Authentication",
      "baseline": 14,
      "textAlign": "left",
      "verticalAlign": "top"
    },
    {
      "type": "arrow",
      "version": 1930,
      "versionNonce": 1381522184,
      "isDeleted": false,
      "id": "-qxSoW7PRYMpc22ySztrU",
      "fillStyle": "solid",
      "strokeWidth": 2,
      "strokeStyle": "solid",
      "roughness": 0,
      "opacity": 100,
      "angle": 0,
      "x": 518.7977925474349,
      "y": 813.1246837857018,
      "strokeColor": "#0b7285",
      "backgroundColor": "#ffffff",
      "width": 217.42785240513,
      "height": 0.36305918640880463,
      "seed": 1148297295,
      "groupIds": [],
      "strokeSharpness": "round",
      "boundElementIds": [],
      "startBinding": {
        "elementId": "59oOnkixsoqbWkAki2xLU",
        "focus": 1.4706680782519121,
        "gap": 24.87462275054554
      },
      "endBinding": {
        "elementId": "7jTLk6HYtsQnfIfKp_OKq",
        "focus": -0.8574563762396783,
        "gap": 1.1341267759506763
      },
      "points": [
        [
          0,
          0
        ],
        [
          217.42785240513,
          0.36305918640880463
        ]
      ],
      "lastCommittedPoint": null,
      "startArrowhead": null,
      "endArrowhead": "arrow"
    },
    {
      "type": "text",
      "version": 331,
      "versionNonce": 1647622520,
      "isDeleted": false,
      "id": "U6VjcLrvpq-x0kuk6aBbt",
      "fillStyle": "hachure",
      "strokeWidth": 1,
      "strokeStyle": "solid",
      "roughness": 1,
      "opacity": 100,
      "angle": 0,
      "x": 529.5958862304688,
      "y": 817.7911310195923,
      "strokeColor": "#0b7285",
      "backgroundColor": "transparent",
      "width": 203.32037353515628,
      "height": 17.603495544169373,
      "seed": 1541241985,
      "groupIds": [],
      "strokeSharpness": "sharp",
      "boundElementIds": [],
      "fontSize": 14.376942368609289,
      "fontFamily": 1,
      "text": "Limited Access to Resources",
      "baseline": 12.603495544169373,
      "textAlign": "left",
      "verticalAlign": "top"
    },
    {
      "type": "text",
      "version": 82,
      "versionNonce": 667569528,
      "isDeleted": false,
      "id": "uKzZJh8WBnYZwtnQ63kxR",
      "fillStyle": "solid",
      "strokeWidth": 1,
      "strokeStyle": "dotted",
      "roughness": 0,
      "opacity": 100,
      "angle": 0,
      "x": 763.9075302850632,
      "y": 733.4823608398438,
      "strokeColor": "#d9480f",
      "backgroundColor": "#364fc7",
      "width": 41.13910057431175,
      "height": 29.28546142578125,
      "seed": 1152786594,
      "groupIds": [],
      "strokeSharpness": "sharp",
      "boundElementIds": [
        "kBe77_903PDk9PAQOmXqk"
      ],
      "fontSize": 11.156366257440474,
      "fontFamily": 1,
      "text": "Socket/\nMemory",
      "baseline": 25.28546142578125,
      "textAlign": "center",
      "verticalAlign": "top"
    },
    {
      "type": "arrow",
      "version": 1892,
      "versionNonce": 1628983304,
      "isDeleted": false,
      "id": "jtdnfDF97zNSV31HGrIOO",
      "fillStyle": "solid",
      "strokeWidth": 2,
      "strokeStyle": "solid",
      "roughness": 0,
      "opacity": 100,
      "angle": 0,
      "x": 738.5751540381759,
      "y": 771.853882315652,
      "strokeColor": "#0b7285",
      "backgroundColor": "#ffffff",
      "width": 220.20289441352747,
      "height": 0.6496198245587266,
      "seed": 649133950,
      "groupIds": [],
      "strokeSharpness": "round",
      "boundElementIds": [],
      "startBinding": {
        "elementId": "L7MsUwY4gqBlU84UxrG00",
        "focus": 2.4132292218177462,
        "gap": 15.146117684348042
      },
      "endBinding": {
        "elementId": "59oOnkixsoqbWkAki2xLU",
        "focus": 0.5692234108931776,
        "gap": 6.160263502477278
      },
      "points": [
        [
          0,
          0
        ],
        [
          -220.20289441352747,
          0.6496198245587266
        ]
      ],
      "lastCommittedPoint": null,
      "startArrowhead": null,
      "endArrowhead": "arrow"
    },
    {
      "type": "arrow",
      "version": 2088,
      "versionNonce": 1370700040,
      "isDeleted": false,
      "id": "UNPBrRwHzIG1aHh_eFYJ4",
      "fillStyle": "solid",
      "strokeWidth": 2,
      "strokeStyle": "solid",
      "roughness": 0,
      "opacity": 100,
      "angle": 0,
      "x": 520.2860737974349,
      "y": 730.8184704067955,
      "strokeColor": "#0b7285",
      "backgroundColor": "#ffffff",
      "width": 217.42785240513,
      "height": 0.36305918640880463,
      "seed": 269955810,
      "groupIds": [],
      "strokeSharpness": "round",
      "boundElementIds": [],
      "startBinding": {
        "elementId": "59oOnkixsoqbWkAki2xLU",
        "focus": -0.10645224471475151,
        "gap": 8.074077675263766
      },
      "endBinding": null,
      "points": [
        [
          0,
          0
        ],
        [
          217.42785240513,
          0.36305918640880463
        ]
      ],
      "lastCommittedPoint": null,
      "startArrowhead": null,
      "endArrowhead": "arrow"
    }
  ],
  "appState": {
    "gridSize": null,
    "viewBackgroundColor": "#ffffff"
  }
}